"","SimAlpha","fitAlpha","simBeta","fitBeta","BIC"
"1",0.5,0.280761527090996,1,1,529.368577565857
"2",0.5,0.472447149034586,1.66666666666667,1.81100012328447,462.117344552
"3",0.5,0.493255071328488,2.33333333333333,2.16643687053641,427.394499675073
"4",0.5,0.526644361509029,3,2.66413762859291,373.021815772978
"5",0.5,0.516639199099977,3.66666666666667,3.34380099429671,309.691378666253
"6",0.5,0.488110502380867,4.33333333333333,4.9517548606297,203.164354635047
"7",0.5,0.511056257930812,5,5.4808238884387,172.551948785983
"8",0.5,0.511574787070086,5.66666666666667,6.23237268733799,145.164543084177
"9",0.5,0.445866893465521,6.33333333333333,6.22643065611594,159.479355197899
"10",0.5,0.535606025864881,7,7.01086175364532,117.085006265136
