"","SimAlpha","fitAlpha","simBeta","fitBeta","BIC"
"1",0.4,0.196037917205197,1,1,528.994965491062
"2",0.4,0.289596997809642,2,2.34108478691053,436.611460545919
"3",0.4,0.357558543502251,3,3.05149613631105,364.639397628239
"4",0.4,0.489246337797367,4,3.3214646338534,317.522990428564
"5",0.4,0.338012177006985,5,4.90058766600711,231.238028866632
"6",0.4,0.312829082141483,6,6.58557930964326,158.755024500299
"7",0.4,0.363497750613364,7,6.79098995367783,149.854533248866
"8",0.4,0.419887955654242,8,8.03139948242549,119.92991382769
"9",0.4,0.408269698640979,9,7.72063445604161,126.024441813891
"10",0.4,0.379011498139288,10,10,81.8267586648731
