"","SimAlpha","fitAlpha","simBeta","fitBeta","BIC"
"1",0.3,0.129978981849573,1,1.25295080336888,522.884572848823
"2",0.3,0.33194341797806,2,1.98534954568984,460.613693848088
"3",0.3,0.318849276379582,3,2.68081476626199,403.347680682753
"4",0.3,0.288621397939608,4,3.85385811236978,310.077909923862
"5",0.3,0.299671459622035,5,4.80949426060182,242.107383919416
"6",0.3,0.302834994666399,6,6.24706911696591,171.630101010078
"7",0.3,0.285173994471299,7,7.8316046207393,124.787197379756
"8",0.3,0.307361154396437,8,8.40133266851754,112.535402155228
"9",0.3,0.294602413006652,9,8.65487418344267,107.78622089173
"10",0.3,0.293846755103606,10,10,83.9950919741496
