"","SimAlpha","fitAlpha","simBeta","fitBeta","BIC"
"1",0.2,0.273145828332918,1,1.22466246322635,514.329527700878
"2",0.2,0.150009738502803,2,2.41556017046472,459.097717457475
"3",0.2,0.169933908917868,3,2.95900928793507,412.873731067165
"4",0.2,0.186206380588045,4,3.68351848452923,350.285475301284
"5",0.2,0.244002538473761,5,4.51266096799341,271.675762474798
"6",0.2,0.210933580705701,6,6.14136896780226,189.525512975153
"7",0.2,0.147958491559348,7,8.23357732461583,140.749885999756
"8",0.2,0.152537680358105,8,10,79.3003635193566
"9",0.2,0.211022926162007,9,7.37508860293675,144.044249114085
"10",0.2,0.171288964863632,10,10,72.4873438256075
