"","SimAlpha","fitAlpha","simBeta","fitBeta","BIC"
"1",0.2,0.0102353262946652,0.222669974727785,40,27.046327428173
"2",0.2,1,0.313855662169291,1.09861228820475,26.5751589325907
"3",0.2,1,0.588930076919496,19.2484939670421,24.3779343814747
"4",0.2,0.6434854012914,1.10297953399519,1,27.1505230774942
"5",0.2,0,2.15036957059056,1,27.1505230774942
"6",0.2,0,3.19621687072868,1,27.1505230774942
"7",0.2,0,4.66607582684242,1,27.1505230774942
"8",0.2,0.163399913348258,4.88926347317108,1,27.1505230774942
"9",0.2,0.900366257599754,7.58589614440401,40,21.9868569011011
"10",0.2,0.934575834078714,9.028728523182,1.39958208632605,27.1505230774942
