"","SimAlpha","fitAlpha","simBeta","fitBeta","BIC"
"1",0.9,0.857787133316849,1,1,513.857616372276
"2",0.9,0.956380176695443,1.66666666666667,1.5899875490384,432.545409828989
"3",0.9,1,2.33333333333333,2.02226259144573,361.527036852829
"4",0.9,0.8165601192525,3,2.96280756629301,269.884715429213
"5",0.9,0.879716903956586,3.66666666666667,3.52890416349881,186.181012032617
"6",0.9,0.827860873970311,4.33333333333333,5.04881033219974,89.0413478033069
"7",0.9,0.850110590361509,5,5.60466293837656,62.3449421835429
"8",0.9,0.919045761788151,5.66666666666667,5.99721536541597,42.2642225814508
"9",0.9,0.750441203152423,6.33333333333333,8.79120085429459,28.1031852203661
"10",0.9,0.884143987670093,7,6.98724025180387,30.4283800338988
