"SubNum","character","response","trialCond","accuracy","cumAcc","RT","trialNum","listN","trialtfromchange"
"1","m5","3",1,0,0,0.619,1,1,1
"1","m5","2",1,0,0,1.235,2,1,2
"1","m2","1",0,0,0,1.105,3,1,3
"1","m2","1",1,0,0,0.637,4,1,4
"1","m5","2",1,1,0.2,1.122,5,1,5
"1","m2","4",1,0,0.166666666666667,0.405,6,1,6
"1","m2","4",0,0,0.142857142857143,1.818,7,1,7
"1","m2","3",1,0,0.125,1.353,8,1,8
"1","m5","1",1,1,0.222222222222222,0.754,9,1,9
"1","m5","3",1,1,0.3,1.39,10,1,10
"1","m5","1",1,0,0.272727272727273,1.535,11,1,11
"1","m5","2",0,0,0.25,1.304,12,1,12
"1","m2","4",0,0,0.230769230769231,0.937,13,1,13
"1","m2","1",1,1,0.285714285714286,1.783,14,1,14
"1","m2","3",1,0,0.266666666666667,1.57,15,1,15
"1","m5","3",0,0,0.25,1.377,16,1,16
"1","m5","2",0,0,0.235294117647059,1.017,17,1,17
"1","m5","1",1,1,0.277777777777778,1.167,18,1,18
"1","m2","4",1,0,0.263157894736842,0.859,19,1,19
"1","m5","2",0,0,0.25,0.844,20,1,20
"1","m2","1",0,0,0.238095238095238,1.52,21,1,21
"1","m5","1",1,0,0.227272727272727,1.371,22,1,22
"1","m2","2",1,0,0.217391304347826,0.853,23,1,23
"1","m5","1",1,1,0.25,1.072,24,1,24
"1","m5","2",0,0,0.24,2.013,25,1,25
"1","m2","4",1,1,0.269230769230769,0.836,26,1,26
"1","m5","4",1,1,0.296296296296296,1.442,27,1,27
"1","m5","3",1,0,0.285714285714286,1.334,28,1,28
"1","m5","1",1,0,0.275862068965517,1.266,29,1,29
"1","m5","2",1,1,0.3,1.59,30,1,30
"1","m2","1",1,0,0.290322580645161,0.822,31,1,31
"1","m2","3",1,1,0.3125,1.54,32,1,32
"1","m5","4",0,1,0.333333333333333,0.896,33,1,33
"1","m5","2",1,0,0.323529411764706,1.465,34,1,34
"1","m2","2",1,0,0.314285714285714,1.41,35,1,35
"1","m5","3",1,0,0.305555555555556,1.609,36,1,36
"1","m2","2",1,1,0.324324324324324,2.143,37,1,37
"1","m2","1",1,1,0.342105263157895,1.549,38,1,38
"1","m2","4",1,1,0.358974358974359,1.398,39,1,39
"1","m2","2",1,0,0.35,1.804,40,1,40
"1","m5","2",1,1,0.365853658536585,0.736,41,1,41
"1","m2","2",1,1,0.380952380952381,1.612,42,1,42
"1","m2","2",1,1,0.395348837209302,0.569,43,1,43
"1","m2","1",1,1,0.409090909090909,0.904,44,1,44
"1","m5","3",1,1,0.422222222222222,1.109,45,1,45
"1","m2","4",0,0,0.41304347826087,1.959,46,1,46
"1","m5","4",1,0,0.404255319148936,1.866,47,1,47
"1","m2","1",0,0,0.395833333333333,1.559,48,1,48
"2","m5","2",1,1,1,1.495,1,1,1
"2","m5","1",1,1,1,1.517,2,1,2
"2","m2","2",0,1,1,2.963,3,1,3
"2","m2","1",1,0,0.75,2.426,4,1,4
"2","m5","4",1,0,0.6,2.011,5,1,5
"2","m2","1",1,1,0.666666666666667,1.183,6,1,6
"2","m2","3",0,0,0.571428571428571,1.615,7,1,7
"2","m2","4",1,0,0.5,1.383,8,1,8
"2","m5","3",1,0,0.444444444444444,1.411,9,1,9
"2","m5","3",1,1,0.5,3.063,10,1,10
"2","m5","4",1,1,0.545454545454545,1.949,11,1,11
"2","m5","2",0,0,0.5,2.416,12,1,12
"2","m2",NA,0,0,0.461538461538462,NA,13,1,13
"2","m2","3",1,0,0.428571428571429,1.3,14,1,14
"2","m2","2",1,1,0.466666666666667,2.731,15,1,15
"2","m5","3",0,0,0.4375,1.767,16,1,16
"2","m5","2",0,0,0.411764705882353,2.131,17,1,17
"2","m5","3",1,0,0.388888888888889,0.85,18,1,18
"2","m2","3",1,0,0.368421052631579,1.832,19,1,19
"2","m5","2",0,0,0.35,1.449,20,1,20
"2","m2","4",0,0,0.333333333333333,1.048,21,1,21
"2","m5","4",1,0,0.318181818181818,1.68,22,1,22
"2","m2","4",1,1,0.347826086956522,1.853,23,1,23
"2","m5","2",1,0,0.333333333333333,1.382,24,1,24
"2","m5","2",0,0,0.32,1.447,25,1,25
"2","m2","4",1,1,0.346153846153846,1.166,26,1,26
"2","m5","1",1,0,0.333333333333333,1.682,27,1,27
"2","m5","3",1,0,0.321428571428571,1.928,28,1,28
"2","m5","4",1,1,0.344827586206897,1.579,29,1,29
"2","m5","2",1,1,0.366666666666667,1.124,30,1,30
"2","m2","3",1,1,0.387096774193548,0.818,31,1,31
"2","m2","3",1,1,0.40625,0.729,32,1,32
"2","m5","3",0,0,0.393939393939394,2.165,33,1,33
"2","m5","2",1,0,0.382352941176471,0.968,34,1,34
"2","m2","3",1,1,0.4,0.957,35,1,35
"2","m5","4",1,0,0.388888888888889,2.615,36,1,36
"2","m2","2",1,1,0.405405405405405,1.102,37,1,37
"2","m2","1",1,1,0.421052631578947,1.444,38,1,38
"2","m2","2",1,0,0.41025641025641,2.204,39,1,39
"2","m2","3",1,1,0.425,1.613,40,1,40
"2","m5","4",1,0,0.414634146341463,1.862,41,1,41
"2","m2","2",1,1,0.428571428571429,1.433,42,1,42
"2","m2","2",1,1,0.441860465116279,1.7,43,1,43
"2","m2","1",1,1,0.454545454545455,1.378,44,1,44
"2","m5","1",1,0,0.444444444444444,1.331,45,1,45
"2","m2","4",0,0,0.434782608695652,1.193,46,1,46
"2","m5","2",1,0,0.425531914893617,2.207,47,1,47
"2","m2","1",0,0,0.416666666666667,2.234,48,1,48
"4","m5","2",1,1,1,1.06982,1,1,1
"4","m5","2",1,0,0.5,1.14453,2,1,2
"4","m2","4",0,0,0.333333333333333,1.32161,3,1,3
"4","m2","1",1,0,0.25,1.107085,4,1,4
"4","m5","1",1,0,0.2,1.022385,5,1,5
"4","m2","3",1,0,0.166666666666667,1.050315,6,1,6
"4","m2","4",0,0,0.142857142857143,1.709455,7,1,7
"4","m2","4",1,0,0.125,1.252345,8,1,8
"4","m5","4",1,0,0.111111111111111,1.1352,9,1,9
"4","m5","1",1,0,0.1,1.619275,10,1,10
"4","m5","3",1,0,0.0909090909090909,1.58215,11,1,11
"4","m5","1",0,1,0.166666666666667,0.683815,12,1,12
"4","m2","3",0,0,0.153846153846154,1.26922,13,1,13
"4","m2","2",1,0,0.142857142857143,0.81956,14,1,14
"4","m2","2",1,1,0.2,0.84739,15,1,15
"4","m5","1",0,0,0.1875,0.654025,16,1,16
"4","m5","4",0,1,0.235294117647059,2.225245,17,1,17
"4","m5","2",1,0,0.222222222222222,1.535045,18,1,18
"4","m2","3",1,0,0.210526315789474,1.13464,19,1,19
"4","m5","2",0,0,0.2,0.780775,20,1,20
"4","m2","4",0,0,0.19047619047619,1.084475,21,1,21
"4","m5","1",1,0,0.181818181818182,0.95042,22,1,22
"4","m2","4",1,1,0.217391304347826,1.28511,23,1,23
"4","m5","1",1,1,0.25,1.006345,24,1,24
"4","m5","1",0,0,0.24,1.513645,25,1,25
"4","m2","2",1,0,0.230769230769231,1.80449,26,1,26
"4","m5","4",1,1,0.259259259259259,1.63788,27,1,27
"4","m5","1",1,1,0.285714285714286,1.00423,28,1,28
"4","m5","4",1,1,0.310344827586207,1.12552,29,1,29
"4","m5","4",1,0,0.3,1.435215,30,1,30
"4","m2","3",1,1,0.32258064516129,0.835935,31,1,31
"4","m2","3",1,1,0.34375,0.59282,32,1,32
"4","m5","2",0,0,0.333333333333333,0.91906,33,1,33
"4","m5","2",1,0,0.323529411764706,1.24453,34,1,34
"4","m2","3",1,1,0.342857142857143,1.04258,35,1,35
"4","m5","1",1,1,0.361111111111111,0.644645,36,1,36
"4","m2","2",1,1,0.378378378378378,1.237415,37,1,37
"4","m2","1",1,1,0.394736842105263,0.78694,38,1,38
"4","m2","4",1,1,0.41025641025641,2.06085,39,1,39
"4","m2","3",1,1,0.425,0.686435,40,1,40
"4","m5","2",1,1,0.439024390243902,1.38391,41,1,41
"4","m2","2",1,1,0.452380952380952,0.968885,42,1,42
"4","m2","2",1,1,0.465116279069767,0.61112,43,1,43
"4","m2","1",1,1,0.477272727272727,0.870455,44,1,44
"4","m5","3",1,1,0.488888888888889,1.101855,45,1,45
"4","m2","4",0,0,0.478260869565217,1.15377,46,1,46
"4","m5","4",1,0,0.468085106382979,1.951005,47,1,47
"4","m2","1",0,0,0.458333333333333,0.836755,48,1,48
"5","m5","3",1,0,0,2.28876,1,1,1
"5","m5","3",1,0,0,1.09229,2,1,2
"5","m2","4",0,0,0,2.849825,3,1,3
"5","m2","1",1,0,0,1.464505,4,1,4
"5","m5","2",1,1,0.2,1.846015,5,1,5
"5","m2","4",1,0,0.166666666666667,2.412965,6,1,6
"5","m2","1",0,0,0.142857142857143,3.697685,7,1,7
"5","m2","1",1,0,0.125,3.49598,8,1,8
"5","m5","2",1,0,0.111111111111111,2.441155,9,1,9
"5","m5","1",1,0,0.1,1.008915,10,1,10
"5","m5",NA,1,0,0.0909090909090909,NA,11,1,11
"5","m5","1",0,1,0.166666666666667,1.230845,12,1,12
"5","m2",NA,0,0,0.153846153846154,NA,13,1,13
"5","m2","4",1,0,0.142857142857143,1.28979,14,1,14
"5","m2","1",1,0,0.133333333333333,1.18438,15,1,15
"5","m5","1",0,0,0.125,0.99537,16,1,16
"5","m5","4",0,1,0.176470588235294,2.16524,17,1,17
"5","m5","3",1,0,0.166666666666667,1.238435,18,1,18
"5","m2","1",1,0,0.157894736842105,1.62202,19,1,19
"5","m5","2",0,0,0.15,2.48284,20,1,20
"5","m2","4",0,0,0.142857142857143,1.172155,21,1,21
"5","m5","4",1,0,0.136363636363636,1.57089,22,1,22
"5","m2","4",1,1,0.173913043478261,1.648705,23,1,23
"5","m5","3",1,0,0.166666666666667,1.569755,24,1,24
"5","m5","4",0,1,0.2,2.67256,25,1,25
"5","m2","4",1,1,0.230769230769231,2.902535,26,1,26
"5","m5","1",1,0,0.222222222222222,0.6425,27,1,27
"5","m5","4",1,0,0.214285714285714,2.547405,28,1,28
"5","m5","3",1,0,0.206896551724138,2.27539,29,1,29
"5","m5","2",1,1,0.233333333333333,1.395215,30,1,30
"5","m2","4",1,0,0.225806451612903,2.70045,31,1,31
"5","m2","1",1,0,0.21875,2.175,32,1,32
"5","m5","3",0,0,0.212121212121212,1.257965,33,1,33
"5","m5","1",1,0,0.205882352941176,1.78187,34,1,34
"5","m2","1",1,0,0.2,2.130885,35,1,35
"5","m5","2",1,0,0.194444444444444,1.04733,36,1,36
"5","m2","3",1,0,0.189189189189189,2.0411,37,1,37
"5","m2","1",1,1,0.210526315789474,0.718405,38,1,38
"5","m2","4",1,1,0.230769230769231,1.5363,39,1,39
"5","m2","3",1,1,0.25,1.72037,40,1,40
"5","m5","4",1,0,0.24390243902439,1.796525,41,1,41
"5","m2","2",1,1,0.261904761904762,1.46501,42,1,42
"5","m2","2",1,1,0.27906976744186,0.7214,43,1,43
"5","m2","1",1,1,0.295454545454545,0.718555,44,1,44
"5","m5","1",1,0,0.288888888888889,1.83817,45,1,45
"5","m2","4",0,0,0.282608695652174,1.22744,46,1,46
"5","m5","3",1,1,0.297872340425532,1.818085,47,1,47
"5","m2","1",0,0,0.291666666666667,2.48411,48,1,48
"6","m5",NA,1,0,0,NA,1,1,1
"6","m5","3",1,0,0,1.194,2,1,2
"6","m2","1",0,0,0,1.126,3,1,3
"6","m2","1",1,0,0,1.457,4,1,4
"6","m5","4",1,0,0,1.745,5,1,5
"6","m2","4",1,0,0,2.347,6,1,6
"6","m2","3",0,0,0,1.598,7,1,7
"6","m2","4",1,0,0,2.594,8,1,8
"6","m5","2",1,0,0,1.623,9,1,9
"6","m5","1",1,0,0,2.127,10,1,10
"6","m5","4",1,1,0.0909090909090909,2.325,11,1,11
"6","m5","2",0,0,0.0833333333333333,1.657,12,1,12
"6","m2","1",0,1,0.153846153846154,1.29,13,1,13
"6","m2","3",1,0,0.142857142857143,1.706,14,1,14
"6","m2","2",1,1,0.2,1.678,15,1,15
"6","m5","3",0,0,0.1875,1.875,16,1,16
"6","m5","4",0,1,0.235294117647059,2.145,17,1,17
"6","m5","3",1,0,0.222222222222222,1.598,18,1,18
"6","m2","4",1,0,0.210526315789474,1.931,19,1,19
"6","m5","2",0,0,0.2,1.566,20,1,20
"6","m2","1",0,0,0.19047619047619,1.714,21,1,21
"6","m5","1",1,0,0.181818181818182,1.591,22,1,22
"6","m2","2",1,0,0.173913043478261,1.095,23,1,23
"6","m5","3",1,0,0.166666666666667,1.874,24,1,24
"6","m5","2",0,0,0.16,1.246,25,1,25
"6","m2","4",1,1,0.192307692307692,2.361,26,1,26
"6","m5","3",1,0,0.185185185185185,1.912,27,1,27
"6","m5","3",1,0,0.178571428571429,0.93,28,1,28
"6","m5","3",1,0,0.172413793103448,1.081,29,1,29
"6","m5","1",1,0,0.166666666666667,2.691,30,1,30
"6","m2","1",1,0,0.161290322580645,1.058,31,1,31
"6","m2","3",1,1,0.1875,0.976,32,1,32
"6","m5","4",0,1,0.212121212121212,2.59,33,1,33
"6","m5","2",1,0,0.205882352941176,1.831,34,1,34
"6","m2","3",1,1,0.228571428571429,1.473,35,1,35
"6","m5","4",1,0,0.222222222222222,1.812,36,1,36
"6","m2","2",1,1,0.243243243243243,3.756,37,1,37
"6","m2","1",1,1,0.263157894736842,1.821,38,1,38
"6","m2","4",1,1,0.282051282051282,3.21,39,1,39
"6","m2","2",1,0,0.275,2.046,40,1,40
"6","m5","3",1,0,0.268292682926829,2.178,41,1,41
"6","m2","2",1,1,0.285714285714286,1.116,42,1,42
"6","m2","4",1,0,0.27906976744186,2.093,43,1,43
"6","m2","1",1,1,0.295454545454545,1.422,44,1,44
"6","m5","4",1,0,0.288888888888889,2.659,45,1,45
"6","m2","4",0,0,0.282608695652174,1.896,46,1,46
"6","m5","2",1,0,0.276595744680851,1.311,47,1,47
"6","m2","1",0,0,0.270833333333333,1.772,48,1,48
"7","m5","2",1,1,1,1.422,1,1,1
"7","m5","1",1,1,1,2.188,2,1,2
"7","m2","3",0,0,0.666666666666667,1.158,3,1,3
"7","m2","1",1,0,0.5,2.174,4,1,4
"7","m5","3",1,0,0.4,1.422,5,1,5
"7","m2","1",1,1,0.5,1.143,6,1,6
"7","m2","3",0,0,0.428571428571429,0.82,7,1,7
"7","m2","2",1,1,0.5,0.858,8,1,8
"7","m5","3",1,0,0.444444444444444,1.894,9,1,9
"7","m5","1",1,0,0.4,1.614,10,1,10
"7","m5","4",1,1,0.454545454545455,1.735,11,1,11
"7","m5","4",0,0,0.416666666666667,1.943,12,1,12
"7","m2","4",0,0,0.384615384615385,1.608,13,1,13
"7","m2","2",1,0,0.357142857142857,1.937,14,1,14
"7","m2","2",1,1,0.4,0.891,15,1,15
"7","m5","3",0,0,0.375,0.237,16,1,16
"7","m5","4",0,1,0.411764705882353,1.337,17,1,17
"7","m5","3",1,0,0.388888888888889,1.189,18,1,18
"7","m2","1",1,0,0.368421052631579,1.72,19,1,19
"7","m5","2",0,0,0.35,0.902,20,1,20
"7","m2","4",0,0,0.333333333333333,1.454,21,1,21
"7","m5","3",1,1,0.363636363636364,1.5,22,1,22
"7","m2","4",1,1,0.391304347826087,0.774,23,1,23
"7","m5","1",1,1,0.416666666666667,1.043,24,1,24
"7","m5","2",0,0,0.4,1.031,25,1,25
"7","m2","4",1,1,0.423076923076923,0.858,26,1,26
"7","m5","4",1,1,0.444444444444444,1.205,27,1,27
"7","m5","4",1,0,0.428571428571429,1.171,28,1,28
"7","m5","4",1,1,0.448275862068966,2.3,29,1,29
"7","m5","2",1,1,0.466666666666667,0.641,30,1,30
"7","m2","3",1,1,0.483870967741935,0.596,31,1,31
"7","m2","3",1,1,0.5,2.041,32,1,32
"7","m5","2",0,0,0.484848484848485,0.739,33,1,33
"7","m5","4",1,1,0.5,2.977,34,1,34
"7","m2","3",1,1,0.514285714285714,0.838,35,1,35
"7","m5","1",1,1,0.527777777777778,0.652,36,1,36
"7","m2","2",1,1,0.540540540540541,1.043,37,1,37
"7","m2","1",1,1,0.552631578947368,1.407,38,1,38
"7","m2","4",1,1,0.564102564102564,1.113,39,1,39
"7","m2","3",1,1,0.575,1.705,40,1,40
"7","m5","2",1,1,0.585365853658537,0.85,41,1,41
"7","m2","2",1,1,0.595238095238095,0.909,42,1,42
"7","m2","2",1,1,0.604651162790698,0.906,43,1,43
"7","m2","1",1,1,0.613636363636364,0.741,44,1,44
"7","m5","3",1,1,0.622222222222222,1.053,45,1,45
"7","m2","4",0,0,0.608695652173913,1.246,46,1,46
"7","m5","3",1,1,0.617021276595745,1.04,47,1,47
"7","m2","1",0,0,0.604166666666667,0.986,48,1,48
"8","m5","3",1,0,0,2.995,1,1,1
"8","m5","2",1,0,0,1.4,2,1,2
"8","m2","1",0,0,0,1.178,3,1,3
"8","m2","2",1,0,0,2.243,4,1,4
"8","m5","3",1,0,0,2.433,5,1,5
"8","m2","2",1,0,0,2.544,6,1,6
"8","m2","1",0,0,0,1.534,7,1,7
"8","m2","3",1,0,0,1.429,8,1,8
"8","m5","4",1,0,0,2.284,9,1,9
"8","m5","3",1,1,0.1,1.21,10,1,10
"8","m5",NA,1,0,0.0909090909090909,NA,11,1,11
"8","m5","2",0,0,0.0833333333333333,0.677,12,1,12
"8","m2","1",0,1,0.153846153846154,1.077,13,1,13
"8","m2","4",1,0,0.142857142857143,0.945,14,1,14
"8","m2","2",1,1,0.2,0.937,15,1,15
"8","m5","3",0,0,0.1875,0.599,16,1,16
"8","m5","4",0,1,0.235294117647059,2.81,17,1,17
"8","m5","3",1,0,0.222222222222222,1.135,18,1,18
"8","m2","4",1,0,0.210526315789474,1.235,19,1,19
"8","m5","2",0,0,0.2,1.534,20,1,20
"8","m2","2",0,1,0.238095238095238,1.005,21,1,21
"8","m5","1",1,0,0.227272727272727,0.653,22,1,22
"8","m2","2",1,0,0.217391304347826,2.247,23,1,23
"8","m5","1",1,1,0.25,1.78,24,1,24
"8","m5","2",0,0,0.24,1.663,25,1,25
"8","m2","3",1,0,0.230769230769231,0.979,26,1,26
"8","m5","2",1,0,0.222222222222222,1.2,27,1,27
"8","m5","3",1,0,0.214285714285714,1.95,28,1,28
"8","m5","3",1,0,0.206896551724138,0.686,29,1,29
"8","m5","1",1,0,0.2,1.045,30,1,30
"8","m2","3",1,1,0.225806451612903,0.944,31,1,31
"8","m2","3",1,1,0.25,0.705,32,1,32
"8","m5","2",0,0,0.242424242424242,1.878,33,1,33
"8","m5","2",1,0,0.235294117647059,1.034,34,1,34
"8","m2","3",1,1,0.257142857142857,0.704,35,1,35
"8","m5","4",1,0,0.25,0.962,36,1,36
"8","m2","2",1,1,0.27027027027027,0.784,37,1,37
"8","m2","2",1,0,0.263157894736842,1.211,38,1,38
"8","m2","4",1,1,0.282051282051282,1.047,39,1,39
"8","m2","3",1,1,0.3,1.682,40,1,40
"8","m5","3",1,0,0.292682926829268,1.918,41,1,41
"8","m2","2",1,1,0.30952380952381,0.896,42,1,42
"8","m2","2",1,1,0.325581395348837,0.584,43,1,43
"8","m2","1",1,1,0.340909090909091,1.12,44,1,44
"8","m5","1",1,0,0.333333333333333,1.795,45,1,45
"8","m2","3",0,0,0.326086956521739,2.318,46,1,46
"8","m5","2",1,0,0.319148936170213,2.083,47,1,47
"8","m2","4",0,1,0.333333333333333,1.695,48,1,48
"9","m5","3",1,0,0,3.045,1,1,1
"9","m5","1",1,1,0.5,1.181,2,1,2
"9","m2","3",0,0,0.333333333333333,0.997,3,1,3
"9","m2","4",1,1,0.5,1.054,4,1,4
"9","m5","2",1,1,0.6,0.781,5,1,5
"9","m2","1",1,1,0.666666666666667,1.848,6,1,6
"9","m2","1",0,0,0.571428571428571,1.23,7,1,7
"9","m2","2",1,1,0.625,1.839,8,1,8
"9","m5","2",1,0,0.555555555555556,1.987,9,1,9
"9","m5","1",1,0,0.5,0.898,10,1,10
"9","m5",NA,1,0,0.454545454545455,NA,11,1,11
"9","m5","2",0,0,0.416666666666667,1.621,12,1,12
"9","m2","4",0,0,0.384615384615385,1.923,13,1,13
"9","m2","3",1,0,0.357142857142857,1.733,14,1,14
"9","m2","4",1,0,0.333333333333333,1.837,15,1,15
"9","m5","3",0,0,0.3125,0.987,16,1,16
"9","m5","2",0,0,0.294117647058824,1.088,17,1,17
"9","m5","3",1,0,0.277777777777778,1.931,18,1,18
"9","m2","2",1,1,0.315789473684211,1.736,19,1,19
"9","m5","1",0,0,0.3,1.038,20,1,20
"9","m2","4",0,0,0.285714285714286,1.523,21,1,21
"9","m5","2",1,0,0.272727272727273,1.702,22,1,22
"9","m2","4",1,1,0.304347826086957,2.17,23,1,23
"9","m5","2",1,0,0.291666666666667,1.988,24,1,24
"9","m5","3",0,0,0.28,0.797,25,1,25
"9","m2","4",1,1,0.307692307692308,0.815,26,1,26
"9","m5","1",1,0,0.296296296296296,1.466,27,1,27
"9","m5","1",1,1,0.321428571428571,1.203,28,1,28
"9","m5","4",1,1,0.344827586206897,1.33,29,1,29
"9","m5","2",1,1,0.366666666666667,0.996,30,1,30
"9","m2","3",1,1,0.387096774193548,1.319,31,1,31
"9","m2","3",1,1,0.40625,1.014,32,1,32
"9","m5","2",0,0,0.393939393939394,0.699,33,1,33
"9","m5","4",1,1,0.411764705882353,1.097,34,1,34
"9","m2","3",1,1,0.428571428571429,1.304,35,1,35
"9","m5","1",1,1,0.444444444444444,0.698,36,1,36
"9","m2","3",1,0,0.432432432432432,1.805,37,1,37
"9","m2","1",1,1,0.447368421052632,1.132,38,1,38
"9","m2","4",1,1,0.461538461538462,1.446,39,1,39
"9","m2","3",1,1,0.475,1.503,40,1,40
"9","m5","2",1,1,0.48780487804878,0.622,41,1,41
"9","m2","2",1,1,0.5,1.597,42,1,42
"9","m2","2",1,1,0.511627906976744,0.713,43,1,43
"9","m2","1",1,1,0.522727272727273,0.856,44,1,44
"9","m5","3",1,1,0.533333333333333,1.164,45,1,45
"9","m2","4",0,0,0.521739130434783,1.268,46,1,46
"9","m5","3",1,1,0.531914893617021,1.448,47,1,47
"9","m2","1",0,0,0.520833333333333,1.332,48,1,48
"10","m5","4",1,0,0.36734693877551,2.772195,1,1,1
"10","m5","3",1,0,0.36,2.36462,2,1,2
"10","m2","4",0,0,0.352941176470588,1.28047,3,1,3
"10","m2","4",1,1,0.365384615384615,0.67234,4,1,4
"10","m5","2",1,1,0.377358490566038,2.23105,5,1,5
"10","m2","1",1,1,0.388888888888889,1.197335,6,1,6
"10","m2","3",0,0,0.381818181818182,2.21305,7,1,7
"10","m2","2",1,1,0.392857142857143,1.4476,8,1,8
"10","m5","1",1,1,0.403508771929825,2.49982,9,1,9
"10","m5","1",1,0,0.396551724137931,2.484255,10,1,10
"10","m5","4",1,1,0.406779661016949,2.70232,11,1,11
"10","m5","2",0,0,0.4,1.70199,12,1,12
"10","m2","4",0,0,0.39344262295082,1.265,13,1,13
"10","m2","1",1,1,0.403225806451613,1.315755,14,1,14
"10","m2","2",1,1,0.412698412698413,1.57113,15,1,15
"10","m5","4",0,0,0.40625,2.019035,16,1,16
"10","m5","3",0,0,0.4,1.385055,17,1,17
"10","m5","3",1,0,0.393939393939394,2.03511,18,1,18
"10","m2","2",1,1,0.402985074626866,1.437275,19,1,19
"10","m5","1",0,0,0.397058823529412,1.348645,20,1,20
"10","m2","3",0,0,0.391304347826087,1.519555,21,1,21
"10","m5","1",1,0,0.385714285714286,2.920875,22,1,22
"10","m2","4",1,1,0.394366197183099,1.29685,23,1,23
"10","m5","1",1,1,0.402777777777778,2.13217,24,1,24
"10","m5","2",0,0,0.397260273972603,1.25343,25,1,25
"10","m2","4",1,1,0.405405405405405,1.164625,26,1,26
"10","m5","3",1,0,0.4,0.746915,27,1,27
"10","m5","3",1,0,0.394736842105263,3.170495,28,1,28
"10","m5","3",1,0,0.38961038961039,0.64489,29,1,29
"10","m5","2",1,1,0.397435897435897,1.43126,30,1,30
"10","m2","3",1,1,0.40506329113924,1.87018,31,1,31
"10","m2","3",1,1,0.4125,0.7704,32,1,32
"10","m5","4",0,1,0.419753086419753,2.478845,33,1,33
"10","m5","4",1,1,0.426829268292683,1.756535,34,1,34
"10","m2","3",1,1,0.433734939759036,0.60433,35,1,35
"10","m5","2",1,0,0.428571428571429,1.73294,36,1,36
"10","m2","2",1,1,0.435294117647059,1.70673,37,1,37
"10","m2","1",1,1,0.441860465116279,1.00297,38,1,38
"10","m2","4",1,1,0.448275862068966,1.185175,39,1,39
"10","m2","3",1,1,0.454545454545455,1.61768,40,1,40
"10","m5","3",1,0,0.449438202247191,2.666235,41,1,41
"10","m2","2",1,1,0.455555555555556,1.44705,42,1,42
"10","m2","2",1,1,0.461538461538462,2.61494,43,1,43
"10","m2","1",1,1,0.467391304347826,1.28755,44,1,44
"10","m5","3",1,1,0.473118279569892,1.16884,45,1,45
"10","m2","3",0,0,0.468085106382979,1.888625,46,1,46
"10","m5","2",1,0,0.463157894736842,1.147195,47,1,47
"10","m2","1",0,0,0.458333333333333,1.130935,48,1,48
"12","m5","3",1,0,0,2.689,1,1,1
"12","m5","1",1,1,0.5,2.346,2,1,2
"12","m2","2",0,1,0.666666666666667,1.337,3,1,3
"12","m2","1",1,0,0.5,1.17,4,1,4
"12","m5","2",1,1,0.6,2.329,5,1,5
"12","m2","4",1,0,0.5,1.413,6,1,6
"12","m2","1",0,0,0.428571428571429,1.698,7,1,7
"12","m2","1",1,0,0.375,1.543,8,1,8
"12","m5","4",1,0,0.333333333333333,1.589,9,1,9
"12","m5","3",1,1,0.4,1.464,10,1,10
"12","m5","1",1,0,0.363636363636364,1.37,11,1,11
"12","m5","2",0,0,0.333333333333333,2.505,12,1,12
"12","m2","4",0,0,0.307692307692308,0.819,13,1,13
"12","m2","3",1,0,0.285714285714286,1.264,14,1,14
"12","m2","4",1,0,0.266666666666667,1.581,15,1,15
"12","m5","2",0,1,0.3125,1.333,16,1,16
"12","m5","2",0,0,0.294117647058824,0.472,17,1,17
"12","m5","3",1,0,0.277777777777778,2.505,18,1,18
"12","m2","4",1,0,0.263157894736842,1.219,19,1,19
"12","m5","1",0,0,0.25,2.396,20,1,20
"12","m2","3",0,0,0.238095238095238,3.022,21,1,21
"12","m5","1",1,0,0.227272727272727,2.399,22,1,22
"12","m2","2",1,0,0.217391304347826,1.13,23,1,23
"12","m5","2",1,0,0.208333333333333,2.02,24,1,24
"12","m5","3",0,0,0.2,2.907,25,1,25
"12","m2","4",1,1,0.230769230769231,1.186,26,1,26
"12","m5","2",1,0,0.222222222222222,2.114,27,1,27
"12","m5","1",1,1,0.25,1.398,28,1,28
"12","m5","2",1,0,0.241379310344828,0.896,29,1,29
"12","m5","4",1,0,0.233333333333333,1.123,30,1,30
"12","m2","3",1,1,0.258064516129032,1.459,31,1,31
"12","m2","3",1,1,0.28125,0.908,32,1,32
"12","m5","2",0,0,0.272727272727273,1.613,33,1,33
"12","m5","4",1,1,0.294117647058824,2.168,34,1,34
"12","m2","2",1,0,0.285714285714286,2.78,35,1,35
"12","m5","1",1,1,0.305555555555556,1.386,36,1,36
"12","m2","2",1,1,0.324324324324324,1.465,37,1,37
"12","m2","1",1,1,0.342105263157895,1.463,38,1,38
"12","m2","2",1,0,0.333333333333333,2.855,39,1,39
"12","m2","3",1,1,0.35,3.736,40,1,40
"12","m5","2",1,1,0.365853658536585,1.83,41,1,41
"12","m2","1",1,0,0.357142857142857,1.432,42,1,42
"12","m2","2",1,1,0.372093023255814,0.883,43,1,43
"12","m2","1",1,1,0.386363636363636,1.323,44,1,44
"12","m5","3",1,1,0.4,2.258,45,1,45
"12","m2","4",0,0,0.391304347826087,3.047,46,1,46
"12","m5","3",1,1,0.404255319148936,2.727,47,1,47
"12","m2","1",0,0,0.395833333333333,1.513,48,1,48
"13","m5","1",1,0,0,1.704285,1,1,1
"13","m5","4",1,0,0,2.21108,2,1,2
"13","m2","4",0,0,0,2.64515,3,1,3
"13","m2","2",1,0,0,3.173345,4,1,4
"13","m5","3",1,0,0,1.96597,5,1,5
"13","m2",NA,1,0,0,NA,6,1,6
"13","m2","1",0,0,0,3.756005,7,1,7
"13","m2","2",1,1,0.125,2.693175,8,1,8
"13","m5","1",1,1,0.222222222222222,2.789835,9,1,9
"13","m5","1",1,0,0.2,3.55458,10,1,10
"13","m5","4",1,1,0.272727272727273,3.58791,11,1,11
"13","m5","1",0,1,0.333333333333333,1.634275,12,1,12
"13","m2","2",0,0,0.307692307692308,2.949165,13,1,13
"13","m2","3",1,0,0.285714285714286,1.34083,14,1,14
"13","m2","4",1,0,0.266666666666667,3.15719,15,1,15
"13","m5","1",0,0,0.25,2.391185,16,1,16
"13","m5","2",0,0,0.235294117647059,2.72877,17,1,17
"13","m5","3",1,0,0.222222222222222,1.14119,18,1,18
"13","m2","2",1,1,0.263157894736842,1.16485,19,1,19
"13","m5","1",0,0,0.25,2.18912,20,1,20
"13","m2","4",0,0,0.238095238095238,1.983935,21,1,21
"13","m5","3",1,1,0.272727272727273,2.760525,22,1,22
"13","m2","2",1,0,0.260869565217391,2.23323,23,1,23
"13","m5",NA,1,0,0.25,NA,24,1,24
"13","m5","4",0,1,0.28,3.08363,25,1,25
"13","m2","2",1,0,0.269230769230769,2.549585,26,1,26
"13","m5","1",1,0,0.259259259259259,3.554835,27,1,27
"13","m5","4",1,0,0.25,1.81981,28,1,28
"13","m5","2",1,0,0.241379310344828,1.46571,29,1,29
"13","m5",NA,1,0,0.233333333333333,NA,30,1,30
"13","m2","2",1,0,0.225806451612903,2.292605,31,1,31
"13","m2","1",1,0,0.21875,3.21551,32,1,32
"13","m5",NA,0,0,0.212121212121212,NA,33,1,33
"13","m5","1",1,0,0.205882352941176,2.05639,34,1,34
"13","m2","3",1,1,0.228571428571429,3.189205,35,1,35
"13","m5","4",1,0,0.222222222222222,2.343095,36,1,36
"13","m2","4",1,0,0.216216216216216,3.296045,37,1,37
"13","m2","1",1,1,0.236842105263158,1.540325,38,1,38
"13","m2","3",1,0,0.230769230769231,3.393125,39,1,39
"13","m2","1",1,0,0.225,2.457375,40,1,40
"13","m5","1",1,0,0.219512195121951,2.133635,41,1,41
"13","m2","4",1,0,0.214285714285714,1.953295,42,1,42
"13","m2","2",1,1,0.232558139534884,0.950685,43,1,43
"13","m2","1",1,1,0.25,1.55009,44,1,44
"13","m5","3",1,1,0.266666666666667,1.864105,45,1,45
"13","m2","4",0,0,0.260869565217391,2.0329,46,1,46
"13","m5","1",1,0,0.25531914893617,3.30208,47,1,47
"13","m2","1",0,0,0.25,1.34236,48,1,48
"14","m5","3",1,0,0,1.702975,1,1,1
"14","m5","3",1,0,0,1.218085,2,1,2
"14","m2","1",0,0,0,1.815225,3,1,3
"14","m2","1",1,0,0,1.042195,4,1,4
"14","m5","3",1,0,0,1.87695,5,1,5
"14","m2","2",1,0,0,1.450285,6,1,6
"14","m2","3",0,0,0,1.164575,7,1,7
"14","m2","2",1,1,0.125,2.08196,8,1,8
"14","m5","4",1,0,0.111111111111111,1.758535,9,1,9
"14","m5","1",1,0,0.1,1.151225,10,1,10
"14","m5","3",1,0,0.0909090909090909,1.828615,11,1,11
"14","m5","2",0,0,0.0833333333333333,1.25124,12,1,12
"14","m2","3",0,0,0.0769230769230769,1.0471,13,1,13
"14","m2","3",1,0,0.0714285714285714,1.1143,14,1,14
"14","m2","1",1,0,0.0666666666666667,2.3135,15,1,15
"14","m5","1",0,0,0.0625,1.912915,16,1,16
"14","m5","4",0,1,0.117647058823529,2.281635,17,1,17
"14","m5","3",1,0,0.111111111111111,1.95607,18,1,18
"14","m2","4",1,0,0.105263157894737,1.94662,19,1,19
"14","m5","2",0,0,0.1,2.37962,20,1,20
"14","m2","2",0,1,0.142857142857143,2.01225,21,1,21
"14","m5","1",1,0,0.136363636363636,1.695055,22,1,22
"14","m2","2",1,0,0.130434782608696,2.4072,23,1,23
"14","m5","2",1,0,0.125,1.83876,24,1,24
"14","m5","2",0,0,0.12,0.76982,25,1,25
"14","m2","4",1,1,0.153846153846154,1.436255,26,1,26
"14","m5","1",1,0,0.148148148148148,0.96347,27,1,27
"14","m5","3",1,0,0.142857142857143,0.71099,28,1,28
"14","m5","2",1,0,0.137931034482759,1.352045,29,1,29
"14","m5","1",1,0,0.133333333333333,1.142065,30,1,30
"14","m2","1",1,0,0.129032258064516,1.84366,31,1,31
"14","m2","3",1,1,0.15625,2.16847,32,1,32
"14","m5","4",0,1,0.181818181818182,1.36704,33,1,33
"14","m5","2",1,0,0.176470588235294,2.12764,34,1,34
"14","m2","2",1,0,0.171428571428571,2.29088,35,1,35
"14","m5","3",1,0,0.166666666666667,1.00113,36,1,36
"14","m2","2",1,1,0.189189189189189,1.34761,37,1,37
"14","m2","1",1,1,0.210526315789474,1.478635,38,1,38
"14","m2","3",1,0,0.205128205128205,1.407915,39,1,39
"14","m2","3",1,1,0.225,1.026985,40,1,40
"14","m5","2",1,1,0.24390243902439,1.6853,41,1,41
"14","m2","2",1,1,0.261904761904762,1.078995,42,1,42
"14","m2","2",1,1,0.27906976744186,0.82227,43,1,43
"14","m2","1",1,1,0.295454545454545,1.09158,44,1,44
"14","m5","4",1,0,0.288888888888889,0.967635,45,1,45
"14","m2","4",0,0,0.282608695652174,1.183855,46,1,46
"14","m5","3",1,1,0.297872340425532,1.49568,47,1,47
"14","m2","2",0,0,0.291666666666667,1.461625,48,1,48
"15","m5","1",1,0,0,1.51036,1,1,1
"15","m5","3",1,0,0,1.88353,2,1,2
"15","m2","1",0,0,0,2.717245,3,1,3
"15","m2","3",1,0,0,1.88424,4,1,4
"15","m5","2",1,1,0.2,3.167805,5,1,5
"15","m2","1",1,1,0.333333333333333,2.1496,6,1,6
"15","m2",NA,0,0,0.285714285714286,NA,7,1,7
"15","m2","2",1,1,0.375,1.582865,8,1,8
"15","m5","1",1,1,0.444444444444444,1.534015,9,1,9
"15","m5","3",1,1,0.5,1.883765,10,1,10
"15","m5","4",1,1,0.545454545454545,1.98387,11,1,11
"15","m5","2",0,0,0.5,1.816355,12,1,12
"15","m2","4",0,0,0.461538461538462,1.316765,13,1,13
"15","m2","3",1,0,0.428571428571429,1.267065,14,1,14
"15","m2","2",1,1,0.466666666666667,2.216685,15,1,15
"15","m5","3",0,0,0.4375,2.38387,16,1,16
"15","m5","4",0,1,0.470588235294118,2.051725,17,1,17
"15","m5","3",1,0,0.444444444444444,2.284775,18,1,18
"15","m2","4",1,0,0.421052631578947,2.78406,19,1,19
"15","m5","2",0,0,0.4,1.31641,20,1,20
"15","m2","4",0,0,0.380952380952381,1.050975,21,1,21
"15","m5","4",1,0,0.363636363636364,1.83357,22,1,22
"15","m2","4",1,1,0.391304347826087,2.617805,23,1,23
"15","m5","3",1,0,0.375,1.83523,24,1,24
"15","m5","4",0,1,0.4,1.350175,25,1,25
"15","m2","4",1,1,0.423076923076923,1.31743,26,1,26
"15","m5","1",1,0,0.407407407407407,2.148795,27,1,27
"15","m5","1",1,1,0.428571428571429,2.05206,28,1,28
"15","m5","4",1,1,0.448275862068966,2.183635,29,1,29
"15","m5","2",1,1,0.466666666666667,1.81744,30,1,30
"15","m2","3",1,1,0.483870967741935,1.93503,31,1,31
"15","m2","3",1,1,0.5,0.85128,32,1,32
"15","m5","2",0,0,0.484848484848485,2.65114,33,1,33
"15","m5","4",1,1,0.5,2.932765,34,1,34
"15","m2","3",1,1,0.514285714285714,1.06663,35,1,35
"15","m5","1",1,1,0.527777777777778,1.601485,36,1,36
"15","m2","2",1,1,0.540540540540541,2.03338,37,1,37
"15","m2","1",1,1,0.552631578947368,1.8614,38,1,38
"15","m2","4",1,1,0.564102564102564,1.784055,39,1,39
"15","m2","3",1,1,0.575,2.05093,40,1,40
"15","m5","2",1,1,0.585365853658537,1.21635,41,1,41
"15","m2","2",1,1,0.595238095238095,1.76731,42,1,42
"15","m2","2",1,1,0.604651162790698,0.73383,43,1,43
"15","m2","1",1,1,0.613636363636364,1.71801,44,1,44
"15","m5","2",1,0,0.6,0.967,45,1,45
"15","m2","4",0,0,0.58695652173913,1.16642,46,1,46
"15","m5","2",1,0,0.574468085106383,3.78637,47,1,47
"15","m2","1",0,0,0.5625,1.066385,48,1,48
"18","m5","1",1,0,0,1.914,1,1,1
"18","m5","3",1,0,0,2.157,2,1,2
"18","m2","2",0,1,0.333333333333333,1.435,3,1,3
"18","m2","1",1,0,0.25,1.906,4,1,4
"18","m5","1",1,0,0.2,1.939,5,1,5
"18","m2","4",1,0,0.166666666666667,2.736,6,1,6
"18","m2","4",0,0,0.142857142857143,0.938,7,1,7
"18","m2","4",1,0,0.125,1.496,8,1,8
"18","m5","3",1,0,0.111111111111111,1.95,9,1,9
"18","m5","2",1,0,0.1,0.847,10,1,10
"18","m5","3",1,0,0.0909090909090909,1.15,11,1,11
"18","m5","3",0,0,0.0833333333333333,2.549,12,1,12
"18","m2","1",0,1,0.153846153846154,0.925,13,1,13
"18","m2","3",1,0,0.142857142857143,1.634,14,1,14
"18","m2","1",1,0,0.133333333333333,2.642,15,1,15
"18","m5","1",0,0,0.125,2.373,16,1,16
"18","m5","3",0,0,0.117647058823529,1.065,17,1,17
"18","m5","3",1,0,0.111111111111111,2.29,18,1,18
"18","m2","2",1,1,0.157894736842105,1.707,19,1,19
"18","m5","2",0,0,0.15,0.692,20,1,20
"18","m2","1",0,0,0.142857142857143,1.993,21,1,21
"18","m5","1",1,0,0.136363636363636,1.534,22,1,22
"18","m2","4",1,1,0.173913043478261,1.762,23,1,23
"18","m5","2",1,0,0.166666666666667,2.074,24,1,24
"18","m5","2",0,0,0.16,1.39,25,1,25
"18","m2","3",1,0,0.153846153846154,1.523,26,1,26
"18","m5","2",1,0,0.148148148148148,1.169,27,1,27
"18","m5","3",1,0,0.142857142857143,1.851,28,1,28
"18","m5","3",1,0,0.137931034482759,1.07,29,1,29
"18","m5","1",1,0,0.133333333333333,3.152,30,1,30
"18","m2","3",1,1,0.161290322580645,2.332,31,1,31
"18","m2","1",1,0,0.15625,0.711,32,1,32
"18","m5","2",0,0,0.151515151515152,1.355,33,1,33
"18","m5","2",1,0,0.147058823529412,3.011,34,1,34
"18","m2","2",1,0,0.142857142857143,2.392,35,1,35
"18","m5","3",1,0,0.138888888888889,0.95,36,1,36
"18","m2","2",1,1,0.162162162162162,2.087,37,1,37
"18","m2","4",1,0,0.157894736842105,0.957,38,1,38
"18","m2","4",1,1,0.179487179487179,0.686,39,1,39
"18","m2","1",1,0,0.175,1.038,40,1,40
"18","m5","3",1,0,0.170731707317073,2.05,41,1,41
"18","m2","2",1,1,0.19047619047619,2.147,42,1,42
"18","m2","1",1,0,0.186046511627907,0.428,43,1,43
"18","m2","1",1,1,0.204545454545455,2.083,44,1,44
"18","m5","4",1,0,0.2,1.713,45,1,45
"18","m2","1",0,0,0.195652173913043,1.047,46,1,46
"18","m5","2",1,0,0.191489361702128,1.516,47,1,47
"18","m2","1",0,0,0.1875,0.772,48,1,48
"20","m5",NA,1,0,0,NA,1,1,1
"20","m5","3",1,0,0,1.476,2,1,2
"20","m2","1",0,0,0,2.205,3,1,3
"20","m2","1",1,0,0,2.331,4,1,4
"20","m5","2",1,1,0.2,3.625,5,1,5
"20","m2","4",1,0,0.166666666666667,3.862,6,1,6
"20","m2","1",0,0,0.142857142857143,1.149,7,1,7
"20","m2","4",1,0,0.125,2.191,8,1,8
"20","m5",NA,1,0,0.111111111111111,NA,9,1,9
"20","m5","1",1,0,0.1,2.168,10,1,10
"20","m5","4",1,1,0.181818181818182,2.01,11,1,11
"20","m5","2",0,0,0.166666666666667,2.828,12,1,12
"20","m2","1",0,1,0.230769230769231,1.674,13,1,13
"20","m2","3",1,0,0.214285714285714,1.905,14,1,14
"20","m2","1",1,0,0.2,1.282,15,1,15
"20","m5","3",0,0,0.1875,3.084,16,1,16
"20","m5","3",0,0,0.176470588235294,3.268,17,1,17
"20","m5","3",1,0,0.166666666666667,2.446,18,1,18
"20","m2","4",1,0,0.157894736842105,1.567,19,1,19
"20","m5","3",0,1,0.2,2.748,20,1,20
"20","m2",NA,0,0,0.19047619047619,NA,21,1,21
"20","m5","1",1,0,0.181818181818182,2.917,22,1,22
"20","m2","3",1,0,0.173913043478261,1.385,23,1,23
"20","m5","1",1,1,0.208333333333333,1.629,24,1,24
"20","m5","1",0,0,0.2,2.897,25,1,25
"20","m2","4",1,1,0.230769230769231,3.733,26,1,26
"20","m5","1",1,0,0.222222222222222,2.465,27,1,27
"20","m5","3",1,0,0.214285714285714,1.843,28,1,28
"20","m5","3",1,0,0.206896551724138,2.263,29,1,29
"20","m5","1",1,0,0.2,3.202,30,1,30
"20","m2","3",1,1,0.225806451612903,1.472,31,1,31
"20","m2","3",1,1,0.25,1.167,32,1,32
"20","m5","2",0,0,0.242424242424242,3.33,33,1,33
"20","m5","4",1,1,0.264705882352941,2.626,34,1,34
"20","m2","3",1,1,0.285714285714286,1.312,35,1,35
"20","m5","1",1,1,0.305555555555556,2.791,36,1,36
"20","m2","2",1,1,0.324324324324324,1.517,37,1,37
"20","m2","1",1,1,0.342105263157895,2.237,38,1,38
"20","m2","4",1,1,0.358974358974359,1.62,39,1,39
"20","m2","3",1,1,0.375,1.765,40,1,40
"20","m5","2",1,1,0.390243902439024,1.447,41,1,41
"20","m2","2",1,1,0.404761904761905,2.781,42,1,42
"20","m2","2",1,1,0.418604651162791,1.037,43,1,43
"20","m2","1",1,1,0.431818181818182,2.451,44,1,44
"20","m5","3",1,1,0.444444444444444,1.494,45,1,45
"20","m2","4",0,0,0.434782608695652,2.64,46,1,46
"20","m5","3",1,1,0.446808510638298,1.548,47,1,47
"20","m2","1",0,0,0.4375,1.322,48,1,48
