myownaccuracy,respcorrs,minNrPractice,considerNrTrials,Instr_resp.keys,Instr_resp.rt,key_resp_2.keys,key_resp_2.rt,Instruction_loop.thisRepN,Instruction_loop.thisTrialN,Instruction_loop.thisN,Instruction_loop.thisIndex,Instruction_loop.ran,slides,participant,date,expName,psychopyVersion,OS,frameRate,key_resp_3.keys,key_resp_3.rt,taskGoresp.keys,taskGoresp.rt,pract_resp.keys,pract_resp.corr,pract_resp.rt,myownaccuracyCORR,pract_loop.thisRepN,pract_loop.thisTrialN,pract_loop.thisN,pract_loop.thisIndex,pract_loop.ran,first_character,second_character,Cue,left_categ,centleft_categ,centright_categ,right_categ,corr_ans,trial_cond,switch_cond,cuedCharacter,corrCat,image,rep_resp.keys,rep_resp.rt,repeat_pract.thisRepN,repeat_pract.thisTrialN,repeat_pract.thisN,repeat_pract.thisIndex,repeat_pract.ran,task_resp.keys,task_resp.corr,task_resp.rt,task_loop.thisRepN,task_loop.thisTrialN,task_loop.thisN,task_loop.thisIndex,task_loop.ran,obj_category,rep_resp_2.keys,rep_resp_2.rt,repeat_task2.thisRepN,repeat_task2.thisTrialN,repeat_task2.thisN,repeat_task2.thisIndex,repeat_task2.ran
[],[],10,10,space,38.968,space,15.979,0,0,0,0,1,stimuli/slide1.png,1,2021-01-21_15h57.24.711,premceCat_ses-01_part-01_label-phase1,2020.2.9,Win32,60,,,,,,,,,,,,,,,,,,,,,,,,,,,,,,,,,,,,,,,,,,,,,,,,,
,,,,,,space,13.107,0,1,1,1,1,stimuli/slide2.png,1,2021-01-21_15h57.24.711,premceCat_ses-01_part-01_label-phase1,2020.2.9,Win32,60,,,,,,,,,,,,,,,,,,,,,,,,,,,,,,,,,,,,,,,,,,,,,,,,,
,,,,,,space,48.83,0,2,2,2,1,stimuli/slide3.png,1,2021-01-21_15h57.24.711,premceCat_ses-01_part-01_label-phase1,2020.2.9,Win32,60,,,,,,,,,,,,,,,,,,,,,,,,,,,,,,,,,,,,,,,,,,,,,,,,,
,,,,,,space,21.484,0,3,3,3,1,stimuli/slide4.png,1,2021-01-21_15h57.24.711,premceCat_ses-01_part-01_label-phase1,2020.2.9,Win32,60,,,,,,,,,,,,,,,,,,,,,,,,,,,,,,,,,,,,,,,,,,,,,,,,,
,,,,,,space,7.731,0,4,4,4,1,stimuli/slide5.png,1,2021-01-21_15h57.24.711,premceCat_ses-01_part-01_label-phase1,2020.2.9,Win32,60,,,,,,,,,,,,,,,,,,,,,,,,,,,,,,,,,,,,,,,,,,,,,,,,,
,,,,,,space,6.064,0,5,5,5,1,stimuli/slide6.png,1,2021-01-21_15h57.24.711,premceCat_ses-01_part-01_label-phase1,2020.2.9,Win32,60,,,,,,,,,,,,,,,,,,,,,,,,,,,,,,,,,,,,,,,,,,,,,,,,,
1,[],,,,,,,,,,,,,1,2021-01-21_15h57.24.711,premceCat_ses-01_part-01_label-phase1,2020.2.9,Win32,60,space,111.02,space,20.122,2,1,3.451,1,0,0,0,0,1,stimuli/m1.jpg,stimuli/m4.jpg,1,stimuli/Vehicle.png,stimuli/Stationary & school supply.png,stimuli/Clothing.png,stimuli/Gamestoy & entertainment.png,2,1,0,stimuli/m1.jpg,Stationary & school supply,stimuli/objects/pen04b.jpg,,,,,,,,,,,,,,,,,,,,,,,
1,[1],,,,,,,,,,,,,1,2021-01-21_15h57.24.711,premceCat_ses-01_part-01_label-phase1,2020.2.9,Win32,60,,,,,1,1,1.989,1,0,1,1,1,1,stimuli/m1.jpg,stimuli/m4.jpg,1,stimuli/Stationary & school supply.png,stimuli/Gamestoy & entertainment.png,stimuli/Clothing.png,stimuli/Vehicle.png,1,1,0,stimuli/m1.jpg,Stationary & school supply,stimuli/objects/marker01a.jpg,,,,,,,,,,,,,,,,,,,,,,,
0,"[1,1]",,,,,,,,,,,,,1,2021-01-21_15h57.24.711,premceCat_ses-01_part-01_label-phase1,2020.2.9,Win32,60,,,,,3,0,2.683,0,0,2,2,2,1,stimuli/m1.jpg,stimuli/m4.jpg,1,stimuli/Gamestoy & entertainment.png,stimuli/Stationary & school supply.png,stimuli/Clothing.png,stimuli/Vehicle.png,2,1,0,stimuli/m1.jpg,Stationary & school supply,stimuli/objects/ruler04.jpg,,,,,,,,,,,,,,,,,,,,,,,
0,"[1,1,0]",,,,,,,,,,,,,1,2021-01-21_15h57.24.711,premceCat_ses-01_part-01_label-phase1,2020.2.9,Win32,60,,,,,3,0,1.043,0,0,3,3,3,1,stimuli/m4.jpg,stimuli/m1.jpg,1,stimuli/Stationary & school supply.png,stimuli/Vehicle.png,stimuli/Gamestoy & entertainment.png,stimuli/Clothing.png,4,1,0,stimuli/m4.jpg,Clothing,stimuli/objects/scarf.jpg,,,,,,,,,,,,,,,,,,,,,,,
0,"[1,1,0,0]",,,,,,,,,,,,,1,2021-01-21_15h57.24.711,premceCat_ses-01_part-01_label-phase1,2020.2.9,Win32,60,,,,,4,0,2.307,0,0,4,4,4,1,stimuli/m4.jpg,stimuli/m1.jpg,1,stimuli/Clothing.png,stimuli/Vehicle.png,stimuli/Gamestoy & entertainment.png,stimuli/Stationary & school supply.png,1,1,0,stimuli/m4.jpg,Clothing,stimuli/objects/waders.jpg,,,,,,,,,,,,,,,,,,,,,,,
1,"[1,1,0,0,0]",,,,,,,,,,,,,1,2021-01-21_15h57.24.711,premceCat_ses-01_part-01_label-phase1,2020.2.9,Win32,60,,,,,1,1,2.184,1,0,5,5,5,1,stimuli/m1.jpg,stimuli/m4.jpg,1,stimuli/Stationary & school supply.png,stimuli/Clothing.png,stimuli/Vehicle.png,stimuli/Gamestoy & entertainment.png,1,1,0,stimuli/m1.jpg,Stationary & school supply,stimuli/objects/stapleremover.jpg,,,,,,,,,,,,,,,,,,,,,,,
0,"[1,1,0,0,0,1]",,,,,,,,,,,,,1,2021-01-21_15h57.24.711,premceCat_ses-01_part-01_label-phase1,2020.2.9,Win32,60,,,,,2,0,2.146,0,0,6,6,6,1,stimuli/m1.jpg,stimuli/m4.jpg,2,stimuli/Stationary & school supply.png,stimuli/Vehicle.png,stimuli/Clothing.png,stimuli/Gamestoy & entertainment.png,3,1,0,stimuli/m4.jpg,Clothing,stimuli/objects/zipper.jpg,,,,,,,,,,,,,,,,,,,,,,,
0,"[1,1,0,0,0,1,0]",,,,,,,,,,,,,1,2021-01-21_15h57.24.711,premceCat_ses-01_part-01_label-phase1,2020.2.9,Win32,60,,,,,3,0,1.182,0,0,7,7,7,1,stimuli/m4.jpg,stimuli/m1.jpg,1,stimuli/Clothing.png,stimuli/Gamestoy & entertainment.png,stimuli/Stationary & school supply.png,stimuli/Vehicle.png,4,0,0,stimuli/m4.jpg,Vehicle,stimuli/objects/convertible.jpg,,,,,,,,,,,,,,,,,,,,,,,
0,"[1,1,0,0,0,1,0]",,,,,,,,,,,,,1,2021-01-21_15h57.24.711,premceCat_ses-01_part-01_label-phase1,2020.2.9,Win32,60,,,,,1,0,1.584,0,0,8,8,8,1,stimuli/m1.jpg,stimuli/m4.jpg,1,stimuli/Vehicle.png,stimuli/Gamestoy & entertainment.png,stimuli/Stationary & school supply.png,stimuli/Clothing.png,3,1,0,stimuli/m1.jpg,Stationary & school supply,stimuli/objects/paperclip03.jpg,,,,,,,,,,,,,,,,,,,,,,,
1,"[1,1,0,0,0,1,0,0]",,,,,,,,,,,,,1,2021-01-21_15h57.24.711,premceCat_ses-01_part-01_label-phase1,2020.2.9,Win32,60,,,,,3,1,3.259,1,0,9,9,9,1,stimuli/m4.jpg,stimuli/m1.jpg,2,stimuli/Vehicle.png,stimuli/Clothing.png,stimuli/Stationary & school supply.png,stimuli/Gamestoy & entertainment.png,3,1,0,stimuli/m1.jpg,Stationary & school supply,stimuli/objects/mathcompass.jpg,,,,,,,,,,,,,,,,,,,,,,,
1,"[1,1,0,0,0,1,0,0,1]",,,,,,,,,,,,,1,2021-01-21_15h57.24.711,premceCat_ses-01_part-01_label-phase1,2020.2.9,Win32,60,,,,,1,1,0.943,1,0,10,10,10,1,stimuli/m4.jpg,stimuli/m1.jpg,2,stimuli/Stationary & school supply.png,stimuli/Vehicle.png,stimuli/Gamestoy & entertainment.png,stimuli/Clothing.png,1,1,0,stimuli/m1.jpg,Stationary & school supply,stimuli/objects/folder.jpg,,,,,,,,,,,,,,,,,,,,,,,
1,"[1,1,0,0,0,1,0,0,1,1]",,,,,,,,,,,,,1,2021-01-21_15h57.24.711,premceCat_ses-01_part-01_label-phase1,2020.2.9,Win32,60,,,,,2,1,0.733,1,0,11,11,11,1,stimuli/m1.jpg,stimuli/m4.jpg,2,stimuli/Vehicle.png,stimuli/Clothing.png,stimuli/Gamestoy & entertainment.png,stimuli/Stationary & school supply.png,2,1,0,stimuli/m4.jpg,Clothing,stimuli/objects/poloshirt.jpg,,,,,,,,,,,,,,,,,,,,,,,
1,"[1,1,0,0,0,1,0,0,1,1,1]",,,,,,,,,,,,,1,2021-01-21_15h57.24.711,premceCat_ses-01_part-01_label-phase1,2020.2.9,Win32,60,,,,,1,1,3.855,1,0,12,12,12,1,stimuli/m1.jpg,stimuli/m4.jpg,2,stimuli/Clothing.png,stimuli/Gamestoy & entertainment.png,stimuli/Vehicle.png,stimuli/Stationary & school supply.png,1,1,0,stimuli/m4.jpg,Clothing,stimuli/objects/hat03b.jpg,,,,,,,,,,,,,,,,,,,,,,,
1,"[1,1,0,0,0,1,0,0,1,1,1,1]",,,,,,,,,,,,,1,2021-01-21_15h57.24.711,premceCat_ses-01_part-01_label-phase1,2020.2.9,Win32,60,,,,,1,1,1.536,1,0,13,13,13,1,stimuli/m4.jpg,stimuli/m1.jpg,2,stimuli/Stationary & school supply.png,stimuli/Clothing.png,stimuli/Gamestoy & entertainment.png,stimuli/Vehicle.png,1,1,0,stimuli/m1.jpg,Stationary & school supply,stimuli/objects/binder03b.jpg,,,,,,,,,,,,,,,,,,,,,,,
1,"[1,1,0,0,0,1,0,0,1,1,1,1,1]",,,,,,,,,,,,,1,2021-01-21_15h57.24.711,premceCat_ses-01_part-01_label-phase1,2020.2.9,Win32,60,,,,,2,1,1.675,1,0,14,14,14,1,stimuli/m4.jpg,stimuli/m1.jpg,1,stimuli/Vehicle.png,stimuli/Clothing.png,stimuli/Stationary & school supply.png,stimuli/Gamestoy & entertainment.png,2,1,0,stimuli/m4.jpg,Clothing,stimuli/objects/hikingshoe01.jpg,,,,,,,,,,,,,,,,,,,,,,,
0,"[1,1,0,0,0,1,0,0,1,1,1,1,1,1]",,,,,,,,,,,,,1,2021-01-21_15h57.24.711,premceCat_ses-01_part-01_label-phase1,2020.2.9,Win32,60,,,,,1,0,1.24,1,0,15,15,15,1,stimuli/m4.jpg,stimuli/m1.jpg,2,stimuli/Stationary & school supply.png,stimuli/Clothing.png,stimuli/Vehicle.png,stimuli/Gamestoy & entertainment.png,2,0,0,stimuli/m1.jpg,Clothing,stimuli/objects/sportsjersey.jpg,,,,,,,,,,,,,,,,,,,,,,,
1,"[1,1,0,0,0,1,0,0,1,1,1,1,1,1]",,,,,,,,,,,,,1,2021-01-21_15h57.24.711,premceCat_ses-01_part-01_label-phase1,2020.2.9,Win32,60,,,,,3,1,2.182,1,0,16,16,16,1,stimuli/m4.jpg,stimuli/m1.jpg,2,stimuli/Gamestoy & entertainment.png,stimuli/Clothing.png,stimuli/Stationary & school supply.png,stimuli/Vehicle.png,3,1,0,stimuli/m1.jpg,Stationary & school supply,stimuli/objects/pencilsharpener02a.jpg,,,,,,,,,,,,,,,,,,,,,,,
,,,,,,,,,,,,,,1,2021-01-21_15h57.24.711,premceCat_ses-01_part-01_label-phase1,2020.2.9,Win32,60,,,,,,,,,,,,,,,,,,,,,,,,,,,n,48.436,0,0,0,0,1,,,,,,,,,,,,,,,,
0,"[1,1,0,0,0,1,0,0,1,1,1,1,1,1,1]",,,,,,,,,,,,,1,2021-01-21_15h57.24.711,premceCat_ses-01_part-01_label-phase1,2020.2.9,Win32,60,,,,,,,,0,,,,,,stimuli/m2.jpg,stimuli/m5.jpg,1,stimuli/Outdoor activity & sport item.png,stimuli/Electronic device & accessory.png,stimuli/Kitchen & utensil.png,stimuli/Hand labour tool & accessory.png,3,1,1,stimuli/m2.jpg,,stimuli/objects/cutleryset.jpg,,,,,,,,4,0,2.873,0,0,0,0,1,Kitchen & utensil,,,,,,,
0,"[1,1,0,0,0,1,0,0,1,1,1,1,1,1,1,0]",,,,,,,,,,,,,1,2021-01-21_15h57.24.711,premceCat_ses-01_part-01_label-phase1,2020.2.9,Win32,60,,,,,,,,0,,,,,,stimuli/m5.jpg,stimuli/m2.jpg,2,stimuli/Kitchen & utensil.png,stimuli/Electronic device & accessory.png,stimuli/Outdoor activity & sport item.png,stimuli/Hand labour tool & accessory.png,1,1,1,stimuli/m2.jpg,,stimuli/objects/grill.jpg,,,,,,,,3,0,2.234,0,1,1,1,1,Kitchen & utensil,,,,,,,
0,"[1,1,0,0,0,1,0,0,1,1,1,1,1,1,1,0,0]",,,,,,,,,,,,,1,2021-01-21_15h57.24.711,premceCat_ses-01_part-01_label-phase1,2020.2.9,Win32,60,,,,,,,,0,,,,,,stimuli/m5.jpg,stimuli/m2.jpg,1,stimuli/Hand labour tool & accessory.png,stimuli/Outdoor activity & sport item.png,stimuli/Electronic device & accessory.png,stimuli/Kitchen & utensil.png,1,1,1,stimuli/m5.jpg,,stimuli/objects/ducttape.jpg,,,,,,,,2,0,2.263,0,2,2,2,1,Hand labour tool & accessory,,,,,,,
1,"[1,1,0,0,0,1,0,0,1,1,1,1,1,1,1,0,0,0]",,,,,,,,,,,,,1,2021-01-21_15h57.24.711,premceCat_ses-01_part-01_label-phase1,2020.2.9,Win32,60,,,,,,,,1,,,,,,stimuli/m5.jpg,stimuli/m2.jpg,2,stimuli/Electronic device & accessory.png,stimuli/Kitchen & utensil.png,stimuli/Outdoor activity & sport item.png,stimuli/Hand labour tool & accessory.png,2,1,1,stimuli/m2.jpg,,stimuli/objects/cakeplatter.jpg,,,,,,,,2,1,3.317,0,3,3,3,1,Kitchen & utensil,,,,,,,
1,"[1,1,0,0,0,1,0,0,1,1,1,1,1,1,1,0,0,0,1]",,,,,,,,,,,,,1,2021-01-21_15h57.24.711,premceCat_ses-01_part-01_label-phase1,2020.2.9,Win32,60,,,,,,,,1,,,,,,stimuli/m5.jpg,stimuli/m2.jpg,2,stimuli/Outdoor activity & sport item.png,stimuli/Hand labour tool & accessory.png,stimuli/Electronic device & accessory.png,stimuli/Kitchen & utensil.png,4,1,1,stimuli/m2.jpg,,stimuli/objects/bagtie.jpg,,,,,,,,4,1,3.016,0,4,4,4,1,Kitchen & utensil,,,,,,,
0,"[1,1,0,0,0,1,0,0,1,1,1,1,1,1,1,0,0,0,1,1]",,,,,,,,,,,,,1,2021-01-21_15h57.24.711,premceCat_ses-01_part-01_label-phase1,2020.2.9,Win32,60,,,,,,,,0,,,,,,stimuli/m5.jpg,stimuli/m2.jpg,1,stimuli/Outdoor activity & sport item.png,stimuli/Kitchen & utensil.png,stimuli/Electronic device & accessory.png,stimuli/Hand labour tool & accessory.png,4,1,1,stimuli/m5.jpg,,stimuli/objects/generator.jpg,,,,,,,,3,0,2.214,0,5,5,5,1,Hand labour tool & accessory,,,,,,,
1,"[1,1,0,0,0,1,0,0,1,1,1,1,1,1,1,0,0,0,1,1,0]",,,,,,,,,,,,,1,2021-01-21_15h57.24.711,premceCat_ses-01_part-01_label-phase1,2020.2.9,Win32,60,,,,,,,,1,,,,,,stimuli/m2.jpg,stimuli/m5.jpg,1,stimuli/Electronic device & accessory.png,stimuli/Outdoor activity & sport item.png,stimuli/Hand labour tool & accessory.png,stimuli/Kitchen & utensil.png,4,1,1,stimuli/m2.jpg,,stimuli/objects/thermos.jpg,,,,,,,,4,1,1.065,0,6,6,6,1,Kitchen & utensil,,,,,,,
1,"[1,1,0,0,0,1,0,0,1,1,1,1,1,1,1,0,0,0,1,1,0,1]",,,,,,,,,,,,,1,2021-01-21_15h57.24.711,premceCat_ses-01_part-01_label-phase1,2020.2.9,Win32,60,,,,,,,,1,,,,,,stimuli/m2.jpg,stimuli/m5.jpg,1,stimuli/Electronic device & accessory.png,stimuli/Hand labour tool & accessory.png,stimuli/Outdoor activity & sport item.png,stimuli/Kitchen & utensil.png,4,1,1,stimuli/m2.jpg,,stimuli/objects/fryingpan02a.jpg,,,,,,,,4,1,0.524,0,7,7,7,1,Kitchen & utensil,,,,,,,
0,"[1,1,0,0,0,1,0,0,1,1,1,1,1,1,1,0,0,0,1,1,0,1,1]",,,,,,,,,,,,,1,2021-01-21_15h57.24.711,premceCat_ses-01_part-01_label-phase1,2020.2.9,Win32,60,,,,,,,,0,,,,,,stimuli/m5.jpg,stimuli/m2.jpg,1,stimuli/Electronic device & accessory.png,stimuli/Hand labour tool & accessory.png,stimuli/Kitchen & utensil.png,stimuli/Outdoor activity & sport item.png,2,1,1,stimuli/m5.jpg,,stimuli/objects/cheeseknife01.jpg,,,,,,,,1,0,3.318,0,8,8,8,1,Hand labour tool & accessory,,,,,,,
0,"[1,1,0,0,0,1,0,0,1,1,1,1,1,1,1,0,0,0,1,1,0,1,1,0]",,,,,,,,,,,,,1,2021-01-21_15h57.24.711,premceCat_ses-01_part-01_label-phase1,2020.2.9,Win32,60,,,,,,,,0,,,,,,stimuli/m2.jpg,stimuli/m5.jpg,1,stimuli/Hand labour tool & accessory.png,stimuli/Electronic device & accessory.png,stimuli/Outdoor activity & sport item.png,stimuli/Kitchen & utensil.png,4,1,1,stimuli/m2.jpg,,stimuli/objects/bowl02a.jpg,,,,,,,,2,0,1.835,0,9,9,9,1,Kitchen & utensil,,,,,,,
1,"[1,1,0,0,0,1,0,0,1,1,1,1,1,1,1,0,0,0,1,1,0,1,1,0,0]",,,,,,,,,,,,,1,2021-01-21_15h57.24.711,premceCat_ses-01_part-01_label-phase1,2020.2.9,Win32,60,,,,,,,,1,,,,,,stimuli/m5.jpg,stimuli/m2.jpg,1,stimuli/Kitchen & utensil.png,stimuli/Electronic device & accessory.png,stimuli/Outdoor activity & sport item.png,stimuli/Hand labour tool & accessory.png,4,1,1,stimuli/m5.jpg,,stimuli/objects/sandpaper.jpg,,,,,,,,4,1,3.277,0,10,10,10,1,Hand labour tool & accessory,,,,,,,
1,"[1,1,0,0,0,1,0,0,1,1,1,1,1,1,1,0,0,0,1,1,0,1,1,0,0,1]",,,,,,,,,,,,,1,2021-01-21_15h57.24.711,premceCat_ses-01_part-01_label-phase1,2020.2.9,Win32,60,,,,,,,,1,,,,,,stimuli/m2.jpg,stimuli/m5.jpg,1,stimuli/Outdoor activity & sport item.png,stimuli/Kitchen & utensil.png,stimuli/Hand labour tool & accessory.png,stimuli/Electronic device & accessory.png,2,1,1,stimuli/m2.jpg,,stimuli/objects/saladspinner.jpg,,,,,,,,2,1,1.25,0,11,11,11,1,Kitchen & utensil,,,,,,,
1,"[1,1,0,0,0,1,0,0,1,1,1,1,1,1,1,0,0,0,1,1,0,1,1,0,0,1,1]",,,,,,,,,,,,,1,2021-01-21_15h57.24.711,premceCat_ses-01_part-01_label-phase1,2020.2.9,Win32,60,,,,,,,,1,,,,,,stimuli/m5.jpg,stimuli/m2.jpg,1,stimuli/Outdoor activity & sport item.png,stimuli/Kitchen & utensil.png,stimuli/Hand labour tool & accessory.png,stimuli/Electronic device & accessory.png,3,1,1,stimuli/m5.jpg,,stimuli/objects/cuttingpliers02.jpg,,,,,,,,3,1,1.617,0,12,12,12,1,Hand labour tool & accessory,,,,,,,
1,"[1,1,0,0,0,1,0,0,1,1,1,1,1,1,1,0,0,0,1,1,0,1,1,0,0,1,1,1]",,,,,,,,,,,,,1,2021-01-21_15h57.24.711,premceCat_ses-01_part-01_label-phase1,2020.2.9,Win32,60,,,,,,,,1,,,,,,stimuli/m2.jpg,stimuli/m5.jpg,2,stimuli/Outdoor activity & sport item.png,stimuli/Electronic device & accessory.png,stimuli/Kitchen & utensil.png,stimuli/Hand labour tool & accessory.png,4,1,1,stimuli/m5.jpg,,stimuli/objects/gavel.jpg,,,,,,,,4,1,2.648,0,13,13,13,1,Hand labour tool & accessory,,,,,,,
1,"[1,1,0,0,0,1,0,0,1,1,1,1,1,1,1,0,0,0,1,1,0,1,1,0,0,1,1,1,1]",,,,,,,,,,,,,1,2021-01-21_15h57.24.711,premceCat_ses-01_part-01_label-phase1,2020.2.9,Win32,60,,,,,,,,1,,,,,,stimuli/m5.jpg,stimuli/m2.jpg,1,stimuli/Electronic device & accessory.png,stimuli/Kitchen & utensil.png,stimuli/Hand labour tool & accessory.png,stimuli/Outdoor activity & sport item.png,3,1,1,stimuli/m5.jpg,,stimuli/objects/bungeecord02.jpg,,,,,,,,3,1,0.837,0,14,14,14,1,Hand labour tool & accessory,,,,,,,
0,"[1,1,0,0,0,1,0,0,1,1,1,1,1,1,1,0,0,0,1,1,0,1,1,0,0,1,1,1,1,1]",,,,,,,,,,,,,1,2021-01-21_15h57.24.711,premceCat_ses-01_part-01_label-phase1,2020.2.9,Win32,60,,,,,,,,0,,,,,,stimuli/m2.jpg,stimuli/m5.jpg,1,stimuli/Hand labour tool & accessory.png,stimuli/Outdoor activity & sport item.png,stimuli/Electronic device & accessory.png,stimuli/Kitchen & utensil.png,4,1,1,stimuli/m2.jpg,,stimuli/objects/spicerack.jpg,,,,,,,,2,0,1.672,0,15,15,15,1,Kitchen & utensil,,,,,,,
1,"[1,1,0,0,0,1,0,0,1,1,1,1,1,1,1,0,0,0,1,1,0,1,1,0,0,1,1,1,1,1,0]",,,,,,,,,,,,,1,2021-01-21_15h57.24.711,premceCat_ses-01_part-01_label-phase1,2020.2.9,Win32,60,,,,,,,,1,,,,,,stimuli/m5.jpg,stimuli/m2.jpg,2,stimuli/Hand labour tool & accessory.png,stimuli/Kitchen & utensil.png,stimuli/Outdoor activity & sport item.png,stimuli/Electronic device & accessory.png,2,1,1,stimuli/m2.jpg,,stimuli/objects/potatomasher03b.jpg,,,,,,,,2,1,1.223,0,16,16,16,1,Kitchen & utensil,,,,,,,
0,"[1,1,0,0,0,1,0,0,1,1,1,1,1,1,1,0,0,0,1,1,0,1,1,0,0,1,1,1,1,1,0,1]",,,,,,,,,,,,,1,2021-01-21_15h57.24.711,premceCat_ses-01_part-01_label-phase1,2020.2.9,Win32,60,,,,,,,,1,,,,,,stimuli/m2.jpg,stimuli/m5.jpg,2,stimuli/Electronic device & accessory.png,stimuli/Outdoor activity & sport item.png,stimuli/Kitchen & utensil.png,stimuli/Hand labour tool & accessory.png,3,0,1,stimuli/m5.jpg,,stimuli/objects/oven.jpg,,,,,,,,4,0,1.083,0,17,17,17,1,Kitchen & utensil,,,,,,,
0,"[1,1,0,0,0,1,0,0,1,1,1,1,1,1,1,0,0,0,1,1,0,1,1,0,0,1,1,1,1,1,0,1]",,,,,,,,,,,,,1,2021-01-21_15h57.24.711,premceCat_ses-01_part-01_label-phase1,2020.2.9,Win32,60,,,,,,,,1,,,,,,stimuli/m2.jpg,stimuli/m5.jpg,1,stimuli/Hand labour tool & accessory.png,stimuli/Kitchen & utensil.png,stimuli/Outdoor activity & sport item.png,stimuli/Electronic device & accessory.png,3,0,1,stimuli/m2.jpg,,stimuli/objects/basketball01.jpg,,,,,,,,2,0,1.585,0,18,18,18,1,Outdoor activity & sport item,,,,,,,
0,"[1,1,0,0,0,1,0,0,1,1,1,1,1,1,1,0,0,0,1,1,0,1,1,0,0,1,1,1,1,1,0,1]",,,,,,,,,,,,,1,2021-01-21_15h57.24.711,premceCat_ses-01_part-01_label-phase1,2020.2.9,Win32,60,,,,,,,,0,,,,,,stimuli/m2.jpg,stimuli/m5.jpg,2,stimuli/Outdoor activity & sport item.png,stimuli/Kitchen & utensil.png,stimuli/Hand labour tool & accessory.png,stimuli/Electronic device & accessory.png,3,1,1,stimuli/m5.jpg,,stimuli/objects/cclamp.jpg,,,,,,,,2,0,1.723,0,19,19,19,1,Hand labour tool & accessory,,,,,,,
1,"[1,1,0,0,0,1,0,0,1,1,1,1,1,1,1,0,0,0,1,1,0,1,1,0,0,1,1,1,1,1,0,1,0]",,,,,,,,,,,,,1,2021-01-21_15h57.24.711,premceCat_ses-01_part-01_label-phase1,2020.2.9,Win32,60,,,,,,,,1,,,,,,stimuli/m5.jpg,stimuli/m2.jpg,2,stimuli/Kitchen & utensil.png,stimuli/Hand labour tool & accessory.png,stimuli/Outdoor activity & sport item.png,stimuli/Electronic device & accessory.png,1,1,1,stimuli/m2.jpg,,stimuli/objects/martiniglass01b.jpg,,,,,,,,1,1,1.443,0,20,20,20,1,Kitchen & utensil,,,,,,,
1,"[1,1,0,0,0,1,0,0,1,1,1,1,1,1,1,0,0,0,1,1,0,1,1,0,0,1,1,1,1,1,0,1,0,1]",,,,,,,,,,,,,1,2021-01-21_15h57.24.711,premceCat_ses-01_part-01_label-phase1,2020.2.9,Win32,60,,,,,,,,1,,,,,,stimuli/m2.jpg,stimuli/m5.jpg,2,stimuli/Kitchen & utensil.png,stimuli/Hand labour tool & accessory.png,stimuli/Outdoor activity & sport item.png,stimuli/Electronic device & accessory.png,3,0,1,stimuli/m5.jpg,,stimuli/objects/racquetballracket.jpg,,,,,,,,3,1,0.663,0,21,21,21,1,Outdoor activity & sport item,,,,,,,
1,"[1,1,0,0,0,1,0,0,1,1,1,1,1,1,1,0,0,0,1,1,0,1,1,0,0,1,1,1,1,1,0,1,0,1]",,,,,,,,,,,,,1,2021-01-21_15h57.24.711,premceCat_ses-01_part-01_label-phase1,2020.2.9,Win32,60,,,,,,,,1,,,,,,stimuli/m5.jpg,stimuli/m2.jpg,2,stimuli/Outdoor activity & sport item.png,stimuli/Electronic device & accessory.png,stimuli/Hand labour tool & accessory.png,stimuli/Kitchen & utensil.png,4,1,1,stimuli/m2.jpg,,stimuli/objects/strainer01b.jpg,,,,,,,,4,1,1.532,0,22,22,22,1,Kitchen & utensil,,,,,,,
0,"[1,1,0,0,0,1,0,0,1,1,1,1,1,1,1,0,0,0,1,1,0,1,1,0,0,1,1,1,1,1,0,1,0,1,1]",,,,,,,,,,,,,1,2021-01-21_15h57.24.711,premceCat_ses-01_part-01_label-phase1,2020.2.9,Win32,60,,,,,,,,0,,,,,,stimuli/m2.jpg,stimuli/m5.jpg,2,stimuli/Electronic device & accessory.png,stimuli/Kitchen & utensil.png,stimuli/Outdoor activity & sport item.png,stimuli/Hand labour tool & accessory.png,4,1,1,stimuli/m5.jpg,,stimuli/objects/metalbrush.jpg,,,,,,,,3,0,1.742,0,23,23,23,1,Hand labour tool & accessory,,,,,,,
0,"[1,1,0,0,0,1,0,0,1,1,1,1,1,1,1,0,0,0,1,1,0,1,1,0,0,1,1,1,1,1,0,1,0,1,1,0]",,,,,,,,,,,,,1,2021-01-21_15h57.24.711,premceCat_ses-01_part-01_label-phase1,2020.2.9,Win32,60,,,,,,,,0,,,,,,stimuli/m5.jpg,stimuli/m2.jpg,1,stimuli/Hand labour tool & accessory.png,stimuli/Kitchen & utensil.png,stimuli/Outdoor activity & sport item.png,stimuli/Electronic device & accessory.png,1,1,1,stimuli/m5.jpg,,stimuli/objects/pressurewasher.jpg,,,,,,,,2,0,1.356,0,24,24,24,1,Hand labour tool & accessory,,,,,,,
1,"[1,1,0,0,0,1,0,0,1,1,1,1,1,1,1,0,0,0,1,1,0,1,1,0,0,1,1,1,1,1,0,1,0,1,1,0,0]",,,,,,,,,,,,,1,2021-01-21_15h57.24.711,premceCat_ses-01_part-01_label-phase1,2020.2.9,Win32,60,,,,,,,,1,,,,,,stimuli/m2.jpg,stimuli/m5.jpg,1,stimuli/Outdoor activity & sport item.png,stimuli/Hand labour tool & accessory.png,stimuli/Electronic device & accessory.png,stimuli/Kitchen & utensil.png,4,1,1,stimuli/m2.jpg,,stimuli/objects/mortarandpestle.jpg,,,,,,,,4,1,1.38,0,25,25,25,1,Kitchen & utensil,,,,,,,
0,"[1,1,0,0,0,1,0,0,1,1,1,1,1,1,1,0,0,0,1,1,0,1,1,0,0,1,1,1,1,1,0,1,0,1,1,0,0,1]",,,,,,,,,,,,,1,2021-01-21_15h57.24.711,premceCat_ses-01_part-01_label-phase1,2020.2.9,Win32,60,,,,,,,,1,,,,,,stimuli/m5.jpg,stimuli/m2.jpg,1,stimuli/Electronic device & accessory.png,stimuli/Hand labour tool & accessory.png,stimuli/Outdoor activity & sport item.png,stimuli/Kitchen & utensil.png,1,0,1,stimuli/m5.jpg,,stimuli/objects/speaker04.jpg,,,,,,,,3,0,0.991,0,26,26,26,1,Electronic device & accessory,,,,,,,
0,"[1,1,0,0,0,1,0,0,1,1,1,1,1,1,1,0,0,0,1,1,0,1,1,0,0,1,1,1,1,1,0,1,0,1,1,0,0,1]",,,,,,,,,,,,,1,2021-01-21_15h57.24.711,premceCat_ses-01_part-01_label-phase1,2020.2.9,Win32,60,,,,,,,,0,,,,,,stimuli/m2.jpg,stimuli/m5.jpg,2,stimuli/Hand labour tool & accessory.png,stimuli/Kitchen & utensil.png,stimuli/Electronic device & accessory.png,stimuli/Outdoor activity & sport item.png,1,1,1,stimuli/m5.jpg,,stimuli/objects/squeegee01b.jpg,,,,,,,,3,0,1.252,0,27,27,27,1,Hand labour tool & accessory,,,,,,,
0,"[1,1,0,0,0,1,0,0,1,1,1,1,1,1,1,0,0,0,1,1,0,1,1,0,0,1,1,1,1,1,0,1,0,1,1,0,0,1,0]",,,,,,,,,,,,,1,2021-01-21_15h57.24.711,premceCat_ses-01_part-01_label-phase1,2020.2.9,Win32,60,,,,,,,,0,,,,,,stimuli/m5.jpg,stimuli/m2.jpg,2,stimuli/Hand labour tool & accessory.png,stimuli/Outdoor activity & sport item.png,stimuli/Kitchen & utensil.png,stimuli/Electronic device & accessory.png,4,0,1,stimuli/m2.jpg,,stimuli/objects/antenna.jpg,,,,,,,,3,0,2.566,0,28,28,28,1,Electronic device & accessory,,,,,,,
0,"[1,1,0,0,0,1,0,0,1,1,1,1,1,1,1,0,0,0,1,1,0,1,1,0,0,1,1,1,1,1,0,1,0,1,1,0,0,1,0]",,,,,,,,,,,,,1,2021-01-21_15h57.24.711,premceCat_ses-01_part-01_label-phase1,2020.2.9,Win32,60,,,,,,,,0,,,,,,stimuli/m5.jpg,stimuli/m2.jpg,2,stimuli/Electronic device & accessory.png,stimuli/Outdoor activity & sport item.png,stimuli/Hand labour tool & accessory.png,stimuli/Kitchen & utensil.png,4,1,1,stimuli/m2.jpg,,stimuli/objects/sippycup.jpg,,,,,,,,1,0,2.287,0,29,29,29,1,Kitchen & utensil,,,,,,,
0,"[1,1,0,0,0,1,0,0,1,1,1,1,1,1,1,0,0,0,1,1,0,1,1,0,0,1,1,1,1,1,0,1,0,1,1,0,0,1,0,0]",,,,,,,,,,,,,1,2021-01-21_15h57.24.711,premceCat_ses-01_part-01_label-phase1,2020.2.9,Win32,60,,,,,,,,0,,,,,,stimuli/m2.jpg,stimuli/m5.jpg,2,stimuli/Kitchen & utensil.png,stimuli/Outdoor activity & sport item.png,stimuli/Electronic device & accessory.png,stimuli/Hand labour tool & accessory.png,4,1,1,stimuli/m5.jpg,,stimuli/objects/painttray.jpg,,,,,,,,3,0,2.718,0,30,30,30,1,Hand labour tool & accessory,,,,,,,
1,"[1,1,0,0,0,1,0,0,1,1,1,1,1,1,1,0,0,0,1,1,0,1,1,0,0,1,1,1,1,1,0,1,0,1,1,0,0,1,0,0,0]",,,,,,,,,,,,,1,2021-01-21_15h57.24.711,premceCat_ses-01_part-01_label-phase1,2020.2.9,Win32,60,,,,,,,,1,,,,,,stimuli/m2.jpg,stimuli/m5.jpg,1,stimuli/Hand labour tool & accessory.png,stimuli/Kitchen & utensil.png,stimuli/Electronic device & accessory.png,stimuli/Outdoor activity & sport item.png,2,1,1,stimuli/m2.jpg,,stimuli/objects/handmixer01d.jpg,,,,,,,,2,1,1.374,0,31,31,31,1,Kitchen & utensil,,,,,,,
0,"[1,1,0,0,0,1,0,0,1,1,1,1,1,1,1,0,0,0,1,1,0,1,1,0,0,1,1,1,1,1,0,1,0,1,1,0,0,1,0,0,0,1]",,,,,,,,,,,,,1,2021-01-21_15h57.24.711,premceCat_ses-01_part-01_label-phase1,2020.2.9,Win32,60,,,,,,,,1,,,,,,stimuli/m5.jpg,stimuli/m2.jpg,2,stimuli/Outdoor activity & sport item.png,stimuli/Kitchen & utensil.png,stimuli/Electronic device & accessory.png,stimuli/Hand labour tool & accessory.png,4,0,1,stimuli/m2.jpg,,stimuli/objects/hoe.jpg,,,,,,,,2,0,1.008,0,32,32,32,1,Hand labour tool & accessory,,,,,,,
0,"[1,1,0,0,0,1,0,0,1,1,1,1,1,1,1,0,0,0,1,1,0,1,1,0,0,1,1,1,1,1,0,1,0,1,1,0,0,1,0,0,0,1]",,,,,,,,,,,,,1,2021-01-21_15h57.24.711,premceCat_ses-01_part-01_label-phase1,2020.2.9,Win32,60,,,,,,,,0,,,,,,stimuli/m2.jpg,stimuli/m5.jpg,2,stimuli/Hand labour tool & accessory.png,stimuli/Kitchen & utensil.png,stimuli/Outdoor activity & sport item.png,stimuli/Electronic device & accessory.png,1,1,1,stimuli/m5.jpg,,stimuli/objects/loppingshears.jpg,,,,,,,,2,0,3.206,0,33,33,33,1,Hand labour tool & accessory,,,,,,,
0,"[1,1,0,0,0,1,0,0,1,1,1,1,1,1,1,0,0,0,1,1,0,1,1,0,0,1,1,1,1,1,0,1,0,1,1,0,0,1,0,0,0,1,0]",,,,,,,,,,,,,1,2021-01-21_15h57.24.711,premceCat_ses-01_part-01_label-phase1,2020.2.9,Win32,60,,,,,,,,0,,,,,,stimuli/m2.jpg,stimuli/m5.jpg,1,stimuli/Kitchen & utensil.png,stimuli/Electronic device & accessory.png,stimuli/Outdoor activity & sport item.png,stimuli/Hand labour tool & accessory.png,1,1,1,stimuli/m2.jpg,,stimuli/objects/hourglass.jpg,,,,,,,,3,0,2.876,0,34,34,34,1,Kitchen & utensil,,,,,,,
1,"[1,1,0,0,0,1,0,0,1,1,1,1,1,1,1,0,0,0,1,1,0,1,1,0,0,1,1,1,1,1,0,1,0,1,1,0,0,1,0,0,0,1,0,0]",,,,,,,,,,,,,1,2021-01-21_15h57.24.711,premceCat_ses-01_part-01_label-phase1,2020.2.9,Win32,60,,,,,,,,1,,,,,,stimuli/m2.jpg,stimuli/m5.jpg,2,stimuli/Electronic device & accessory.png,stimuli/Hand labour tool & accessory.png,stimuli/Kitchen & utensil.png,stimuli/Outdoor activity & sport item.png,2,1,1,stimuli/m5.jpg,,stimuli/objects/snowshovel.jpg,,,,,,,,2,1,2.823,0,35,35,35,1,Hand labour tool & accessory,,,,,,,
0,"[1,1,0,0,0,1,0,0,1,1,1,1,1,1,1,0,0,0,1,1,0,1,1,0,0,1,1,1,1,1,0,1,0,1,1,0,0,1,0,0,0,1,0,0,1]",,,,,,,,,,,,,1,2021-01-21_15h57.24.711,premceCat_ses-01_part-01_label-phase1,2020.2.9,Win32,60,,,,,,,,0,,,,,,stimuli/m2.jpg,stimuli/m5.jpg,2,stimuli/Electronic device & accessory.png,stimuli/Hand labour tool & accessory.png,stimuli/Outdoor activity & sport item.png,stimuli/Kitchen & utensil.png,2,1,1,stimuli/m5.jpg,,stimuli/objects/carjack.jpg,,,,,,,,,0,,0,36,36,36,1,Hand labour tool & accessory,,,,,,,
0,"[1,1,0,0,0,1,0,0,1,1,1,1,1,1,1,0,0,0,1,1,0,1,1,0,0,1,1,1,1,1,0,1,0,1,1,0,0,1,0,0,0,1,0,0,1,0]",,,,,,,,,,,,,1,2021-01-21_15h57.24.711,premceCat_ses-01_part-01_label-phase1,2020.2.9,Win32,60,,,,,,,,0,,,,,,stimuli/m2.jpg,stimuli/m5.jpg,2,stimuli/Hand labour tool & accessory.png,stimuli/Electronic device & accessory.png,stimuli/Kitchen & utensil.png,stimuli/Outdoor activity & sport item.png,1,1,1,stimuli/m5.jpg,,stimuli/objects/wheel01.jpg,,,,,,,,4,0,3.054,0,37,37,37,1,Hand labour tool & accessory,,,,,,,
1,"[1,1,0,0,0,1,0,0,1,1,1,1,1,1,1,0,0,0,1,1,0,1,1,0,0,1,1,1,1,1,0,1,0,1,1,0,0,1,0,0,0,1,0,0,1,0,0]",,,,,,,,,,,,,1,2021-01-21_15h57.24.711,premceCat_ses-01_part-01_label-phase1,2020.2.9,Win32,60,,,,,,,,1,,,,,,stimuli/m2.jpg,stimuli/m5.jpg,1,stimuli/Outdoor activity & sport item.png,stimuli/Electronic device & accessory.png,stimuli/Hand labour tool & accessory.png,stimuli/Kitchen & utensil.png,4,1,1,stimuli/m2.jpg,,stimuli/objects/winerack.jpg,,,,,,,,4,1,1.305,0,38,38,38,1,Kitchen & utensil,,,,,,,
1,"[1,1,0,0,0,1,0,0,1,1,1,1,1,1,1,0,0,0,1,1,0,1,1,0,0,1,1,1,1,1,0,1,0,1,1,0,0,1,0,0,0,1,0,0,1,0,0,1]",,,,,,,,,,,,,1,2021-01-21_15h57.24.711,premceCat_ses-01_part-01_label-phase1,2020.2.9,Win32,60,,,,,,,,1,,,,,,stimuli/m5.jpg,stimuli/m2.jpg,2,stimuli/Hand labour tool & accessory.png,stimuli/Kitchen & utensil.png,stimuli/Electronic device & accessory.png,stimuli/Outdoor activity & sport item.png,2,1,1,stimuli/m2.jpg,,stimuli/objects/butterdish.jpg,,,,,,,,2,1,1.987,0,39,39,39,1,Kitchen & utensil,,,,,,,
1,"[1,1,0,0,0,1,0,0,1,1,1,1,1,1,1,0,0,0,1,1,0,1,1,0,0,1,1,1,1,1,0,1,0,1,1,0,0,1,0,0,0,1,0,0,1,0,0,1,1]",,,,,,,,,,,,,1,2021-01-21_15h57.24.711,premceCat_ses-01_part-01_label-phase1,2020.2.9,Win32,60,,,,,,,,1,,,,,,stimuli/m2.jpg,stimuli/m5.jpg,2,stimuli/Hand labour tool & accessory.png,stimuli/Outdoor activity & sport item.png,stimuli/Kitchen & utensil.png,stimuli/Electronic device & accessory.png,1,1,1,stimuli/m5.jpg,,stimuli/objects/needlenosepliers01.jpg,,,,,,,,1,1,2.829,0,40,40,40,1,Hand labour tool & accessory,,,,,,,
1,"[1,1,0,0,0,1,0,0,1,1,1,1,1,1,1,0,0,0,1,1,0,1,1,0,0,1,1,1,1,1,0,1,0,1,1,0,0,1,0,0,0,1,0,0,1,0,0,1,1,1]",,,,,,,,,,,,,1,2021-01-21_15h57.24.711,premceCat_ses-01_part-01_label-phase1,2020.2.9,Win32,60,,,,,,,,1,,,,,,stimuli/m2.jpg,stimuli/m5.jpg,2,stimuli/Kitchen & utensil.png,stimuli/Hand labour tool & accessory.png,stimuli/Electronic device & accessory.png,stimuli/Outdoor activity & sport item.png,2,1,1,stimuli/m5.jpg,,stimuli/objects/pickaxe02.jpg,,,,,,,,2,1,2.253,0,41,41,41,1,Hand labour tool & accessory,,,,,,,
,,,,,,,,,,,,,,1,2021-01-21_15h57.24.711,premceCat_ses-01_part-01_label-phase1,2020.2.9,Win32,60,,,,,,,,,,,,,,,,,,,,,,,,,,,,,,,,,,,,,,,,,,,j,55.399,0,0,0,0,1
1,[],,,,,,,,,,,,,1,2021-01-21_15h57.24.711,premceCat_ses-01_part-01_label-phase1,2020.2.9,Win32,60,,,,,,,,1,,,,,,stimuli/m2.jpg,stimuli/m5.jpg,1,stimuli/Outdoor activity & sport item.png,stimuli/Electronic device & accessory.png,stimuli/Kitchen & utensil.png,stimuli/Hand labour tool & accessory.png,3,1,1,stimuli/m2.jpg,,stimuli/objects/cutleryset.jpg,,,,,,,,3,1,1.548,0,0,0,0,1,Kitchen & utensil,,,,,,,
1,[1],,,,,,,,,,,,,1,2021-01-21_15h57.24.711,premceCat_ses-01_part-01_label-phase1,2020.2.9,Win32,60,,,,,,,,1,,,,,,stimuli/m5.jpg,stimuli/m2.jpg,2,stimuli/Kitchen & utensil.png,stimuli/Electronic device & accessory.png,stimuli/Outdoor activity & sport item.png,stimuli/Hand labour tool & accessory.png,1,1,1,stimuli/m2.jpg,,stimuli/objects/grill.jpg,,,,,,,,1,1,1.257,0,1,1,1,1,Kitchen & utensil,,,,,,,
1,"[1,1]",,,,,,,,,,,,,1,2021-01-21_15h57.24.711,premceCat_ses-01_part-01_label-phase1,2020.2.9,Win32,60,,,,,,,,1,,,,,,stimuli/m5.jpg,stimuli/m2.jpg,1,stimuli/Hand labour tool & accessory.png,stimuli/Outdoor activity & sport item.png,stimuli/Electronic device & accessory.png,stimuli/Kitchen & utensil.png,1,1,1,stimuli/m5.jpg,,stimuli/objects/ducttape.jpg,,,,,,,,1,1,1.728,0,2,2,2,1,Hand labour tool & accessory,,,,,,,
1,"[1,1,1]",,,,,,,,,,,,,1,2021-01-21_15h57.24.711,premceCat_ses-01_part-01_label-phase1,2020.2.9,Win32,60,,,,,,,,1,,,,,,stimuli/m5.jpg,stimuli/m2.jpg,2,stimuli/Electronic device & accessory.png,stimuli/Kitchen & utensil.png,stimuli/Outdoor activity & sport item.png,stimuli/Hand labour tool & accessory.png,2,1,1,stimuli/m2.jpg,,stimuli/objects/cakeplatter.jpg,,,,,,,,2,1,3.121,0,3,3,3,1,Kitchen & utensil,,,,,,,
1,"[1,1,1,1]",,,,,,,,,,,,,1,2021-01-21_15h57.24.711,premceCat_ses-01_part-01_label-phase1,2020.2.9,Win32,60,,,,,,,,1,,,,,,stimuli/m5.jpg,stimuli/m2.jpg,2,stimuli/Outdoor activity & sport item.png,stimuli/Hand labour tool & accessory.png,stimuli/Electronic device & accessory.png,stimuli/Kitchen & utensil.png,4,1,1,stimuli/m2.jpg,,stimuli/objects/bagtie.jpg,,,,,,,,4,1,1.426,0,4,4,4,1,Kitchen & utensil,,,,,,,
1,"[1,1,1,1,1]",,,,,,,,,,,,,1,2021-01-21_15h57.24.711,premceCat_ses-01_part-01_label-phase1,2020.2.9,Win32,60,,,,,,,,1,,,,,,stimuli/m5.jpg,stimuli/m2.jpg,1,stimuli/Outdoor activity & sport item.png,stimuli/Kitchen & utensil.png,stimuli/Electronic device & accessory.png,stimuli/Hand labour tool & accessory.png,4,1,1,stimuli/m5.jpg,,stimuli/objects/generator.jpg,,,,,,,,4,1,1.722,0,5,5,5,1,Hand labour tool & accessory,,,,,,,
1,"[1,1,1,1,1,1]",,,,,,,,,,,,,1,2021-01-21_15h57.24.711,premceCat_ses-01_part-01_label-phase1,2020.2.9,Win32,60,,,,,,,,1,,,,,,stimuli/m2.jpg,stimuli/m5.jpg,1,stimuli/Electronic device & accessory.png,stimuli/Outdoor activity & sport item.png,stimuli/Hand labour tool & accessory.png,stimuli/Kitchen & utensil.png,4,1,1,stimuli/m2.jpg,,stimuli/objects/thermos.jpg,,,,,,,,4,1,1.025,0,6,6,6,1,Kitchen & utensil,,,,,,,
1,"[1,1,1,1,1,1,1]",,,,,,,,,,,,,1,2021-01-21_15h57.24.711,premceCat_ses-01_part-01_label-phase1,2020.2.9,Win32,60,,,,,,,,1,,,,,,stimuli/m2.jpg,stimuli/m5.jpg,1,stimuli/Electronic device & accessory.png,stimuli/Hand labour tool & accessory.png,stimuli/Outdoor activity & sport item.png,stimuli/Kitchen & utensil.png,4,1,1,stimuli/m2.jpg,,stimuli/objects/fryingpan02a.jpg,,,,,,,,4,1,0.852,0,7,7,7,1,Kitchen & utensil,,,,,,,
1,"[1,1,1,1,1,1,1,1]",,,,,,,,,,,,,1,2021-01-21_15h57.24.711,premceCat_ses-01_part-01_label-phase1,2020.2.9,Win32,60,,,,,,,,1,,,,,,stimuli/m5.jpg,stimuli/m2.jpg,1,stimuli/Electronic device & accessory.png,stimuli/Hand labour tool & accessory.png,stimuli/Kitchen & utensil.png,stimuli/Outdoor activity & sport item.png,2,1,1,stimuli/m5.jpg,,stimuli/objects/cheeseknife01.jpg,,,,,,,,2,1,1.096,0,8,8,8,1,Hand labour tool & accessory,,,,,,,
1,"[1,1,1,1,1,1,1,1,1]",,,,,,,,,,,,,1,2021-01-21_15h57.24.711,premceCat_ses-01_part-01_label-phase1,2020.2.9,Win32,60,,,,,,,,1,,,,,,stimuli/m2.jpg,stimuli/m5.jpg,1,stimuli/Hand labour tool & accessory.png,stimuli/Electronic device & accessory.png,stimuli/Outdoor activity & sport item.png,stimuli/Kitchen & utensil.png,4,1,1,stimuli/m2.jpg,,stimuli/objects/bowl02a.jpg,,,,,,,,4,1,0.852,0,9,9,9,1,Kitchen & utensil,,,,,,,
1,"[1,1,1,1,1,1,1,1,1,1]",,,,,,,,,,,,,1,2021-01-21_15h57.24.711,premceCat_ses-01_part-01_label-phase1,2020.2.9,Win32,60,,,,,,,,1,,,,,,stimuli/m5.jpg,stimuli/m2.jpg,1,stimuli/Kitchen & utensil.png,stimuli/Electronic device & accessory.png,stimuli/Outdoor activity & sport item.png,stimuli/Hand labour tool & accessory.png,4,1,1,stimuli/m5.jpg,,stimuli/objects/sandpaper.jpg,,,,,,,,4,1,2.876,0,10,10,10,1,Hand labour tool & accessory,,,,,,,
1,"[1,1,1,1,1,1,1,1,1,1,1]",,,,,,,,,,,,,1,2021-01-21_15h57.24.711,premceCat_ses-01_part-01_label-phase1,2020.2.9,Win32,60,,,,,,,,1,,,,,,stimuli/m2.jpg,stimuli/m5.jpg,1,stimuli/Outdoor activity & sport item.png,stimuli/Kitchen & utensil.png,stimuli/Hand labour tool & accessory.png,stimuli/Electronic device & accessory.png,2,1,1,stimuli/m2.jpg,,stimuli/objects/saladspinner.jpg,,,,,,,,2,1,1.183,0,11,11,11,1,Kitchen & utensil,,,,,,,
1,"[1,1,1,1,1,1,1,1,1,1,1,1]",,,,,,,,,,,,,1,2021-01-21_15h57.24.711,premceCat_ses-01_part-01_label-phase1,2020.2.9,Win32,60,,,,,,,,1,,,,,,stimuli/m5.jpg,stimuli/m2.jpg,1,stimuli/Outdoor activity & sport item.png,stimuli/Kitchen & utensil.png,stimuli/Hand labour tool & accessory.png,stimuli/Electronic device & accessory.png,3,1,1,stimuli/m5.jpg,,stimuli/objects/cuttingpliers02.jpg,,,,,,,,3,1,0.763,0,12,12,12,1,Hand labour tool & accessory,,,,,,,
1,"[1,1,1,1,1,1,1,1,1,1,1,1,1]",,,,,,,,,,,,,1,2021-01-21_15h57.24.711,premceCat_ses-01_part-01_label-phase1,2020.2.9,Win32,60,,,,,,,,1,,,,,,stimuli/m2.jpg,stimuli/m5.jpg,2,stimuli/Outdoor activity & sport item.png,stimuli/Electronic device & accessory.png,stimuli/Kitchen & utensil.png,stimuli/Hand labour tool & accessory.png,4,1,1,stimuli/m5.jpg,,stimuli/objects/gavel.jpg,,,,,,,,4,1,1.584,0,13,13,13,1,Hand labour tool & accessory,,,,,,,
1,"[1,1,1,1,1,1,1,1,1,1,1,1,1,1]",,,,,,,,,,,,,1,2021-01-21_15h57.24.711,premceCat_ses-01_part-01_label-phase1,2020.2.9,Win32,60,,,,,,,,1,,,,,,stimuli/m5.jpg,stimuli/m2.jpg,1,stimuli/Electronic device & accessory.png,stimuli/Kitchen & utensil.png,stimuli/Hand labour tool & accessory.png,stimuli/Outdoor activity & sport item.png,3,1,1,stimuli/m5.jpg,,stimuli/objects/bungeecord02.jpg,,,,,,,,3,1,0.955,0,14,14,14,1,Hand labour tool & accessory,,,,,,,
1,"[1,1,1,1,1,1,1,1,1,1,1,1,1,1,1]",,,,,,,,,,,,,1,2021-01-21_15h57.24.711,premceCat_ses-01_part-01_label-phase1,2020.2.9,Win32,60,,,,,,,,1,,,,,,stimuli/m2.jpg,stimuli/m5.jpg,1,stimuli/Hand labour tool & accessory.png,stimuli/Outdoor activity & sport item.png,stimuli/Electronic device & accessory.png,stimuli/Kitchen & utensil.png,4,1,1,stimuli/m2.jpg,,stimuli/objects/spicerack.jpg,,,,,,,,4,1,1.289,0,15,15,15,1,Kitchen & utensil,,,,,,,
1,"[1,1,1,1,1,1,1,1,1,1,1,1,1,1,1,1]",,,,,,,,,,,,,1,2021-01-21_15h57.24.711,premceCat_ses-01_part-01_label-phase1,2020.2.9,Win32,60,,,,,,,,1,,,,,,stimuli/m5.jpg,stimuli/m2.jpg,2,stimuli/Hand labour tool & accessory.png,stimuli/Kitchen & utensil.png,stimuli/Outdoor activity & sport item.png,stimuli/Electronic device & accessory.png,2,1,1,stimuli/m2.jpg,,stimuli/objects/potatomasher03b.jpg,,,,,,,,2,1,0.902,0,16,16,16,1,Kitchen & utensil,,,,,,,
1,"[1,1,1,1,1,1,1,1,1,1,1,1,1,1,1,1,1]",,,,,,,,,,,,,1,2021-01-21_15h57.24.711,premceCat_ses-01_part-01_label-phase1,2020.2.9,Win32,60,,,,,,,,1,,,,,,stimuli/m2.jpg,stimuli/m5.jpg,2,stimuli/Electronic device & accessory.png,stimuli/Outdoor activity & sport item.png,stimuli/Kitchen & utensil.png,stimuli/Hand labour tool & accessory.png,3,0,1,stimuli/m5.jpg,,stimuli/objects/oven.jpg,,,,,,,,3,1,2.264,0,17,17,17,1,Kitchen & utensil,,,,,,,
0,"[1,1,1,1,1,1,1,1,1,1,1,1,1,1,1,1,1]",,,,,,,,,,,,,1,2021-01-21_15h57.24.711,premceCat_ses-01_part-01_label-phase1,2020.2.9,Win32,60,,,,,,,,1,,,,,,stimuli/m2.jpg,stimuli/m5.jpg,1,stimuli/Hand labour tool & accessory.png,stimuli/Kitchen & utensil.png,stimuli/Outdoor activity & sport item.png,stimuli/Electronic device & accessory.png,3,0,1,stimuli/m2.jpg,,stimuli/objects/basketball01.jpg,,,,,,,,2,0,0.957,0,18,18,18,1,Outdoor activity & sport item,,,,,,,
1,"[1,1,1,1,1,1,1,1,1,1,1,1,1,1,1,1,1]",,,,,,,,,,,,,1,2021-01-21_15h57.24.711,premceCat_ses-01_part-01_label-phase1,2020.2.9,Win32,60,,,,,,,,1,,,,,,stimuli/m2.jpg,stimuli/m5.jpg,2,stimuli/Outdoor activity & sport item.png,stimuli/Kitchen & utensil.png,stimuli/Hand labour tool & accessory.png,stimuli/Electronic device & accessory.png,3,1,1,stimuli/m5.jpg,,stimuli/objects/cclamp.jpg,,,,,,,,3,1,2.648,0,19,19,19,1,Hand labour tool & accessory,,,,,,,
0,"[1,1,1,1,1,1,1,1,1,1,1,1,1,1,1,1,1,1]",,,,,,,,,,,,,1,2021-01-21_15h57.24.711,premceCat_ses-01_part-01_label-phase1,2020.2.9,Win32,60,,,,,,,,0,,,,,,stimuli/m5.jpg,stimuli/m2.jpg,2,stimuli/Kitchen & utensil.png,stimuli/Hand labour tool & accessory.png,stimuli/Outdoor activity & sport item.png,stimuli/Electronic device & accessory.png,1,1,1,stimuli/m2.jpg,,stimuli/objects/martiniglass01b.jpg,,,,,,,,3,0,1.706,0,20,20,20,1,Kitchen & utensil,,,,,,,
0,"[1,1,1,1,1,1,1,1,1,1,1,1,1,1,1,1,1,1,0]",,,,,,,,,,,,,1,2021-01-21_15h57.24.711,premceCat_ses-01_part-01_label-phase1,2020.2.9,Win32,60,,,,,,,,0,,,,,,stimuli/m2.jpg,stimuli/m5.jpg,2,stimuli/Kitchen & utensil.png,stimuli/Hand labour tool & accessory.png,stimuli/Outdoor activity & sport item.png,stimuli/Electronic device & accessory.png,3,0,1,stimuli/m5.jpg,,stimuli/objects/racquetballracket.jpg,,,,,,,,2,0,0.938,0,21,21,21,1,Outdoor activity & sport item,,,,,,,
1,"[1,1,1,1,1,1,1,1,1,1,1,1,1,1,1,1,1,1,0]",,,,,,,,,,,,,1,2021-01-21_15h57.24.711,premceCat_ses-01_part-01_label-phase1,2020.2.9,Win32,60,,,,,,,,1,,,,,,stimuli/m5.jpg,stimuli/m2.jpg,2,stimuli/Outdoor activity & sport item.png,stimuli/Electronic device & accessory.png,stimuli/Hand labour tool & accessory.png,stimuli/Kitchen & utensil.png,4,1,1,stimuli/m2.jpg,,stimuli/objects/strainer01b.jpg,,,,,,,,4,1,1.042,0,22,22,22,1,Kitchen & utensil,,,,,,,
1,"[1,1,1,1,1,1,1,1,1,1,1,1,1,1,1,1,1,1,0,1]",,,,,,,,,,,,,1,2021-01-21_15h57.24.711,premceCat_ses-01_part-01_label-phase1,2020.2.9,Win32,60,,,,,,,,1,,,,,,stimuli/m2.jpg,stimuli/m5.jpg,2,stimuli/Electronic device & accessory.png,stimuli/Kitchen & utensil.png,stimuli/Outdoor activity & sport item.png,stimuli/Hand labour tool & accessory.png,4,1,1,stimuli/m5.jpg,,stimuli/objects/metalbrush.jpg,,,,,,,,4,1,1.548,0,23,23,23,1,Hand labour tool & accessory,,,,,,,
1,"[1,1,1,1,1,1,1,1,1,1,1,1,1,1,1,1,1,1,0,1,1]",,,,,,,,,,,,,1,2021-01-21_15h57.24.711,premceCat_ses-01_part-01_label-phase1,2020.2.9,Win32,60,,,,,,,,1,,,,,,stimuli/m5.jpg,stimuli/m2.jpg,1,stimuli/Hand labour tool & accessory.png,stimuli/Kitchen & utensil.png,stimuli/Outdoor activity & sport item.png,stimuli/Electronic device & accessory.png,1,1,1,stimuli/m5.jpg,,stimuli/objects/pressurewasher.jpg,,,,,,,,1,1,1.455,0,24,24,24,1,Hand labour tool & accessory,,,,,,,
1,"[1,1,1,1,1,1,1,1,1,1,1,1,1,1,1,1,1,1,0,1,1,1]",,,,,,,,,,,,,1,2021-01-21_15h57.24.711,premceCat_ses-01_part-01_label-phase1,2020.2.9,Win32,60,,,,,,,,1,,,,,,stimuli/m2.jpg,stimuli/m5.jpg,1,stimuli/Outdoor activity & sport item.png,stimuli/Hand labour tool & accessory.png,stimuli/Electronic device & accessory.png,stimuli/Kitchen & utensil.png,4,1,1,stimuli/m2.jpg,,stimuli/objects/mortarandpestle.jpg,,,,,,,,4,1,1.043,0,25,25,25,1,Kitchen & utensil,,,,,,,
0,"[1,1,1,1,1,1,1,1,1,1,1,1,1,1,1,1,1,1,0,1,1,1,1]",,,,,,,,,,,,,1,2021-01-21_15h57.24.711,premceCat_ses-01_part-01_label-phase1,2020.2.9,Win32,60,,,,,,,,1,,,,,,stimuli/m5.jpg,stimuli/m2.jpg,1,stimuli/Electronic device & accessory.png,stimuli/Hand labour tool & accessory.png,stimuli/Outdoor activity & sport item.png,stimuli/Kitchen & utensil.png,1,0,1,stimuli/m5.jpg,,stimuli/objects/speaker04.jpg,,,,,,,,2,0,1.252,0,26,26,26,1,Electronic device & accessory,,,,,,,
0,"[1,1,1,1,1,1,1,1,1,1,1,1,1,1,1,1,1,1,0,1,1,1,1]",,,,,,,,,,,,,1,2021-01-21_15h57.24.711,premceCat_ses-01_part-01_label-phase1,2020.2.9,Win32,60,,,,,,,,0,,,,,,stimuli/m2.jpg,stimuli/m5.jpg,2,stimuli/Hand labour tool & accessory.png,stimuli/Kitchen & utensil.png,stimuli/Electronic device & accessory.png,stimuli/Outdoor activity & sport item.png,1,1,1,stimuli/m5.jpg,,stimuli/objects/squeegee01b.jpg,,,,,,,,3,0,0.78,0,27,27,27,1,Hand labour tool & accessory,,,,,,,
0,"[1,1,1,1,1,1,1,1,1,1,1,1,1,1,1,1,1,1,0,1,1,1,1,0]",,,,,,,,,,,,,1,2021-01-21_15h57.24.711,premceCat_ses-01_part-01_label-phase1,2020.2.9,Win32,60,,,,,,,,0,,,,,,stimuli/m5.jpg,stimuli/m2.jpg,2,stimuli/Hand labour tool & accessory.png,stimuli/Outdoor activity & sport item.png,stimuli/Kitchen & utensil.png,stimuli/Electronic device & accessory.png,4,0,1,stimuli/m2.jpg,,stimuli/objects/antenna.jpg,,,,,,,,3,0,3.626,0,28,28,28,1,Electronic device & accessory,,,,,,,
1,"[1,1,1,1,1,1,1,1,1,1,1,1,1,1,1,1,1,1,0,1,1,1,1,0]",,,,,,,,,,,,,1,2021-01-21_15h57.24.711,premceCat_ses-01_part-01_label-phase1,2020.2.9,Win32,60,,,,,,,,1,,,,,,stimuli/m5.jpg,stimuli/m2.jpg,2,stimuli/Electronic device & accessory.png,stimuli/Outdoor activity & sport item.png,stimuli/Hand labour tool & accessory.png,stimuli/Kitchen & utensil.png,4,1,1,stimuli/m2.jpg,,stimuli/objects/sippycup.jpg,,,,,,,,4,1,2.666,0,29,29,29,1,Kitchen & utensil,,,,,,,
1,"[1,1,1,1,1,1,1,1,1,1,1,1,1,1,1,1,1,1,0,1,1,1,1,0,1]",,,,,,,,,,,,,1,2021-01-21_15h57.24.711,premceCat_ses-01_part-01_label-phase1,2020.2.9,Win32,60,,,,,,,,1,,,,,,stimuli/m2.jpg,stimuli/m5.jpg,2,stimuli/Kitchen & utensil.png,stimuli/Outdoor activity & sport item.png,stimuli/Electronic device & accessory.png,stimuli/Hand labour tool & accessory.png,4,1,1,stimuli/m5.jpg,,stimuli/objects/painttray.jpg,,,,,,,,4,1,1.81,0,30,30,30,1,Hand labour tool & accessory,,,,,,,
1,"[1,1,1,1,1,1,1,1,1,1,1,1,1,1,1,1,1,1,0,1,1,1,1,0,1,1]",,,,,,,,,,,,,1,2021-01-21_15h57.24.711,premceCat_ses-01_part-01_label-phase1,2020.2.9,Win32,60,,,,,,,,1,,,,,,stimuli/m2.jpg,stimuli/m5.jpg,1,stimuli/Hand labour tool & accessory.png,stimuli/Kitchen & utensil.png,stimuli/Electronic device & accessory.png,stimuli/Outdoor activity & sport item.png,2,1,1,stimuli/m2.jpg,,stimuli/objects/handmixer01d.jpg,,,,,,,,2,1,1.028,0,31,31,31,1,Kitchen & utensil,,,,,,,
0,"[1,1,1,1,1,1,1,1,1,1,1,1,1,1,1,1,1,1,0,1,1,1,1,0,1,1,1]",,,,,,,,,,,,,1,2021-01-21_15h57.24.711,premceCat_ses-01_part-01_label-phase1,2020.2.9,Win32,60,,,,,,,,1,,,,,,stimuli/m5.jpg,stimuli/m2.jpg,2,stimuli/Outdoor activity & sport item.png,stimuli/Kitchen & utensil.png,stimuli/Electronic device & accessory.png,stimuli/Hand labour tool & accessory.png,4,0,1,stimuli/m2.jpg,,stimuli/objects/hoe.jpg,,,,,,,,2,0,1.987,0,32,32,32,1,Hand labour tool & accessory,,,,,,,
0,"[1,1,1,1,1,1,1,1,1,1,1,1,1,1,1,1,1,1,0,1,1,1,1,0,1,1,1]",,,,,,,,,,,,,1,2021-01-21_15h57.24.711,premceCat_ses-01_part-01_label-phase1,2020.2.9,Win32,60,,,,,,,,0,,,,,,stimuli/m2.jpg,stimuli/m5.jpg,2,stimuli/Hand labour tool & accessory.png,stimuli/Kitchen & utensil.png,stimuli/Outdoor activity & sport item.png,stimuli/Electronic device & accessory.png,1,1,1,stimuli/m5.jpg,,stimuli/objects/loppingshears.jpg,,,,,,,,,0,,0,33,33,33,1,Hand labour tool & accessory,,,,,,,
1,"[1,1,1,1,1,1,1,1,1,1,1,1,1,1,1,1,1,1,0,1,1,1,1,0,1,1,1,0]",,,,,,,,,,,,,1,2021-01-21_15h57.24.711,premceCat_ses-01_part-01_label-phase1,2020.2.9,Win32,60,,,,,,,,1,,,,,,stimuli/m2.jpg,stimuli/m5.jpg,1,stimuli/Kitchen & utensil.png,stimuli/Electronic device & accessory.png,stimuli/Outdoor activity & sport item.png,stimuli/Hand labour tool & accessory.png,1,1,1,stimuli/m2.jpg,,stimuli/objects/hourglass.jpg,,,,,,,,1,1,3.485,0,34,34,34,1,Kitchen & utensil,,,,,,,
1,"[1,1,1,1,1,1,1,1,1,1,1,1,1,1,1,1,1,1,0,1,1,1,1,0,1,1,1,0,1]",,,,,,,,,,,,,1,2021-01-21_15h57.24.711,premceCat_ses-01_part-01_label-phase1,2020.2.9,Win32,60,,,,,,,,1,,,,,,stimuli/m2.jpg,stimuli/m5.jpg,2,stimuli/Electronic device & accessory.png,stimuli/Hand labour tool & accessory.png,stimuli/Kitchen & utensil.png,stimuli/Outdoor activity & sport item.png,2,1,1,stimuli/m5.jpg,,stimuli/objects/snowshovel.jpg,,,,,,,,2,1,1.009,0,35,35,35,1,Hand labour tool & accessory,,,,,,,
1,"[1,1,1,1,1,1,1,1,1,1,1,1,1,1,1,1,1,1,0,1,1,1,1,0,1,1,1,0,1,1]",,,,,,,,,,,,,1,2021-01-21_15h57.24.711,premceCat_ses-01_part-01_label-phase1,2020.2.9,Win32,60,,,,,,,,1,,,,,,stimuli/m2.jpg,stimuli/m5.jpg,2,stimuli/Electronic device & accessory.png,stimuli/Hand labour tool & accessory.png,stimuli/Outdoor activity & sport item.png,stimuli/Kitchen & utensil.png,2,1,1,stimuli/m5.jpg,,stimuli/objects/carjack.jpg,,,,,,,,2,1,2.144,0,36,36,36,1,Hand labour tool & accessory,,,,,,,
1,"[1,1,1,1,1,1,1,1,1,1,1,1,1,1,1,1,1,1,0,1,1,1,1,0,1,1,1,0,1,1,1]",,,,,,,,,,,,,1,2021-01-21_15h57.24.711,premceCat_ses-01_part-01_label-phase1,2020.2.9,Win32,60,,,,,,,,1,,,,,,stimuli/m2.jpg,stimuli/m5.jpg,2,stimuli/Hand labour tool & accessory.png,stimuli/Electronic device & accessory.png,stimuli/Kitchen & utensil.png,stimuli/Outdoor activity & sport item.png,1,1,1,stimuli/m5.jpg,,stimuli/objects/wheel01.jpg,,,,,,,,1,1,2.349,0,37,37,37,1,Hand labour tool & accessory,,,,,,,
1,"[1,1,1,1,1,1,1,1,1,1,1,1,1,1,1,1,1,1,0,1,1,1,1,0,1,1,1,0,1,1,1,1]",,,,,,,,,,,,,1,2021-01-21_15h57.24.711,premceCat_ses-01_part-01_label-phase1,2020.2.9,Win32,60,,,,,,,,1,,,,,,stimuli/m2.jpg,stimuli/m5.jpg,1,stimuli/Outdoor activity & sport item.png,stimuli/Electronic device & accessory.png,stimuli/Hand labour tool & accessory.png,stimuli/Kitchen & utensil.png,4,1,1,stimuli/m2.jpg,,stimuli/objects/winerack.jpg,,,,,,,,4,1,0.788,0,38,38,38,1,Kitchen & utensil,,,,,,,
1,"[1,1,1,1,1,1,1,1,1,1,1,1,1,1,1,1,1,1,0,1,1,1,1,0,1,1,1,0,1,1,1,1,1]",,,,,,,,,,,,,1,2021-01-21_15h57.24.711,premceCat_ses-01_part-01_label-phase1,2020.2.9,Win32,60,,,,,,,,1,,,,,,stimuli/m5.jpg,stimuli/m2.jpg,2,stimuli/Hand labour tool & accessory.png,stimuli/Kitchen & utensil.png,stimuli/Electronic device & accessory.png,stimuli/Outdoor activity & sport item.png,2,1,1,stimuli/m2.jpg,,stimuli/objects/butterdish.jpg,,,,,,,,2,1,0.939,0,39,39,39,1,Kitchen & utensil,,,,,,,
1,"[1,1,1,1,1,1,1,1,1,1,1,1,1,1,1,1,1,1,0,1,1,1,1,0,1,1,1,0,1,1,1,1,1,1]",,,,,,,,,,,,,1,2021-01-21_15h57.24.711,premceCat_ses-01_part-01_label-phase1,2020.2.9,Win32,60,,,,,,,,1,,,,,,stimuli/m2.jpg,stimuli/m5.jpg,2,stimuli/Hand labour tool & accessory.png,stimuli/Outdoor activity & sport item.png,stimuli/Kitchen & utensil.png,stimuli/Electronic device & accessory.png,1,1,1,stimuli/m5.jpg,,stimuli/objects/needlenosepliers01.jpg,,,,,,,,1,1,1.095,0,40,40,40,1,Hand labour tool & accessory,,,,,,,
1,"[1,1,1,1,1,1,1,1,1,1,1,1,1,1,1,1,1,1,0,1,1,1,1,0,1,1,1,0,1,1,1,1,1,1,1]",,,,,,,,,,,,,1,2021-01-21_15h57.24.711,premceCat_ses-01_part-01_label-phase1,2020.2.9,Win32,60,,,,,,,,1,,,,,,stimuli/m2.jpg,stimuli/m5.jpg,2,stimuli/Kitchen & utensil.png,stimuli/Hand labour tool & accessory.png,stimuli/Electronic device & accessory.png,stimuli/Outdoor activity & sport item.png,2,1,1,stimuli/m5.jpg,,stimuli/objects/pickaxe02.jpg,,,,,,,,2,1,1.276,0,41,41,41,1,Hand labour tool & accessory,,,,,,,
,,,,,,,,,,,,,,1,2021-01-21_15h57.24.711,premceCat_ses-01_part-01_label-phase1,2020.2.9,Win32,60,,,,,,,,,,,,,,,,,,,,,,,,,,,,,,,,,,,,,,,,,,,n,22.442,1,0,1,0,1
