instructions_loop.thisRepN,instructions_loop.thisTrialN,instructions_loop.thisN,instructions_loop.thisIndex,instructions_loop.ran,text1,text2,text3,participant,date,expName,psychopyVersion,OS,frameRate,recog_resp.keys,recog_resp.rt,conf_resp.keys,conf_resp.rt,recog_loop.thisRepN,recog_loop.thisTrialN,recog_loop.thisN,recog_loop.thisIndex,recog_loop.ran,images,corr_ans,type,order,key_resp_break.keys,key_resp_break.rt,list_loop.thisRepN,list_loop.thisTrialN,list_loop.thisN,list_loop.thisIndex,list_loop.ran,recog_list
0,0,0,0,1,Welcome to the last phase of this experiment!,.,Please press the space bar to continue,6,2021-02-05_18h50.08.757,premceCat_ses-02_part-02_label-phase2,2020.2.10,MacIntel,60,,,,,,,,,,,,,,,,,,,,,
0,1,1,1,1,.,"In this phase, you will see some objects. 

For each object, you should indicate whether you have seen it before during the experiment.

Press LEFT ARROW for YES
Press RIGHT ARROW for NO

",Please press the space bar to continue ,6,2021-02-05_18h50.08.757,premceCat_ses-02_part-02_label-phase2,2020.2.10,MacIntel,60,,,,,,,,,,,,,,,,,,,,,
0,2,2,2,1,.,"After that, you will be asked how confident you are of your choice.

Please rate the confidence in your choce with the numbers from 1 to 4 of your keyboard. 

The numbers correspond to:

1 = Very unsure
2 = Unsure
3 = Sure
4 = Very Sure",Please press the space bar to continue,6,2021-02-05_18h50.08.757,premceCat_ses-02_part-02_label-phase2,2020.2.10,MacIntel,60,,,,,,,,,,,,,,,,,,,,,
0,3,3,3,1,.,"After completing half of the task, you will be given the possibility to take a break. ",Please press the space bar to start with the task!,6,2021-02-05_18h50.08.757,premceCat_ses-02_part-02_label-phase2,2020.2.10,MacIntel,60,,,,,,,,,,,,,,,,,,,,,
,,,,,,,,6,2021-02-05_18h50.08.757,premceCat_ses-02_part-02_label-phase2,2020.2.10,MacIntel,60,left,1.85,3,3.575,0,0,0,104,1,stimuli/objects/toothpick02.jpg,left,old,105,,,,,,,,
,,,,,,,,6,2021-02-05_18h50.08.757,premceCat_ses-02_part-02_label-phase2,2020.2.10,MacIntel,60,left,1.022,4,1.328,0,1,1,7,1,stimuli/objects/setsquare.jpg,left,old,8,,,,,,,,
,,,,,,,,6,2021-02-05_18h50.08.757,premceCat_ses-02_part-02_label-phase2,2020.2.10,MacIntel,60,right,1.873,2,1.762,0,2,2,59,1,stimuli/objects/dvdplayer.jpg,right,new,60,,,,,,,,
,,,,,,,,6,2021-02-05_18h50.08.757,premceCat_ses-02_part-02_label-phase2,2020.2.10,MacIntel,60,left,2.135,2,1.146,0,3,3,140,1,stimuli/objects/beermug01a.jpg,left,old,141,,,,,,,,
,,,,,,,,6,2021-02-05_18h50.08.757,premceCat_ses-02_part-02_label-phase2,2020.2.10,MacIntel,60,right,0.865,4,1.679,0,4,4,50,1,stimuli/objects/wateringcan.jpg,right,new,51,,,,,,,,
,,,,,,,,6,2021-02-05_18h50.08.757,premceCat_ses-02_part-02_label-phase2,2020.2.10,MacIntel,60,right,1.346,2,0.828,0,5,5,114,1,stimuli/objects/printer02.jpg,left,old,115,,,,,,,,
,,,,,,,,6,2021-02-05_18h50.08.757,premceCat_ses-02_part-02_label-phase2,2020.2.10,MacIntel,60,right,0.886,3,1.678,0,6,6,34,1,stimuli/objects/toolbox02.jpg,left,old,35,,,,,,,,
,,,,,,,,6,2021-02-05_18h50.08.757,premceCat_ses-02_part-02_label-phase2,2020.2.10,MacIntel,60,left,1.088,4,1.028,0,7,7,95,1,stimuli/objects/backfloat.jpg,left,old,96,,,,,,,,
,,,,,,,,6,2021-02-05_18h50.08.757,premceCat_ses-02_part-02_label-phase2,2020.2.10,MacIntel,60,right,1.1,3,0.763,0,8,8,83,1,stimuli/objects/contactlens.jpg,right,new,84,,,,,,,,
,,,,,,,,6,2021-02-05_18h50.08.757,premceCat_ses-02_part-02_label-phase2,2020.2.10,MacIntel,60,right,1.705,1,1.162,0,9,9,35,1,stimuli/objects/kneepad01c.jpg,left,old,36,,,,,,,,
,,,,,,,,6,2021-02-05_18h50.08.757,premceCat_ses-02_part-02_label-phase2,2020.2.10,MacIntel,60,left,1.806,4,1.212,0,10,10,115,1,stimuli/objects/peeler01.jpg,left,old,116,,,,,,,,
,,,,,,,,6,2021-02-05_18h50.08.757,premceCat_ses-02_part-02_label-phase2,2020.2.10,MacIntel,60,right,1.566,2,0.676,0,11,11,70,1,stimuli/objects/heatpump.jpg,left,old,71,,,,,,,,
,,,,,,,,6,2021-02-05_18h50.08.757,premceCat_ses-02_part-02_label-phase2,2020.2.10,MacIntel,60,left,1.286,1,1.263,0,12,12,133,1,stimuli/objects/avcable.jpg,right,new,134,,,,,,,,
,,,,,,,,6,2021-02-05_18h50.08.757,premceCat_ses-02_part-02_label-phase2,2020.2.10,MacIntel,60,right,1.004,4,1.362,0,13,13,90,1,stimuli/objects/canister.jpg,right,new,91,,,,,,,,
,,,,,,,,6,2021-02-05_18h50.08.757,premceCat_ses-02_part-02_label-phase2,2020.2.10,MacIntel,60,left,1.313,1,1.596,0,14,14,41,1,stimuli/objects/foodprocessor.jpg,right,new,42,,,,,,,,
,,,,,,,,6,2021-02-05_18h50.08.757,premceCat_ses-02_part-02_label-phase2,2020.2.10,MacIntel,60,left,1.537,2,0.962,0,15,15,103,1,stimuli/objects/fan.jpg,left,old,104,,,,,,,,
,,,,,,,,6,2021-02-05_18h50.08.757,premceCat_ses-02_part-02_label-phase2,2020.2.10,MacIntel,60,left,1.153,4,0.462,0,16,16,132,1,stimuli/objects/exercisebench.jpg,left,old,133,,,,,,,,
,,,,,,,,6,2021-02-05_18h50.08.757,premceCat_ses-02_part-02_label-phase2,2020.2.10,MacIntel,60,right,1.021,3,0.512,0,17,17,33,1,stimuli/objects/spatula03.jpg,right,new,34,,,,,,,,
,,,,,,,,6,2021-02-05_18h50.08.757,premceCat_ses-02_part-02_label-phase2,2020.2.10,MacIntel,60,right,1.104,3,2.261,0,18,18,53,1,stimuli/objects/smokedetector02.jpg,right,new,54,,,,,,,,
,,,,,,,,6,2021-02-05_18h50.08.757,premceCat_ses-02_part-02_label-phase2,2020.2.10,MacIntel,60,right,2.253,1,0.744,0,19,19,66,1,stimuli/objects/tablesaw.jpg,right,new,67,,,,,,,,
,,,,,,,,6,2021-02-05_18h50.08.757,premceCat_ses-02_part-02_label-phase2,2020.2.10,MacIntel,60,right,0.919,4,0.946,0,20,20,80,1,stimuli/objects/fanblades.jpg,right,new,81,,,,,,,,
,,,,,,,,6,2021-02-05_18h50.08.757,premceCat_ses-02_part-02_label-phase2,2020.2.10,MacIntel,60,left,0.937,4,1.346,0,21,21,11,1,stimuli/objects/lightbulb01.jpg,left,old,12,,,,,,,,
,,,,,,,,6,2021-02-05_18h50.08.757,premceCat_ses-02_part-02_label-phase2,2020.2.10,MacIntel,60,right,1.789,3,1.53,0,22,22,79,1,stimuli/objects/glass02a.jpg,left,old,80,,,,,,,,
,,,,,,,,6,2021-02-05_18h50.08.757,premceCat_ses-02_part-02_label-phase2,2020.2.10,MacIntel,60,left,1.188,3,1.146,0,23,23,47,1,stimuli/objects/icescraper.jpg,left,old,48,,,,,,,,
,,,,,,,,6,2021-02-05_18h50.08.757,premceCat_ses-02_part-02_label-phase2,2020.2.10,MacIntel,60,left,2.253,1,0.711,0,24,24,23,1,stimuli/objects/volleyball.jpg,right,new,24,,,,,,,,
,,,,,,,,6,2021-02-05_18h50.08.757,premceCat_ses-02_part-02_label-phase2,2020.2.10,MacIntel,60,right,1.086,3,1.145,0,25,25,86,1,stimuli/objects/styrofoamcup.jpg,right,new,87,,,,,,,,
,,,,,,,,6,2021-02-05_18h50.08.757,premceCat_ses-02_part-02_label-phase2,2020.2.10,MacIntel,60,right,0.837,4,0.296,0,26,26,121,1,stimuli/objects/chocolatefonduedish.jpg,right,new,122,,,,,,,,
,,,,,,,,6,2021-02-05_18h50.08.757,premceCat_ses-02_part-02_label-phase2,2020.2.10,MacIntel,60,right,0.853,4,0.645,0,27,27,9,1,stimuli/objects/shopvac.jpg,right,new,10,,,,,,,,
,,,,,,,,6,2021-02-05_18h50.08.757,premceCat_ses-02_part-02_label-phase2,2020.2.10,MacIntel,60,right,1.24,1,3.594,0,28,28,31,1,stimuli/objects/audiocablesplitter.jpg,left,old,32,,,,,,,,
,,,,,,,,6,2021-02-05_18h50.08.757,premceCat_ses-02_part-02_label-phase2,2020.2.10,MacIntel,60,right,0.869,4,1.511,0,29,29,141,1,stimuli/objects/skiboot01a.jpg,right,new,142,,,,,,,,
,,,,,,,,6,2021-02-05_18h50.08.757,premceCat_ses-02_part-02_label-phase2,2020.2.10,MacIntel,60,right,1.638,3,0.663,0,30,30,100,1,stimuli/objects/pot01.jpg,right,new,101,,,,,,,,
,,,,,,,,6,2021-02-05_18h50.08.757,premceCat_ses-02_part-02_label-phase2,2020.2.10,MacIntel,60,left,1.42,4,0.662,0,31,31,61,1,stimuli/objects/lectern01.jpg,left,old,62,,,,,,,,
,,,,,,,,6,2021-02-05_18h50.08.757,premceCat_ses-02_part-02_label-phase2,2020.2.10,MacIntel,60,left,1.52,2,0.595,0,32,32,69,1,stimuli/objects/baseballglove.jpg,left,old,70,,,,,,,,
,,,,,,,,6,2021-02-05_18h50.08.757,premceCat_ses-02_part-02_label-phase2,2020.2.10,MacIntel,60,right,1.22,2,0.745,0,33,33,3,1,stimuli/objects/halogenlightbulb.jpg,left,old,4,,,,,,,,
,,,,,,,,6,2021-02-05_18h50.08.757,premceCat_ses-02_part-02_label-phase2,2020.2.10,MacIntel,60,right,1.105,4,0.678,0,34,34,76,1,stimuli/objects/parachute.jpg,right,new,77,,,,,,,,
,,,,,,,,6,2021-02-05_18h50.08.757,premceCat_ses-02_part-02_label-phase2,2020.2.10,MacIntel,60,right,0.924,4,0.479,0,35,35,4,1,stimuli/objects/atm.jpg,right,new,5,,,,,,,,
,,,,,,,,6,2021-02-05_18h50.08.757,premceCat_ses-02_part-02_label-phase2,2020.2.10,MacIntel,60,right,0.955,3,0.695,0,36,36,94,1,stimuli/objects/corkscrew03a.jpg,right,new,95,,,,,,,,
,,,,,,,,6,2021-02-05_18h50.08.757,premceCat_ses-02_part-02_label-phase2,2020.2.10,MacIntel,60,right,0.639,4,0.412,0,37,37,108,1,stimuli/objects/pylon01.jpg,right,new,109,,,,,,,,
,,,,,,,,6,2021-02-05_18h50.08.757,premceCat_ses-02_part-02_label-phase2,2020.2.10,MacIntel,60,right,0.803,2,0.663,0,38,38,75,1,stimuli/objects/puttyknife.jpg,right,new,76,,,,,,,,
,,,,,,,,6,2021-02-05_18h50.08.757,premceCat_ses-02_part-02_label-phase2,2020.2.10,MacIntel,60,left,1.136,1,0.629,0,39,39,49,1,stimuli/objects/muffintray01.jpg,left,old,50,,,,,,,,
,,,,,,,,6,2021-02-05_18h50.08.757,premceCat_ses-02_part-02_label-phase2,2020.2.10,MacIntel,60,right,2.122,1,0.379,0,40,40,21,1,stimuli/objects/measuringspoon.jpg,right,new,22,,,,,,,,
,,,,,,,,6,2021-02-05_18h50.08.757,premceCat_ses-02_part-02_label-phase2,2020.2.10,MacIntel,60,left,0.985,3,0.846,0,41,41,58,1,stimuli/objects/stubbywrench01a.jpg,left,old,59,,,,,,,,
,,,,,,,,6,2021-02-05_18h50.08.757,premceCat_ses-02_part-02_label-phase2,2020.2.10,MacIntel,60,left,1.32,3,0.446,0,42,42,2,1,stimuli/objects/fridge.jpg,left,old,3,,,,,,,,
,,,,,,,,6,2021-02-05_18h50.08.757,premceCat_ses-02_part-02_label-phase2,2020.2.10,MacIntel,60,right,1.17,1,0.545,0,43,43,39,1,stimuli/objects/tableknife02.jpg,right,new,40,,,,,,,,
,,,,,,,,6,2021-02-05_18h50.08.757,premceCat_ses-02_part-02_label-phase2,2020.2.10,MacIntel,60,right,1.471,1,0.462,0,44,44,19,1,stimuli/objects/coffeepot03a.jpg,right,new,20,,,,,,,,
,,,,,,,,6,2021-02-05_18h50.08.757,premceCat_ses-02_part-02_label-phase2,2020.2.10,MacIntel,60,right,1.17,1,0.377,0,45,45,112,1,stimuli/objects/bikelock.jpg,right,new,113,,,,,,,,
,,,,,,,,6,2021-02-05_18h50.08.757,premceCat_ses-02_part-02_label-phase2,2020.2.10,MacIntel,60,right,0.821,4,0.657,0,46,46,73,1,stimuli/objects/kiddiepool.jpg,right,new,74,,,,,,,,
,,,,,,,,6,2021-02-05_18h50.08.757,premceCat_ses-02_part-02_label-phase2,2020.2.10,MacIntel,60,right,1.12,4,0.245,0,47,47,106,1,stimuli/objects/towel01.jpg,right,new,107,,,,,,,,
,,,,,,,,6,2021-02-05_18h50.08.757,premceCat_ses-02_part-02_label-phase2,2020.2.10,MacIntel,60,left,0.903,4,0.562,0,48,48,14,1,stimuli/objects/cork02.jpg,left,old,15,,,,,,,,
,,,,,,,,6,2021-02-05_18h50.08.757,premceCat_ses-02_part-02_label-phase2,2020.2.10,MacIntel,60,left,1.453,4,0.145,0,49,49,78,1,stimuli/objects/crosscountryski.jpg,left,old,79,,,,,,,,
,,,,,,,,6,2021-02-05_18h50.08.757,premceCat_ses-02_part-02_label-phase2,2020.2.10,MacIntel,60,left,1.238,4,0.112,0,50,50,27,1,stimuli/objects/hockeystick.jpg,left,old,28,,,,,,,,
,,,,,,,,6,2021-02-05_18h50.08.757,premceCat_ses-02_part-02_label-phase2,2020.2.10,MacIntel,60,left,1.021,3,0.663,0,51,51,129,1,stimuli/objects/hose.jpg,left,old,130,,,,,,,,
,,,,,,,,6,2021-02-05_18h50.08.757,premceCat_ses-02_part-02_label-phase2,2020.2.10,MacIntel,60,left,0.787,4,0.244,0,52,52,40,1,stimuli/objects/expansioncard.jpg,left,old,41,,,,,,,,
,,,,,,,,6,2021-02-05_18h50.08.757,premceCat_ses-02_part-02_label-phase2,2020.2.10,MacIntel,60,right,0.887,3,0.73,0,53,53,68,1,stimuli/objects/flooringstapler.jpg,right,new,69,,,,,,,,
,,,,,,,,6,2021-02-05_18h50.08.757,premceCat_ses-02_part-02_label-phase2,2020.2.10,MacIntel,60,right,1.071,2,0.378,0,54,54,126,1,stimuli/objects/swing.jpg,right,new,127,,,,,,,,
,,,,,,,,6,2021-02-05_18h50.08.757,premceCat_ses-02_part-02_label-phase2,2020.2.10,MacIntel,60,right,1.855,1,1.129,0,55,55,82,1,stimuli/objects/caulking.jpg,right,new,83,,,,,,,,
,,,,,,,,6,2021-02-05_18h50.08.757,premceCat_ses-02_part-02_label-phase2,2020.2.10,MacIntel,60,right,1.252,4,0.462,0,56,56,26,1,stimuli/objects/hockeygoaliepad.jpg,right,new,27,,,,,,,,
,,,,,,,,6,2021-02-05_18h50.08.757,premceCat_ses-02_part-02_label-phase2,2020.2.10,MacIntel,60,right,0.87,4,0.28,0,57,57,93,1,stimuli/objects/payphone.jpg,right,new,94,,,,,,,,
,,,,,,,,6,2021-02-05_18h50.08.757,premceCat_ses-02_part-02_label-phase2,2020.2.10,MacIntel,60,right,2.419,1,0.113,0,58,58,6,1,stimuli/objects/papershredder.jpg,left,old,7,,,,,,,,
,,,,,,,,6,2021-02-05_18h50.08.757,premceCat_ses-02_part-02_label-phase2,2020.2.10,MacIntel,60,right,1.287,1,0.428,0,59,59,138,1,stimuli/objects/minifridge.jpg,right,new,139,,,,,,,,
,,,,,,,,6,2021-02-05_18h50.08.757,premceCat_ses-02_part-02_label-phase2,2020.2.10,MacIntel,60,left,1.837,2,0.513,0,60,60,22,1,stimuli/objects/rollerblade.jpg,right,new,23,,,,,,,,
,,,,,,,,6,2021-02-05_18h50.08.757,premceCat_ses-02_part-02_label-phase2,2020.2.10,MacIntel,60,left,1.086,4,0.311,0,61,61,124,1,stimuli/objects/skateboard.jpg,left,old,125,,,,,,,,
,,,,,,,,6,2021-02-05_18h50.08.757,premceCat_ses-02_part-02_label-phase2,2020.2.10,MacIntel,60,left,1.187,4,0.161,0,62,62,87,1,stimuli/objects/outdoorheater.jpg,left,old,88,,,,,,,,
,,,,,,,,6,2021-02-05_18h50.08.757,premceCat_ses-02_part-02_label-phase2,2020.2.10,MacIntel,60,right,1.386,1,0.696,0,63,63,12,1,stimuli/objects/drinkshaker.jpg,right,new,13,,,,,,,,
,,,,,,,,6,2021-02-05_18h50.08.757,premceCat_ses-02_part-02_label-phase2,2020.2.10,MacIntel,60,left,1.786,2,0.345,0,64,64,5,1,stimuli/objects/ladder.jpg,left,old,6,,,,,,,,
,,,,,,,,6,2021-02-05_18h50.08.757,premceCat_ses-02_part-02_label-phase2,2020.2.10,MacIntel,60,right,1.187,2,0.195,0,65,65,72,1,stimuli/objects/hedgeshears.jpg,right,new,73,,,,,,,,
,,,,,,,,6,2021-02-05_18h50.08.757,premceCat_ses-02_part-02_label-phase2,2020.2.10,MacIntel,60,right,0.854,2,0.195,0,66,66,44,1,stimuli/objects/stepladder.jpg,left,old,45,,,,,,,,
,,,,,,,,6,2021-02-05_18h50.08.757,premceCat_ses-02_part-02_label-phase2,2020.2.10,MacIntel,60,left,1.024,4,0.48,0,67,67,88,1,stimuli/objects/clock01a.jpg,left,old,89,,,,,,,,
,,,,,,,,6,2021-02-05_18h50.08.757,premceCat_ses-02_part-02_label-phase2,2020.2.10,MacIntel,60,right,1.937,2,0.594,0,68,68,60,1,stimuli/objects/plate01b.jpg,right,new,61,,,,,,,,
,,,,,,,,6,2021-02-05_18h50.08.757,premceCat_ses-02_part-02_label-phase2,2020.2.10,MacIntel,60,left,1.039,3,0.529,0,69,69,15,1,stimuli/objects/gardenshears01a.jpg,left,old,16,,,,,,,,
,,,,,,,,6,2021-02-05_18h50.08.757,premceCat_ses-02_part-02_label-phase2,2020.2.10,MacIntel,60,right,1.09,1,1.046,0,70,70,128,1,stimuli/objects/bastingbrush.jpg,right,new,129,,,,,,,,
,,,,,,,,6,2021-02-05_18h50.08.757,premceCat_ses-02_part-02_label-phase2,2020.2.10,MacIntel,60,left,2.404,2,0.411,0,71,71,45,1,stimuli/objects/sledgehammer.jpg,left,old,46,,,,,,,,
,,,,,,,,6,2021-02-05_18h50.08.757,premceCat_ses-02_part-02_label-phase2,2020.2.10,MacIntel,60,left,0.953,4,0.379,0,72,72,8,1,stimuli/objects/icecubetray01a.jpg,left,old,9,,,,,,,,
,,,,,,,,6,2021-02-05_18h50.08.757,premceCat_ses-02_part-02_label-phase2,2020.2.10,MacIntel,60,left,1.018,3,0.396,0,73,73,64,1,stimuli/objects/wineglass01.jpg,left,old,65,,,,,,,,
,,,,,,,,6,2021-02-05_18h50.08.757,premceCat_ses-02_part-02_label-phase2,2020.2.10,MacIntel,60,right,0.805,4,0.945,0,74,74,46,1,stimuli/objects/sportbag.jpg,right,new,47,,,,,,,,
,,,,,,,,6,2021-02-05_18h50.08.757,premceCat_ses-02_part-02_label-phase2,2020.2.10,MacIntel,60,left,1.372,3,0.613,0,75,75,65,1,stimuli/objects/wiicontroller.jpg,left,old,66,,,,,,,,
,,,,,,,,6,2021-02-05_18h50.08.757,premceCat_ses-02_part-02_label-phase2,2020.2.10,MacIntel,60,right,0.915,3,0.629,0,76,76,25,1,stimuli/objects/bikepump01.jpg,right,new,26,,,,,,,,
,,,,,,,,6,2021-02-05_18h50.08.757,premceCat_ses-02_part-02_label-phase2,2020.2.10,MacIntel,60,left,1.119,4,0.378,0,77,77,16,1,stimuli/objects/lightswitch01.jpg,left,old,17,,,,,,,,
,,,,,,,,6,2021-02-05_18h50.08.757,premceCat_ses-02_part-02_label-phase2,2020.2.10,MacIntel,60,left,0.831,4,0.145,0,78,78,102,1,stimuli/objects/measuringcup01.jpg,left,old,103,,,,,,,,
,,,,,,,,6,2021-02-05_18h50.08.757,premceCat_ses-02_part-02_label-phase2,2020.2.10,MacIntel,60,left,1.47,3,0.562,0,79,79,91,1,stimuli/objects/travelmug.jpg,left,old,92,,,,,,,,
,,,,,,,,6,2021-02-05_18h50.08.757,premceCat_ses-02_part-02_label-phase2,2020.2.10,MacIntel,60,left,1.047,3,0.312,0,80,80,28,1,stimuli/objects/handblender.jpg,left,old,29,,,,,,,,
,,,,,,,,6,2021-02-05_18h50.08.757,premceCat_ses-02_part-02_label-phase2,2020.2.10,MacIntel,60,left,1.703,1,0.629,0,81,81,122,1,stimuli/objects/ellipticalmachine.jpg,left,old,123,,,,,,,,
,,,,,,,,6,2021-02-05_18h50.08.757,premceCat_ses-02_part-02_label-phase2,2020.2.10,MacIntel,60,right,1.13,3,0.896,0,82,82,125,1,stimuli/objects/diaperbag.jpg,right,new,126,,,,,,,,
,,,,,,,,6,2021-02-05_18h50.08.757,premceCat_ses-02_part-02_label-phase2,2020.2.10,MacIntel,60,right,1.146,2,0.663,0,83,83,63,1,stimuli/objects/knife03.jpg,right,new,64,,,,,,,,
,,,,,,,,6,2021-02-05_18h50.08.757,premceCat_ses-02_part-02_label-phase2,2020.2.10,MacIntel,60,right,1.038,1,0.563,0,84,84,131,1,stimuli/objects/electricmixer.jpg,right,new,132,,,,,,,,
,,,,,,,,6,2021-02-05_18h50.08.757,premceCat_ses-02_part-02_label-phase2,2020.2.10,MacIntel,60,right,0.987,1,0.278,0,85,85,57,1,stimuli/objects/dvdcase01.jpg,right,new,58,,,,,,,,
,,,,,,,,6,2021-02-05_18h50.08.757,premceCat_ses-02_part-02_label-phase2,2020.2.10,MacIntel,60,left,1.053,4,0.394,0,86,86,130,1,stimuli/objects/musicalwoodenspoons.jpg,left,old,131,,,,,,,,
,,,,,,,,6,2021-02-05_18h50.08.757,premceCat_ses-02_part-02_label-phase2,2020.2.10,MacIntel,60,right,1.303,1,0.628,0,87,87,18,1,stimuli/objects/electricoutlet.jpg,right,new,19,,,,,,,,
,,,,,,,,6,2021-02-05_18h50.08.757,premceCat_ses-02_part-02_label-phase2,2020.2.10,MacIntel,60,right,1.087,1,0.727,0,88,88,134,1,stimuli/objects/television.jpg,right,new,135,,,,,,,,
,,,,,,,,6,2021-02-05_18h50.08.757,premceCat_ses-02_part-02_label-phase2,2020.2.10,MacIntel,60,left,1.07,4,0.145,0,89,89,52,1,stimuli/objects/cooler01.jpg,left,old,53,,,,,,,,
,,,,,,,,6,2021-02-05_18h50.08.757,premceCat_ses-02_part-02_label-phase2,2020.2.10,MacIntel,60,left,1.569,4,0.228,0,90,90,137,1,stimuli/objects/reflector.jpg,left,old,138,,,,,,,,
,,,,,,,,6,2021-02-05_18h50.08.757,premceCat_ses-02_part-02_label-phase2,2020.2.10,MacIntel,60,left,1.387,3,0.596,0,91,91,48,1,stimuli/objects/bowrake.jpg,left,old,49,,,,,,,,
,,,,,,,,6,2021-02-05_18h50.08.757,premceCat_ses-02_part-02_label-phase2,2020.2.10,MacIntel,60,right,0.705,1,0.814,0,92,92,136,1,stimuli/objects/laptop01a.jpg,right,new,137,,,,,,,,
,,,,,,,,6,2021-02-05_18h50.08.757,premceCat_ses-02_part-02_label-phase2,2020.2.10,MacIntel,60,left,0.936,3,0.48,0,93,93,97,1,stimuli/objects/canoepaddle02.jpg,left,old,98,,,,,,,,
,,,,,,,,6,2021-02-05_18h50.08.757,premceCat_ses-02_part-02_label-phase2,2020.2.10,MacIntel,60,right,0.837,1,0.845,0,94,94,71,1,stimuli/objects/webcam.jpg,right,new,72,,,,,,,,
,,,,,,,,6,2021-02-05_18h50.08.757,premceCat_ses-02_part-02_label-phase2,2020.2.10,MacIntel,60,right,1.121,1,0.947,0,95,95,17,1,stimuli/objects/basketballhoop01.jpg,right,new,18,,,,,,,,
,,,,,,,,6,2021-02-05_18h50.08.757,premceCat_ses-02_part-02_label-phase2,2020.2.10,MacIntel,60,left,0.937,4,0.295,0,96,96,142,1,stimuli/objects/soundmixer.jpg,left,old,143,,,,,,,,
,,,,,,,,6,2021-02-05_18h50.08.757,premceCat_ses-02_part-02_label-phase2,2020.2.10,MacIntel,60,right,0.9,2,1.028,0,97,97,37,1,stimuli/objects/drill01b.jpg,left,old,38,,,,,,,,
,,,,,,,,6,2021-02-05_18h50.08.757,premceCat_ses-02_part-02_label-phase2,2020.2.10,MacIntel,60,left,0.889,4,0.312,0,98,98,74,1,stimuli/objects/stroller.jpg,left,old,75,,,,,,,,
,,,,,,,,6,2021-02-05_18h50.08.757,premceCat_ses-02_part-02_label-phase2,2020.2.10,MacIntel,60,right,0.942,4,0.345,0,99,99,42,1,stimuli/objects/anchor.jpg,right,new,43,,,,,,,,
,,,,,,,,6,2021-02-05_18h50.08.757,premceCat_ses-02_part-02_label-phase2,2020.2.10,MacIntel,60,right,1.037,4,0.295,0,100,100,85,1,stimuli/objects/skigoggles01.jpg,right,new,86,,,,,,,,
,,,,,,,,6,2021-02-05_18h50.08.757,premceCat_ses-02_part-02_label-phase2,2020.2.10,MacIntel,60,right,0.954,3,0.647,0,101,101,111,1,stimuli/objects/tray.jpg,right,new,112,,,,,,,,
,,,,,,,,6,2021-02-05_18h50.08.757,premceCat_ses-02_part-02_label-phase2,2020.2.10,MacIntel,60,left,3.472,2,0.378,0,102,102,1,1,stimuli/objects/downhillski.jpg,left,old,2,,,,,,,,
,,,,,,,,6,2021-02-05_18h50.08.757,premceCat_ses-02_part-02_label-phase2,2020.2.10,MacIntel,60,right,1.336,3,0.58,0,103,103,117,1,stimuli/objects/ipad02.jpg,right,new,118,,,,,,,,
,,,,,,,,6,2021-02-05_18h50.08.757,premceCat_ses-02_part-02_label-phase2,2020.2.10,MacIntel,60,right,1.087,2,0.031,0,104,104,99,1,stimuli/objects/hedgetrimmer.jpg,left,old,100,,,,,,,,
,,,,,,,,6,2021-02-05_18h50.08.757,premceCat_ses-02_part-02_label-phase2,2020.2.10,MacIntel,60,right,2.288,1,0.462,0,105,105,92,1,stimuli/objects/pliers02b.jpg,right,new,93,,,,,,,,
,,,,,,,,6,2021-02-05_18h50.08.757,premceCat_ses-02_part-02_label-phase2,2020.2.10,MacIntel,60,right,1.436,1,0.795,0,106,106,51,1,stimuli/objects/walkietalkie.jpg,right,new,52,,,,,,,,
,,,,,,,,6,2021-02-05_18h50.08.757,premceCat_ses-02_part-02_label-phase2,2020.2.10,MacIntel,60,right,0.987,4,0.263,0,107,107,139,1,stimuli/objects/solderingiron.jpg,right,new,140,,,,,,,,
,,,,,,,,6,2021-02-05_18h50.08.757,premceCat_ses-02_part-02_label-phase2,2020.2.10,MacIntel,60,right,2.42,1,0.362,0,108,108,118,1,stimuli/objects/metalscissors.jpg,left,old,119,,,,,,,,
,,,,,,,,6,2021-02-05_18h50.08.757,premceCat_ses-02_part-02_label-phase2,2020.2.10,MacIntel,60,left,9.503,2,1.24,0,109,109,24,1,stimuli/objects/punchingbag.jpg,right,new,25,,,,,,,,
,,,,,,,,6,2021-02-05_18h50.08.757,premceCat_ses-02_part-02_label-phase2,2020.2.10,MacIntel,60,right,1.362,4,1.728,0,110,110,54,1,stimuli/objects/cashregister01.jpg,right,new,55,,,,,,,,
,,,,,,,,6,2021-02-05_18h50.08.757,premceCat_ses-02_part-02_label-phase2,2020.2.10,MacIntel,60,right,3.535,4,1.061,0,111,111,89,1,stimuli/objects/jumpingjack.jpg,right,new,90,,,,,,,,
,,,,,,,,6,2021-02-05_18h50.08.757,premceCat_ses-02_part-02_label-phase2,2020.2.10,MacIntel,60,right,1.186,1,0.378,0,112,112,127,1,stimuli/objects/handrake01a.jpg,left,old,128,,,,,,,,
,,,,,,,,6,2021-02-05_18h50.08.757,premceCat_ses-02_part-02_label-phase2,2020.2.10,MacIntel,60,right,1.003,1,1.779,0,113,113,120,1,stimuli/objects/pda.jpg,left,old,121,,,,,,,,
,,,,,,,,6,2021-02-05_18h50.08.757,premceCat_ses-02_part-02_label-phase2,2020.2.10,MacIntel,60,left,1.116,2,0.993,0,114,114,0,1,stimuli/objects/monitor.jpg,left,old,1,,,,,,,,
,,,,,,,,6,2021-02-05_18h50.08.757,premceCat_ses-02_part-02_label-phase2,2020.2.10,MacIntel,60,left,1.536,4,0.911,0,115,115,105,1,stimuli/objects/jack.jpg,left,old,106,,,,,,,,
,,,,,,,,6,2021-02-05_18h50.08.757,premceCat_ses-02_part-02_label-phase2,2020.2.10,MacIntel,60,right,1.817,2,0.793,0,116,116,109,1,stimuli/objects/computerkeyboard02.jpg,right,new,110,,,,,,,,
,,,,,,,,6,2021-02-05_18h50.08.757,premceCat_ses-02_part-02_label-phase2,2020.2.10,MacIntel,60,left,1.286,2,1.778,0,117,117,56,1,stimuli/objects/telephone01b.jpg,left,old,57,,,,,,,,
,,,,,,,,6,2021-02-05_18h50.08.757,premceCat_ses-02_part-02_label-phase2,2020.2.10,MacIntel,60,left,1.336,2,0.428,0,118,118,10,1,stimuli/objects/videotape01b.jpg,left,old,11,,,,,,,,
,,,,,,,,6,2021-02-05_18h50.08.757,premceCat_ses-02_part-02_label-phase2,2020.2.10,MacIntel,60,right,1.052,2,0.229,0,119,119,107,1,stimuli/objects/lockingplier.jpg,left,old,108,,,,,,,,
,,,,,,,,6,2021-02-05_18h50.08.757,premceCat_ses-02_part-02_label-phase2,2020.2.10,MacIntel,60,left,1.207,2,0.63,0,120,120,101,1,stimuli/objects/exercisemachine.jpg,left,old,102,,,,,,,,
,,,,,,,,6,2021-02-05_18h50.08.757,premceCat_ses-02_part-02_label-phase2,2020.2.10,MacIntel,60,right,1.236,1,0.945,0,121,121,110,1,stimuli/objects/hammer01.jpg,right,new,111,,,,,,,,
,,,,,,,,6,2021-02-05_18h50.08.757,premceCat_ses-02_part-02_label-phase2,2020.2.10,MacIntel,60,right,1.686,4,0.546,0,122,122,81,1,stimuli/objects/tripod01.jpg,right,new,82,,,,,,,,
,,,,,,,,6,2021-02-05_18h50.08.757,premceCat_ses-02_part-02_label-phase2,2020.2.10,MacIntel,60,left,1.104,4,0.88,0,123,123,67,1,stimuli/objects/servingspoon01.jpg,left,old,68,,,,,,,,
,,,,,,,,6,2021-02-05_18h50.08.757,premceCat_ses-02_part-02_label-phase2,2020.2.10,MacIntel,60,right,1.272,2,0.362,0,124,124,119,1,stimuli/objects/crocodileclips.jpg,right,new,120,,,,,,,,
,,,,,,,,6,2021-02-05_18h50.08.757,premceCat_ses-02_part-02_label-phase2,2020.2.10,MacIntel,60,right,1.088,2,1.53,0,125,125,55,1,stimuli/objects/snowblower.jpg,right,new,56,,,,,,,,
,,,,,,,,6,2021-02-05_18h50.08.757,premceCat_ses-02_part-02_label-phase2,2020.2.10,MacIntel,60,left,1.452,2,0.543,0,126,126,123,1,stimuli/objects/jumpercables.jpg,left,old,124,,,,,,,,
,,,,,,,,6,2021-02-05_18h50.08.757,premceCat_ses-02_part-02_label-phase2,2020.2.10,MacIntel,60,left,1.219,2,1.028,0,127,127,77,1,stimuli/objects/boxingglove01.jpg,left,old,78,,,,,,,,
,,,,,,,,6,2021-02-05_18h50.08.757,premceCat_ses-02_part-02_label-phase2,2020.2.10,MacIntel,60,right,1.271,4,0.396,0,128,128,96,1,stimuli/objects/chandelier.jpg,right,new,97,,,,,,,,
,,,,,,,,6,2021-02-05_18h50.08.757,premceCat_ses-02_part-02_label-phase2,2020.2.10,MacIntel,60,right,1.104,4,0.278,0,129,129,38,1,stimuli/objects/fuse.jpg,right,new,39,,,,,,,,
,,,,,,,,6,2021-02-05_18h50.08.757,premceCat_ses-02_part-02_label-phase2,2020.2.10,MacIntel,60,right,1.087,2,0.628,0,130,130,113,1,stimuli/objects/taperecorder.jpg,right,new,114,,,,,,,,
,,,,,,,,6,2021-02-05_18h50.08.757,premceCat_ses-02_part-02_label-phase2,2020.2.10,MacIntel,60,left,1.088,3,0.442,0,131,131,84,1,stimuli/objects/mallet01b.jpg,left,old,85,,,,,,,,
,,,,,,,,6,2021-02-05_18h50.08.757,premceCat_ses-02_part-02_label-phase2,2020.2.10,MacIntel,60,right,0.821,3,0.394,0,132,132,30,1,stimuli/objects/satellitedish01.jpg,right,new,31,,,,,,,,
,,,,,,,,6,2021-02-05_18h50.08.757,premceCat_ses-02_part-02_label-phase2,2020.2.10,MacIntel,60,right,1.286,2,0.679,0,133,133,29,1,stimuli/objects/studiolight.jpg,left,old,30,,,,,,,,
,,,,,,,,6,2021-02-05_18h50.08.757,premceCat_ses-02_part-02_label-phase2,2020.2.10,MacIntel,60,right,0.805,4,0.313,0,134,134,20,1,stimuli/objects/walkman.jpg,right,new,21,,,,,,,,
,,,,,,,,6,2021-02-05_18h50.08.757,premceCat_ses-02_part-02_label-phase2,2020.2.10,MacIntel,60,left,1.187,4,0.546,0,135,135,36,1,stimuli/objects/shinpad.jpg,left,old,37,,,,,,,,
,,,,,,,,6,2021-02-05_18h50.08.757,premceCat_ses-02_part-02_label-phase2,2020.2.10,MacIntel,60,right,1.037,1,0.245,0,136,136,43,1,stimuli/objects/lifejacket.jpg,right,new,44,,,,,,,,
,,,,,,,,6,2021-02-05_18h50.08.757,premceCat_ses-02_part-02_label-phase2,2020.2.10,MacIntel,60,left,1.385,3,0.845,0,137,137,98,1,stimuli/objects/paninigrill.jpg,left,old,99,,,,,,,,
,,,,,,,,6,2021-02-05_18h50.08.757,premceCat_ses-02_part-02_label-phase2,2020.2.10,MacIntel,60,left,1.899,3,0.395,0,138,138,62,1,stimuli/objects/filmroll.jpg,left,old,63,,,,,,,,
,,,,,,,,6,2021-02-05_18h50.08.757,premceCat_ses-02_part-02_label-phase2,2020.2.10,MacIntel,60,right,0.869,4,0.262,0,139,139,13,1,stimuli/objects/cookingpot.jpg,right,new,14,,,,,,,,
,,,,,,,,6,2021-02-05_18h50.08.757,premceCat_ses-02_part-02_label-phase2,2020.2.10,MacIntel,60,left,1.956,2,0.294,0,140,140,116,1,stimuli/objects/spoon01.jpg,right,new,117,,,,,,,,
,,,,,,,,6,2021-02-05_18h50.08.757,premceCat_ses-02_part-02_label-phase2,2020.2.10,MacIntel,60,left,1.005,4,0.313,0,141,141,135,1,stimuli/objects/filmnegative.jpg,left,old,136,,,,,,,,
,,,,,,,,6,2021-02-05_18h50.08.757,premceCat_ses-02_part-02_label-phase2,2020.2.10,MacIntel,60,right,1.621,2,0.529,0,142,142,32,1,stimuli/objects/mitresaw.jpg,right,new,33,,,,,,,,
,,,,,,,,6,2021-02-05_18h50.08.757,premceCat_ses-02_part-02_label-phase2,2020.2.10,MacIntel,60,,,,,,,,,,,,,,space,99.826,0,0,0,0,1,condition_files/ImagesforRecog3_1.csv
,,,,,,,,6,2021-02-05_18h50.08.757,premceCat_ses-02_part-02_label-phase2,2020.2.10,MacIntel,60,left,3.367,2,1.502,0,0,0,9,1,stimuli/objects/trampoline.jpg,left,old,153,,,,,,,,
,,,,,,,,6,2021-02-05_18h50.08.757,premceCat_ses-02_part-02_label-phase2,2020.2.10,MacIntel,60,left,1.553,2,1.096,0,1,1,120,1,stimuli/objects/wire.jpg,right,new,264,,,,,,,,
,,,,,,,,6,2021-02-05_18h50.08.757,premceCat_ses-02_part-02_label-phase2,2020.2.10,MacIntel,60,left,1.954,3,1.462,0,2,2,64,1,stimuli/objects/flask.jpg,left,old,208,,,,,,,,
,,,,,,,,6,2021-02-05_18h50.08.757,premceCat_ses-02_part-02_label-phase2,2020.2.10,MacIntel,60,left,2.054,3,1.528,0,3,3,62,1,stimuli/objects/paintscraper.jpg,left,old,206,,,,,,,,
,,,,,,,,6,2021-02-05_18h50.08.757,premceCat_ses-02_part-02_label-phase2,2020.2.10,MacIntel,60,left,2.005,4,2.078,0,4,4,53,1,stimuli/objects/measuringtape01.jpg,left,old,197,,,,,,,,
,,,,,,,,6,2021-02-05_18h50.08.757,premceCat_ses-02_part-02_label-phase2,2020.2.10,MacIntel,60,left,2.385,4,1.961,0,5,5,115,1,stimuli/objects/fork03c.jpg,left,old,259,,,,,,,,
,,,,,,,,6,2021-02-05_18h50.08.757,premceCat_ses-02_part-02_label-phase2,2020.2.10,MacIntel,60,left,1.387,4,0.345,0,6,6,47,1,stimuli/objects/cleaver01.jpg,left,old,191,,,,,,,,
,,,,,,,,6,2021-02-05_18h50.08.757,premceCat_ses-02_part-02_label-phase2,2020.2.10,MacIntel,60,right,1.12,4,0.414,0,7,7,107,1,stimuli/objects/telescope.jpg,right,new,251,,,,,,,,
,,,,,,,,6,2021-02-05_18h50.08.757,premceCat_ses-02_part-02_label-phase2,2020.2.10,MacIntel,60,right,1.237,2,1.163,0,8,8,46,1,stimuli/objects/grater01a.jpg,right,new,190,,,,,,,,
,,,,,,,,6,2021-02-05_18h50.08.757,premceCat_ses-02_part-02_label-phase2,2020.2.10,MacIntel,60,left,0.735,4,0.278,0,9,9,133,1,stimuli/objects/treadmill.jpg,left,old,277,,,,,,,,
,,,,,,,,6,2021-02-05_18h50.08.757,premceCat_ses-02_part-02_label-phase2,2020.2.10,MacIntel,60,right,0.921,2,0.562,0,10,10,136,1,stimuli/objects/spotlight.jpg,left,old,280,,,,,,,,
,,,,,,,,6,2021-02-05_18h50.08.757,premceCat_ses-02_part-02_label-phase2,2020.2.10,MacIntel,60,right,0.953,2,0.362,0,11,11,142,1,stimuli/objects/file.jpg,right,new,286,,,,,,,,
,,,,,,,,6,2021-02-05_18h50.08.757,premceCat_ses-02_part-02_label-phase2,2020.2.10,MacIntel,60,left,1.053,4,0.296,0,12,12,61,1,stimuli/objects/gps.jpg,left,old,205,,,,,,,,
,,,,,,,,6,2021-02-05_18h50.08.757,premceCat_ses-02_part-02_label-phase2,2020.2.10,MacIntel,60,left,0.887,4,0.378,0,13,13,29,1,stimuli/objects/gymnasticring.jpg,left,old,173,,,,,,,,
,,,,,,,,6,2021-02-05_18h50.08.757,premceCat_ses-02_part-02_label-phase2,2020.2.10,MacIntel,60,left,0.786,4,0.262,0,14,14,97,1,stimuli/objects/headphones02b.jpg,left,old,241,,,,,,,,
,,,,,,,,6,2021-02-05_18h50.08.757,premceCat_ses-02_part-02_label-phase2,2020.2.10,MacIntel,60,right,1.204,1,0.545,0,15,15,38,1,stimuli/objects/powercable.jpg,left,old,182,,,,,,,,
,,,,,,,,6,2021-02-05_18h50.08.757,premceCat_ses-02_part-02_label-phase2,2020.2.10,MacIntel,60,right,1.413,4,0.541,0,16,16,141,1,stimuli/objects/boatmotor.jpg,right,new,285,,,,,,,,
,,,,,,,,6,2021-02-05_18h50.08.757,premceCat_ses-02_part-02_label-phase2,2020.2.10,MacIntel,60,left,0.939,3,0.71,0,17,17,104,1,stimuli/objects/woodenspoon.jpg,left,old,248,,,,,,,,
,,,,,,,,6,2021-02-05_18h50.08.757,premceCat_ses-02_part-02_label-phase2,2020.2.10,MacIntel,60,left,0.904,4,0.13,0,18,18,84,1,stimuli/objects/drillbit03a.jpg,left,old,228,,,,,,,,
,,,,,,,,6,2021-02-05_18h50.08.757,premceCat_ses-02_part-02_label-phase2,2020.2.10,MacIntel,60,left,1.12,3,0.261,0,19,19,92,1,stimuli/objects/waterbottle03.jpg,left,old,236,,,,,,,,
,,,,,,,,6,2021-02-05_18h50.08.757,premceCat_ses-02_part-02_label-phase2,2020.2.10,MacIntel,60,right,0.636,3,0.342,0,20,20,112,1,stimuli/objects/tennisball01b.jpg,right,new,256,,,,,,,,
,,,,,,,,6,2021-02-05_18h50.08.757,premceCat_ses-02_part-02_label-phase2,2020.2.10,MacIntel,60,right,0.854,3,0.429,0,21,21,65,1,stimuli/objects/jar02.jpg,right,new,209,,,,,,,,
,,,,,,,,6,2021-02-05_18h50.08.757,premceCat_ses-02_part-02_label-phase2,2020.2.10,MacIntel,60,right,0.923,3,0.229,0,22,22,59,1,stimuli/objects/shovel01.jpg,right,new,203,,,,,,,,
,,,,,,,,6,2021-02-05_18h50.08.757,premceCat_ses-02_part-02_label-phase2,2020.2.10,MacIntel,60,right,0.721,3,0.296,0,23,23,124,1,stimuli/objects/whisk.jpg,right,new,268,,,,,,,,
,,,,,,,,6,2021-02-05_18h50.08.757,premceCat_ses-02_part-02_label-phase2,2020.2.10,MacIntel,60,right,4.538,2,0.341,0,24,24,57,1,stimuli/objects/outletadapter.jpg,left,old,201,,,,,,,,
,,,,,,,,6,2021-02-05_18h50.08.757,premceCat_ses-02_part-02_label-phase2,2020.2.10,MacIntel,60,left,1.503,2,0.395,0,25,25,137,1,stimuli/objects/extensioncord.jpg,left,old,281,,,,,,,,
,,,,,,,,6,2021-02-05_18h50.08.757,premceCat_ses-02_part-02_label-phase2,2020.2.10,MacIntel,60,left,0.819,1,0.829,0,26,26,113,1,stimuli/objects/level03a.jpg,left,old,257,,,,,,,,
,,,,,,,,6,2021-02-05_18h50.08.757,premceCat_ses-02_part-02_label-phase2,2020.2.10,MacIntel,60,right,1.221,1,0.246,0,27,27,1,1,stimuli/objects/toasteroven.jpg,left,old,145,,,,,,,,
,,,,,,,,6,2021-02-05_18h50.08.757,premceCat_ses-02_part-02_label-phase2,2020.2.10,MacIntel,60,left,1.072,1,0.544,0,28,28,69,1,stimuli/objects/wheelbarrow01.jpg,right,new,213,,,,,,,,
,,,,,,,,6,2021-02-05_18h50.08.757,premceCat_ses-02_part-02_label-phase2,2020.2.10,MacIntel,60,right,1.372,2,0.227,0,29,29,60,1,stimuli/objects/propanetank01.jpg,left,old,204,,,,,,,,
,,,,,,,,6,2021-02-05_18h50.08.757,premceCat_ses-02_part-02_label-phase2,2020.2.10,MacIntel,60,left,1.091,2,0.211,0,30,30,48,1,stimuli/objects/adjustablewrench01b.jpg,right,new,192,,,,,,,,
,,,,,,,,6,2021-02-05_18h50.08.757,premceCat_ses-02_part-02_label-phase2,2020.2.10,MacIntel,60,left,1.136,3,1.145,0,31,31,67,1,stimuli/objects/pitcher02b.jpg,left,old,211,,,,,,,,
,,,,,,,,6,2021-02-05_18h50.08.757,premceCat_ses-02_part-02_label-phase2,2020.2.10,MacIntel,60,left,1.354,3,0.345,0,32,32,100,1,stimuli/objects/bottlecap.jpg,left,old,244,,,,,,,,
,,,,,,,,6,2021-02-05_18h50.08.757,premceCat_ses-02_part-02_label-phase2,2020.2.10,MacIntel,60,left,1.521,2,0.393,0,33,33,32,1,stimuli/objects/birdie.jpg,left,old,176,,,,,,,,
,,,,,,,,6,2021-02-05_18h50.08.757,premceCat_ses-02_part-02_label-phase2,2020.2.10,MacIntel,60,left,0.936,1,0.244,0,34,34,98,1,stimuli/objects/phonejack.jpg,right,new,242,,,,,,,,
,,,,,,,,6,2021-02-05_18h50.08.757,premceCat_ses-02_part-02_label-phase2,2020.2.10,MacIntel,60,left,1.288,2,0.296,0,35,35,131,1,stimuli/objects/hockeygoalieglove.jpg,right,new,275,,,,,,,,
,,,,,,,,6,2021-02-05_18h50.08.757,premceCat_ses-02_part-02_label-phase2,2020.2.10,MacIntel,60,left,1.204,4,0.713,0,36,36,70,1,stimuli/objects/icepack.jpg,left,old,214,,,,,,,,
,,,,,,,,6,2021-02-05_18h50.08.757,premceCat_ses-02_part-02_label-phase2,2020.2.10,MacIntel,60,left,0.838,4,0.345,0,37,37,52,1,stimuli/objects/usbkey.jpg,left,old,196,,,,,,,,
,,,,,,,,6,2021-02-05_18h50.08.757,premceCat_ses-02_part-02_label-phase2,2020.2.10,MacIntel,60,right,0.921,2,0.361,0,38,38,0,1,stimuli/objects/saw02b.jpg,right,new,144,,,,,,,,
,,,,,,,,6,2021-02-05_18h50.08.757,premceCat_ses-02_part-02_label-phase2,2020.2.10,MacIntel,60,left,1.171,3,0.512,0,39,39,56,1,stimuli/objects/skihelmet01.jpg,left,old,200,,,,,,,,
,,,,,,,,6,2021-02-05_18h50.08.757,premceCat_ses-02_part-02_label-phase2,2020.2.10,MacIntel,60,right,0.988,3,0.659,0,40,40,2,1,stimuli/objects/carlighter02.jpg,right,new,146,,,,,,,,
,,,,,,,,6,2021-02-05_18h50.08.757,premceCat_ses-02_part-02_label-phase2,2020.2.10,MacIntel,60,right,1.437,2,0.495,0,41,41,31,1,stimuli/objects/weedwacker.jpg,left,old,175,,,,,,,,
,,,,,,,,6,2021-02-05_18h50.08.757,premceCat_ses-02_part-02_label-phase2,2020.2.10,MacIntel,60,right,2.155,2,0.295,0,42,42,18,1,stimuli/objects/baseballbat.jpg,left,old,162,,,,,,,,
,,,,,,,,6,2021-02-05_18h50.08.757,premceCat_ses-02_part-02_label-phase2,2020.2.10,MacIntel,60,left,1.82,1,0.311,0,43,43,15,1,stimuli/objects/jug.jpg,right,new,159,,,,,,,,
,,,,,,,,6,2021-02-05_18h50.08.757,premceCat_ses-02_part-02_label-phase2,2020.2.10,MacIntel,60,left,1.187,4,0.328,0,44,44,102,1,stimuli/objects/soccerball.jpg,left,old,246,,,,,,,,
,,,,,,,,6,2021-02-05_18h50.08.757,premceCat_ses-02_part-02_label-phase2,2020.2.10,MacIntel,60,left,0.854,4,0.361,0,45,45,42,1,stimuli/objects/tent.jpg,left,old,186,,,,,,,,
,,,,,,,,6,2021-02-05_18h50.08.757,premceCat_ses-02_part-02_label-phase2,2020.2.10,MacIntel,60,right,1.222,1,0.297,0,46,46,6,1,stimuli/objects/binoculars01b.jpg,right,new,150,,,,,,,,
,,,,,,,,6,2021-02-05_18h50.08.757,premceCat_ses-02_part-02_label-phase2,2020.2.10,MacIntel,60,right,1.189,1,0.295,0,47,47,39,1,stimuli/objects/beachumbrella01.jpg,right,new,183,,,,,,,,
,,,,,,,,6,2021-02-05_18h50.08.757,premceCat_ses-02_part-02_label-phase2,2020.2.10,MacIntel,60,left,0.953,2,0.031,0,48,48,27,1,stimuli/objects/leafblower01.jpg,left,old,171,,,,,,,,
,,,,,,,,6,2021-02-05_18h50.08.757,premceCat_ses-02_part-02_label-phase2,2020.2.10,MacIntel,60,left,1.22,3,0.528,0,49,49,81,1,stimuli/objects/dolly01.jpg,left,old,225,,,,,,,,
,,,,,,,,6,2021-02-05_18h50.08.757,premceCat_ses-02_part-02_label-phase2,2020.2.10,MacIntel,60,left,1.091,4,0.261,0,50,50,127,1,stimuli/objects/airconditioner.jpg,right,new,271,,,,,,,,
,,,,,,,,6,2021-02-05_18h50.08.757,premceCat_ses-02_part-02_label-phase2,2020.2.10,MacIntel,60,left,1.255,2,0.445,0,51,51,34,1,stimuli/objects/floodlight.jpg,right,new,178,,,,,,,,
,,,,,,,,6,2021-02-05_18h50.08.757,premceCat_ses-02_part-02_label-phase2,2020.2.10,MacIntel,60,right,1.387,2,0.229,0,52,52,68,1,stimuli/objects/jackhammer.jpg,right,new,212,,,,,,,,
,,,,,,,,6,2021-02-05_18h50.08.757,premceCat_ses-02_part-02_label-phase2,2020.2.10,MacIntel,60,right,0.804,1,0.213,0,53,53,49,1,stimuli/objects/jigsaw.jpg,right,new,193,,,,,,,,
,,,,,,,,6,2021-02-05_18h50.08.757,premceCat_ses-02_part-02_label-phase2,2020.2.10,MacIntel,60,right,1.297,4,0.312,0,54,54,23,1,stimuli/objects/bucket02.jpg,right,new,167,,,,,,,,
,,,,,,,,6,2021-02-05_18h50.08.757,premceCat_ses-02_part-02_label-phase2,2020.2.10,MacIntel,60,right,0.898,2,0.529,0,55,55,51,1,stimuli/objects/fonduefork01.jpg,right,new,195,,,,,,,,
,,,,,,,,6,2021-02-05_18h50.08.757,premceCat_ses-02_part-02_label-phase2,2020.2.10,MacIntel,60,left,1.494,3,0.494,0,56,56,22,1,stimuli/objects/nintendods.jpg,left,old,166,,,,,,,,
,,,,,,,,6,2021-02-05_18h50.08.757,premceCat_ses-02_part-02_label-phase2,2020.2.10,MacIntel,60,right,0.837,2,0.296,0,57,57,109,1,stimuli/objects/knifesharpener.jpg,right,new,253,,,,,,,,
,,,,,,,,6,2021-02-05_18h50.08.757,premceCat_ses-02_part-02_label-phase2,2020.2.10,MacIntel,60,right,0.785,4,0.328,0,58,58,77,1,stimuli/objects/iceskate.jpg,right,new,221,,,,,,,,
,,,,,,,,6,2021-02-05_18h50.08.757,premceCat_ses-02_part-02_label-phase2,2020.2.10,MacIntel,60,right,1.421,2,0.311,0,59,59,125,1,stimuli/objects/huntingknife.jpg,left,old,269,,,,,,,,
,,,,,,,,6,2021-02-05_18h50.08.757,premceCat_ses-02_part-02_label-phase2,2020.2.10,MacIntel,60,left,1.355,2,0.177,0,60,60,86,1,stimuli/objects/tennisracket.jpg,right,new,230,,,,,,,,
,,,,,,,,6,2021-02-05_18h50.08.757,premceCat_ses-02_part-02_label-phase2,2020.2.10,MacIntel,60,right,1.371,4,0.428,0,61,61,43,1,stimuli/objects/exercisebike.jpg,right,new,187,,,,,,,,
,,,,,,,,6,2021-02-05_18h50.08.757,premceCat_ses-02_part-02_label-phase2,2020.2.10,MacIntel,60,left,1.755,4,0.512,0,62,62,106,1,stimuli/objects/cameracase01a.jpg,left,old,250,,,,,,,,
,,,,,,,,6,2021-02-05_18h50.08.757,premceCat_ses-02_part-02_label-phase2,2020.2.10,MacIntel,60,right,3.049,3,1.891,0,63,63,10,1,stimuli/objects/toyhockeystick01.jpg,right,new,154,,,,,,,,
,,,,,,,,6,2021-02-05_18h50.08.757,premceCat_ses-02_part-02_label-phase2,2020.2.10,MacIntel,60,left,0.969,4,0.576,0,64,64,13,1,stimuli/objects/ceilingspeaker.jpg,left,old,157,,,,,,,,
,,,,,,,,6,2021-02-05_18h50.08.757,premceCat_ses-02_part-02_label-phase2,2020.2.10,MacIntel,60,right,0.818,2,1.712,0,65,65,7,1,stimuli/objects/catchermask.jpg,left,old,151,,,,,,,,
,,,,,,,,6,2021-02-05_18h50.08.757,premceCat_ses-02_part-02_label-phase2,2020.2.10,MacIntel,60,right,1.456,1,0.28,0,66,66,75,1,stimuli/objects/tongs01b.jpg,left,old,219,,,,,,,,
,,,,,,,,6,2021-02-05_18h50.08.757,premceCat_ses-02_part-02_label-phase2,2020.2.10,MacIntel,60,right,1.936,1,1.762,0,67,67,45,1,stimuli/objects/aircompressor.jpg,left,old,189,,,,,,,,
,,,,,,,,6,2021-02-05_18h50.08.757,premceCat_ses-02_part-02_label-phase2,2020.2.10,MacIntel,60,right,0.968,4,0.192,0,68,68,35,1,stimuli/objects/remotecontrol04.jpg,right,new,179,,,,,,,,
,,,,,,,,6,2021-02-05_18h50.08.757,premceCat_ses-02_part-02_label-phase2,2020.2.10,MacIntel,60,right,1.25,4,1.362,0,69,69,12,1,stimuli/objects/bottleopener01.jpg,right,new,156,,,,,,,,
,,,,,,,,6,2021-02-05_18h50.08.757,premceCat_ses-02_part-02_label-phase2,2020.2.10,MacIntel,60,left,0.913,2,0.279,0,70,70,17,1,stimuli/objects/tupperware03a.jpg,left,old,161,,,,,,,,
,,,,,,,,6,2021-02-05_18h50.08.757,premceCat_ses-02_part-02_label-phase2,2020.2.10,MacIntel,60,left,1.421,2,0.264,0,71,71,123,1,stimuli/objects/ladle02a.jpg,right,new,267,,,,,,,,
,,,,,,,,6,2021-02-05_18h50.08.757,premceCat_ses-02_part-02_label-phase2,2020.2.10,MacIntel,60,left,1.07,2,0.378,0,72,72,87,1,stimuli/objects/boltcutter.jpg,right,new,231,,,,,,,,
,,,,,,,,6,2021-02-05_18h50.08.757,premceCat_ses-02_part-02_label-phase2,2020.2.10,MacIntel,60,left,1.416,3,0.262,0,73,73,117,1,stimuli/objects/carbattery.jpg,left,old,261,,,,,,,,
,,,,,,,,6,2021-02-05_18h50.08.757,premceCat_ses-02_part-02_label-phase2,2020.2.10,MacIntel,60,left,0.988,3,1.047,0,74,74,116,1,stimuli/objects/pitchfork.jpg,left,old,260,,,,,,,,
,,,,,,,,6,2021-02-05_18h50.08.757,premceCat_ses-02_part-02_label-phase2,2020.2.10,MacIntel,60,left,0.87,4,0.195,0,75,75,103,1,stimuli/objects/snowman.jpg,left,old,247,,,,,,,,
,,,,,,,,6,2021-02-05_18h50.08.757,premceCat_ses-02_part-02_label-phase2,2020.2.10,MacIntel,60,left,0.87,4,0.278,0,76,76,24,1,stimuli/objects/toaster01.jpg,left,old,168,,,,,,,,
,,,,,,,,6,2021-02-05_18h50.08.757,premceCat_ses-02_part-02_label-phase2,2020.2.10,MacIntel,60,left,0.787,4,0.163,0,77,77,33,1,stimuli/objects/podium.jpg,left,old,177,,,,,,,,
,,,,,,,,6,2021-02-05_18h50.08.757,premceCat_ses-02_part-02_label-phase2,2020.2.10,MacIntel,60,right,0.854,2,0.344,0,78,78,88,1,stimuli/objects/cuttingboard.jpg,right,new,232,,,,,,,,
,,,,,,,,6,2021-02-05_18h50.08.757,premceCat_ses-02_part-02_label-phase2,2020.2.10,MacIntel,60,left,0.887,2,0.345,0,79,79,71,1,stimuli/objects/tape02a.jpg,left,old,215,,,,,,,,
,,,,,,,,6,2021-02-05_18h50.08.757,premceCat_ses-02_part-02_label-phase2,2020.2.10,MacIntel,60,left,1.42,2,0.061,0,80,80,73,1,stimuli/objects/staplegun.jpg,left,old,217,,,,,,,,
,,,,,,,,6,2021-02-05_18h50.08.757,premceCat_ses-02_part-02_label-phase2,2020.2.10,MacIntel,60,left,0.903,4,0.545,0,81,81,25,1,stimuli/objects/sewingmachine01a.jpg,left,old,169,,,,,,,,
,,,,,,,,6,2021-02-05_18h50.08.757,premceCat_ses-02_part-02_label-phase2,2020.2.10,MacIntel,60,left,1.371,2,0.379,0,82,82,30,1,stimuli/objects/pastaspoon.jpg,right,new,174,,,,,,,,
,,,,,,,,6,2021-02-05_18h50.08.757,premceCat_ses-02_part-02_label-phase2,2020.2.10,MacIntel,60,right,1.238,3,1.445,0,83,83,55,1,stimuli/objects/hockeypuck.jpg,right,new,199,,,,,,,,
,,,,,,,,6,2021-02-05_18h50.08.757,premceCat_ses-02_part-02_label-phase2,2020.2.10,MacIntel,60,left,1.187,2,0.495,0,84,84,99,1,stimuli/objects/flashlight02b.jpg,right,new,243,,,,,,,,
,,,,,,,,6,2021-02-05_18h50.08.757,premceCat_ses-02_part-02_label-phase2,2020.2.10,MacIntel,60,right,1.954,1,0.28,0,85,85,5,1,stimuli/objects/handgripper.jpg,right,new,149,,,,,,,,
,,,,,,,,6,2021-02-05_18h50.08.757,premceCat_ses-02_part-02_label-phase2,2020.2.10,MacIntel,60,right,1.32,2,0.395,0,86,86,89,1,stimuli/objects/radio01.jpg,left,old,233,,,,,,,,
,,,,,,,,6,2021-02-05_18h50.08.757,premceCat_ses-02_part-02_label-phase2,2020.2.10,MacIntel,60,right,1.221,4,0.313,0,87,87,108,1,stimuli/objects/fishinghook03.jpg,right,new,252,,,,,,,,
,,,,,,,,6,2021-02-05_18h50.08.757,premceCat_ses-02_part-02_label-phase2,2020.2.10,MacIntel,60,left,0.955,2,0.579,0,88,88,126,1,stimuli/objects/paintbrush01.jpg,left,old,270,,,,,,,,
,,,,,,,,6,2021-02-05_18h50.08.757,premceCat_ses-02_part-02_label-phase2,2020.2.10,MacIntel,60,right,0.766,3,1.779,0,89,89,44,1,stimuli/objects/dishrack.jpg,right,new,188,,,,,,,,
,,,,,,,,6,2021-02-05_18h50.08.757,premceCat_ses-02_part-02_label-phase2,2020.2.10,MacIntel,60,right,1.12,4,0.245,0,90,90,78,1,stimuli/objects/swissarmyknife01a.jpg,right,new,222,,,,,,,,
,,,,,,,,6,2021-02-05_18h50.08.757,premceCat_ses-02_part-02_label-phase2,2020.2.10,MacIntel,60,left,1.303,1,0.395,0,91,91,19,1,stimuli/objects/bikehelmet.jpg,right,new,163,,,,,,,,
,,,,,,,,6,2021-02-05_18h50.08.757,premceCat_ses-02_part-02_label-phase2,2020.2.10,MacIntel,60,right,0.97,4,0.431,0,92,92,82,1,stimuli/objects/carantenna.jpg,right,new,226,,,,,,,,
,,,,,,,,6,2021-02-05_18h50.08.757,premceCat_ses-02_part-02_label-phase2,2020.2.10,MacIntel,60,right,0.888,3,0.213,0,93,93,36,1,stimuli/objects/gasburner.jpg,right,new,180,,,,,,,,
,,,,,,,,6,2021-02-05_18h50.08.757,premceCat_ses-02_part-02_label-phase2,2020.2.10,MacIntel,60,left,1.281,4,0.396,0,94,94,41,1,stimuli/objects/cowbell.jpg,left,old,185,,,,,,,,
,,,,,,,,6,2021-02-05_18h50.08.757,premceCat_ses-02_part-02_label-phase2,2020.2.10,MacIntel,60,left,1.296,3,0.628,0,95,95,50,1,stimuli/objects/coffeemaker.jpg,right,new,194,,,,,,,,
,,,,,,,,6,2021-02-05_18h50.08.757,premceCat_ses-02_part-02_label-phase2,2020.2.10,MacIntel,60,left,2.687,4,0.711,0,96,96,8,1,stimuli/objects/espressomachine.jpg,left,old,152,,,,,,,,
,,,,,,,,6,2021-02-05_18h50.08.757,premceCat_ses-02_part-02_label-phase2,2020.2.10,MacIntel,60,left,1.503,3,0.962,0,97,97,14,1,stimuli/objects/hosenozzle.jpg,left,old,158,,,,,,,,
,,,,,,,,6,2021-02-05_18h50.08.757,premceCat_ses-02_part-02_label-phase2,2020.2.10,MacIntel,60,left,0.737,2,0.396,0,98,98,105,1,stimuli/objects/ethernetcable02.jpg,left,old,249,,,,,,,,
,,,,,,,,6,2021-02-05_18h50.08.757,premceCat_ses-02_part-02_label-phase2,2020.2.10,MacIntel,60,right,1.738,2,0.245,0,99,99,58,1,stimuli/objects/shotglass.jpg,left,old,202,,,,,,,,
,,,,,,,,6,2021-02-05_18h50.08.757,premceCat_ses-02_part-02_label-phase2,2020.2.10,MacIntel,60,right,0.954,4,0.479,0,100,100,121,1,stimuli/objects/chainsaw.jpg,right,new,265,,,,,,,,
,,,,,,,,6,2021-02-05_18h50.08.757,premceCat_ses-02_part-02_label-phase2,2020.2.10,MacIntel,60,right,1.304,4,0.195,0,101,101,76,1,stimuli/objects/footballhelmet.jpg,right,new,220,,,,,,,,
,,,,,,,,6,2021-02-05_18h50.08.757,premceCat_ses-02_part-02_label-phase2,2020.2.10,MacIntel,60,left,1.353,1,0.546,0,102,102,63,1,stimuli/objects/scanner.jpg,left,old,207,,,,,,,,
,,,,,,,,6,2021-02-05_18h50.08.757,premceCat_ses-02_part-02_label-phase2,2020.2.10,MacIntel,60,right,0.817,4,0.329,0,103,103,79,1,stimuli/objects/snowshoe.jpg,right,new,223,,,,,,,,
,,,,,,,,6,2021-02-05_18h50.08.757,premceCat_ses-02_part-02_label-phase2,2020.2.10,MacIntel,60,left,1.153,1,0.562,0,104,104,21,1,stimuli/objects/rope03.jpg,left,old,165,,,,,,,,
,,,,,,,,6,2021-02-05_18h50.08.757,premceCat_ses-02_part-02_label-phase2,2020.2.10,MacIntel,60,right,1.319,1,0.195,0,105,105,37,1,stimuli/objects/pipewrench.jpg,right,new,181,,,,,,,,
,,,,,,,,6,2021-02-05_18h50.08.757,premceCat_ses-02_part-02_label-phase2,2020.2.10,MacIntel,60,left,2.005,2,0.111,0,106,106,94,1,stimuli/objects/microphone01.jpg,right,new,238,,,,,,,,
,,,,,,,,6,2021-02-05_18h50.08.757,premceCat_ses-02_part-02_label-phase2,2020.2.10,MacIntel,60,left,1.069,2,0.261,0,107,107,83,1,stimuli/objects/vhstape.jpg,right,new,227,,,,,,,,
,,,,,,,,6,2021-02-05_18h50.08.757,premceCat_ses-02_part-02_label-phase2,2020.2.10,MacIntel,60,left,1.587,4,0.213,0,108,108,28,1,stimuli/objects/toyhardhat.jpg,left,old,172,,,,,,,,
,,,,,,,,6,2021-02-05_18h50.08.757,premceCat_ses-02_part-02_label-phase2,2020.2.10,MacIntel,60,left,0.736,4,0.228,0,109,109,80,1,stimuli/objects/kite.jpg,left,old,224,,,,,,,,
,,,,,,,,6,2021-02-05_18h50.08.757,premceCat_ses-02_part-02_label-phase2,2020.2.10,MacIntel,60,right,0.787,2,0.625,0,110,110,20,1,stimuli/objects/mug01.jpg,left,old,164,,,,,,,,
,,,,,,,,6,2021-02-05_18h50.08.757,premceCat_ses-02_part-02_label-phase2,2020.2.10,MacIntel,60,left,1.904,1,0.312,0,111,111,101,1,stimuli/objects/lawnmower.jpg,left,old,245,,,,,,,,
,,,,,,,,6,2021-02-05_18h50.08.757,premceCat_ses-02_part-02_label-phase2,2020.2.10,MacIntel,60,left,1.558,2,0.68,0,112,112,54,1,stimuli/objects/alarmsystem.jpg,right,new,198,,,,,,,,
,,,,,,,,6,2021-02-05_18h50.08.757,premceCat_ses-02_part-02_label-phase2,2020.2.10,MacIntel,60,right,1.003,4,0.275,0,113,113,11,1,stimuli/objects/coffeemachine.jpg,right,new,155,,,,,,,,
,,,,,,,,6,2021-02-05_18h50.08.757,premceCat_ses-02_part-02_label-phase2,2020.2.10,MacIntel,60,right,0.82,4,0.078,0,114,114,40,1,stimuli/objects/nailgun.jpg,right,new,184,,,,,,,,
,,,,,,,,6,2021-02-05_18h50.08.757,premceCat_ses-02_part-02_label-phase2,2020.2.10,MacIntel,60,left,0.671,4,0.278,0,115,115,139,1,stimuli/objects/football.jpg,left,old,283,,,,,,,,
,,,,,,,,6,2021-02-05_18h50.08.757,premceCat_ses-02_part-02_label-phase2,2020.2.10,MacIntel,60,right,1.622,2,0.429,0,116,116,91,1,stimuli/objects/screwdriver04b.jpg,right,new,235,,,,,,,,
,,,,,,,,6,2021-02-05_18h50.08.757,premceCat_ses-02_part-02_label-phase2,2020.2.10,MacIntel,60,right,2.353,1,0.411,0,117,117,4,1,stimuli/objects/leafrake.jpg,right,new,148,,,,,,,,
,,,,,,,,6,2021-02-05_18h50.08.757,premceCat_ses-02_part-02_label-phase2,2020.2.10,MacIntel,60,left,0.985,1,0.261,0,118,118,95,1,stimuli/objects/microwave.jpg,right,new,239,,,,,,,,
,,,,,,,,6,2021-02-05_18h50.08.757,premceCat_ses-02_part-02_label-phase2,2020.2.10,MacIntel,60,right,1.387,1,0.18,0,119,119,128,1,stimuli/objects/funnel.jpg,right,new,272,,,,,,,,
,,,,,,,,6,2021-02-05_18h50.08.757,premceCat_ses-02_part-02_label-phase2,2020.2.10,MacIntel,60,right,1.187,4,0.018,0,120,120,74,1,stimuli/objects/videocamera01a.jpg,right,new,218,,,,,,,,
,,,,,,,,6,2021-02-05_18h50.08.757,premceCat_ses-02_part-02_label-phase2,2020.2.10,MacIntel,60,left,0.934,4,0.112,0,121,121,129,1,stimuli/objects/peppermill02b.jpg,left,old,273,,,,,,,,
,,,,,,,,6,2021-02-05_18h50.08.757,premceCat_ses-02_part-02_label-phase2,2020.2.10,MacIntel,60,left,0.9,4,0.212,0,122,122,132,1,stimuli/objects/bikewheel.jpg,left,old,276,,,,,,,,
,,,,,,,,6,2021-02-05_18h50.08.757,premceCat_ses-02_part-02_label-phase2,2020.2.10,MacIntel,60,left,1.085,1,0.363,0,123,123,118,1,stimuli/objects/fanheater.jpg,right,new,262,,,,,,,,
,,,,,,,,6,2021-02-05_18h50.08.757,premceCat_ses-02_part-02_label-phase2,2020.2.10,MacIntel,60,left,1.203,3,0.247,0,124,124,85,1,stimuli/objects/golfbag.jpg,left,old,229,,,,,,,,
,,,,,,,,6,2021-02-05_18h50.08.757,premceCat_ses-02_part-02_label-phase2,2020.2.10,MacIntel,60,right,0.838,2,0.679,0,125,125,66,1,stimuli/objects/securitycamera.jpg,right,new,210,,,,,,,,
,,,,,,,,6,2021-02-05_18h50.08.757,premceCat_ses-02_part-02_label-phase2,2020.2.10,MacIntel,60,left,0.77,4,0.309,0,126,126,119,1,stimuli/objects/surfboard.jpg,left,old,263,,,,,,,,
,,,,,,,,6,2021-02-05_18h50.08.757,premceCat_ses-02_part-02_label-phase2,2020.2.10,MacIntel,60,left,0.736,4,0.245,0,127,127,93,1,stimuli/objects/ramekin01.jpg,left,old,237,,,,,,,,
,,,,,,,,6,2021-02-05_18h50.08.757,premceCat_ses-02_part-02_label-phase2,2020.2.10,MacIntel,60,left,0.854,4,0.111,0,128,128,114,1,stimuli/objects/lock03a.jpg,left,old,258,,,,,,,,
,,,,,,,,6,2021-02-05_18h50.08.757,premceCat_ses-02_part-02_label-phase2,2020.2.10,MacIntel,60,right,0.937,1,0.73,0,129,129,3,1,stimuli/objects/wirestripper.jpg,right,new,147,,,,,,,,
,,,,,,,,6,2021-02-05_18h50.08.757,premceCat_ses-02_part-02_label-phase2,2020.2.10,MacIntel,60,left,0.888,2,0.496,0,130,130,26,1,stimuli/objects/backpack01a.jpg,right,new,170,,,,,,,,
,,,,,,,,6,2021-02-05_18h50.08.757,premceCat_ses-02_part-02_label-phase2,2020.2.10,MacIntel,60,left,0.951,4,0.313,0,131,131,90,1,stimuli/objects/wetfloorsign.jpg,left,old,234,,,,,,,,
,,,,,,,,6,2021-02-05_18h50.08.757,premceCat_ses-02_part-02_label-phase2,2020.2.10,MacIntel,60,right,0.771,2,0.928,0,132,132,138,1,stimuli/objects/punchingball.jpg,right,new,282,,,,,,,,
,,,,,,,,6,2021-02-05_18h50.08.757,premceCat_ses-02_part-02_label-phase2,2020.2.10,MacIntel,60,right,0.986,1,0.778,0,133,133,122,1,stimuli/objects/faxmachine.jpg,right,new,266,,,,,,,,
,,,,,,,,6,2021-02-05_18h50.08.757,premceCat_ses-02_part-02_label-phase2,2020.2.10,MacIntel,60,left,2.037,4,0.613,0,134,134,96,1,stimuli/objects/gluetube.jpg,left,old,240,,,,,,,,
,,,,,,,,6,2021-02-05_18h50.08.757,premceCat_ses-02_part-02_label-phase2,2020.2.10,MacIntel,60,right,0.838,3,1.028,0,135,135,111,1,stimuli/objects/bicycle.jpg,right,new,255,,,,,,,,
,,,,,,,,6,2021-02-05_18h50.08.757,premceCat_ses-02_part-02_label-phase2,2020.2.10,MacIntel,60,right,0.848,3,0.495,0,136,136,130,1,stimuli/objects/snowbrush.jpg,right,new,274,,,,,,,,
,,,,,,,,6,2021-02-05_18h50.08.757,premceCat_ses-02_part-02_label-phase2,2020.2.10,MacIntel,60,left,1.065,4,0.129,0,137,137,110,1,stimuli/objects/butterknife.jpg,left,old,254,,,,,,,,
,,,,,,,,6,2021-02-05_18h50.08.757,premceCat_ses-02_part-02_label-phase2,2020.2.10,MacIntel,60,left,1.103,4,0.163,0,138,138,140,1,stimuli/objects/waterbottleholder.jpg,left,old,284,,,,,,,,
,,,,,,,,6,2021-02-05_18h50.08.757,premceCat_ses-02_part-02_label-phase2,2020.2.10,MacIntel,60,right,0.704,2,0.494,0,139,139,16,1,stimuli/objects/charcoalbarbecue.jpg,right,new,160,,,,,,,,
,,,,,,,,6,2021-02-05_18h50.08.757,premceCat_ses-02_part-02_label-phase2,2020.2.10,MacIntel,60,right,0.804,2,0.378,0,140,140,72,1,stimuli/objects/usbcable01a.jpg,left,old,216,,,,,,,,
,,,,,,,,6,2021-02-05_18h50.08.757,premceCat_ses-02_part-02_label-phase2,2020.2.10,MacIntel,60,left,1.037,4,0.345,0,141,141,135,1,stimuli/objects/teapot.jpg,right,new,279,,,,,,,,
,,,,,,,,6,2021-02-05_18h50.08.757,premceCat_ses-02_part-02_label-phase2,2020.2.10,MacIntel,60,right,0.802,2,0.413,0,142,142,134,1,stimuli/objects/kitchenscale01a.jpg,left,old,278,,,,,,,,
,,,,,,,,6,2021-02-05_18h50.08.757,premceCat_ses-02_part-02_label-phase2,2020.2.10,MacIntel,60,,,,,,,,,,,,,,space,19.542,0,1,1,1,1,condition_files/ImagesforRecog3_2.csv
