instructions_loop.thisRepN,instructions_loop.thisTrialN,instructions_loop.thisN,instructions_loop.thisIndex,instructions_loop.ran,text1,text2,text3,participant,date,expName,psychopyVersion,OS,frameRate,recog_resp.keys,recog_resp.rt,conf_resp.keys,conf_resp.rt,recog_loop.thisRepN,recog_loop.thisTrialN,recog_loop.thisN,recog_loop.thisIndex,recog_loop.ran,images,corr_ans,type,order,key_resp_break.keys,key_resp_break.rt,list_loop.thisRepN,list_loop.thisTrialN,list_loop.thisN,list_loop.thisIndex,list_loop.ran,recog_list
0,0,0,0,1,Welcome to the last phase of this experiment!,.,Please press the space bar to continue,7,2021-02-06_13h37.39.968,premceCat_ses-02_part-02_label-phase2,2020.2.10,MacIntel,60,,,,,,,,,,,,,,,,,,,,,
0,1,1,1,1,.,"In this phase, you will see some objects. 

For each object, you should indicate whether you have seen it before during the experiment.

Press LEFT ARROW for YES
Press RIGHT ARROW for NO

",Please press the space bar to continue ,7,2021-02-06_13h37.39.968,premceCat_ses-02_part-02_label-phase2,2020.2.10,MacIntel,60,,,,,,,,,,,,,,,,,,,,,
0,2,2,2,1,.,"After that, you will be asked how confident you are of your choice.

Please rate the confidence in your choce with the numbers from 1 to 4 of your keyboard. 

The numbers correspond to:

1 = Very unsure
2 = Unsure
3 = Sure
4 = Very Sure",Please press the space bar to continue,7,2021-02-06_13h37.39.968,premceCat_ses-02_part-02_label-phase2,2020.2.10,MacIntel,60,,,,,,,,,,,,,,,,,,,,,
0,3,3,3,1,.,"After completing half of the task, you will be given the possibility to take a break. ",Please press the space bar to start with the task!,7,2021-02-06_13h37.39.968,premceCat_ses-02_part-02_label-phase2,2020.2.10,MacIntel,60,,,,,,,,,,,,,,,,,,,,,
,,,,,,,,7,2021-02-06_13h37.39.968,premceCat_ses-02_part-02_label-phase2,2020.2.10,MacIntel,60,left,2.387,2,1.606,0,0,0,26,1,stimuli/objects/backpack01a.jpg,right,new,170,,,,,,,,
,,,,,,,,7,2021-02-06_13h37.39.968,premceCat_ses-02_part-02_label-phase2,2020.2.10,MacIntel,60,right,2.608,2,1.907,0,1,1,40,1,stimuli/objects/nailgun.jpg,right,new,184,,,,,,,,
,,,,,,,,7,2021-02-06_13h37.39.968,premceCat_ses-02_part-02_label-phase2,2020.2.10,MacIntel,60,left,2.455,4,1.702,0,2,2,25,1,stimuli/objects/pitchfork.jpg,left,old,169,,,,,,,,
,,,,,,,,7,2021-02-06_13h37.39.968,premceCat_ses-02_part-02_label-phase2,2020.2.10,MacIntel,60,left,3.504,2,1.133,0,3,3,55,1,stimuli/objects/hockeypuck.jpg,right,new,199,,,,,,,,
,,,,,,,,7,2021-02-06_13h37.39.968,premceCat_ses-02_part-02_label-phase2,2020.2.10,MacIntel,60,left,1.9,4,1.29,0,4,4,33,1,stimuli/objects/backfloat.jpg,left,old,177,,,,,,,,
,,,,,,,,7,2021-02-06_13h37.39.968,premceCat_ses-02_part-02_label-phase2,2020.2.10,MacIntel,60,left,3.525,4,1.85,0,5,5,97,1,stimuli/objects/lectern01.jpg,left,old,241,,,,,,,,
,,,,,,,,7,2021-02-06_13h37.39.968,premceCat_ses-02_part-02_label-phase2,2020.2.10,MacIntel,60,left,1.125,4,0.532,0,6,6,29,1,stimuli/objects/exercisebench.jpg,left,old,173,,,,,,,,
,,,,,,,,7,2021-02-06_13h37.39.968,premceCat_ses-02_part-02_label-phase2,2020.2.10,MacIntel,60,left,3.187,2,1.077,0,7,7,69,1,stimuli/objects/wheelbarrow01.jpg,right,new,213,,,,,,,,
,,,,,,,,7,2021-02-06_13h37.39.968,premceCat_ses-02_part-02_label-phase2,2020.2.10,MacIntel,60,left,2.193,4,2.682,0,8,8,133,1,stimuli/objects/reflector.jpg,left,old,277,,,,,,,,
,,,,,,,,7,2021-02-06_13h37.39.968,premceCat_ses-02_part-02_label-phase2,2020.2.10,MacIntel,60,left,2.245,2,0.025,0,9,9,59,1,stimuli/objects/shovel01.jpg,right,new,203,,,,,,,,
,,,,,,,,7,2021-02-06_13h37.39.968,premceCat_ses-02_part-02_label-phase2,2020.2.10,MacIntel,60,left,3.134,2,0.455,0,10,10,120,1,stimuli/objects/wire.jpg,right,new,264,,,,,,,,
,,,,,,,,7,2021-02-06_13h37.39.968,premceCat_ses-02_part-02_label-phase2,2020.2.10,MacIntel,60,left,1.491,4,1.402,0,11,11,72,1,stimuli/objects/videotape01b.jpg,left,old,216,,,,,,,,
,,,,,,,,7,2021-02-06_13h37.39.968,premceCat_ses-02_part-02_label-phase2,2020.2.10,MacIntel,60,left,1.618,4,0.963,0,12,12,118,1,stimuli/objects/fanheater.jpg,right,new,262,,,,,,,,
,,,,,,,,7,2021-02-06_13h37.39.968,premceCat_ses-02_part-02_label-phase2,2020.2.10,MacIntel,60,right,2.133,2,1.309,0,13,13,135,1,stimuli/objects/teapot.jpg,right,new,279,,,,,,,,
,,,,,,,,7,2021-02-06_13h37.39.968,premceCat_ses-02_part-02_label-phase2,2020.2.10,MacIntel,60,left,1.985,4,1.52,0,14,14,6,1,stimuli/objects/binoculars01b.jpg,right,new,150,,,,,,,,
,,,,,,,,7,2021-02-06_13h37.39.968,premceCat_ses-02_part-02_label-phase2,2020.2.10,MacIntel,60,left,1.433,4,2.036,0,15,15,139,1,stimuli/objects/podium.jpg,left,old,283,,,,,,,,
,,,,,,,,7,2021-02-06_13h37.39.968,premceCat_ses-02_part-02_label-phase2,2020.2.10,MacIntel,60,right,2.605,1,1.313,0,16,16,15,1,stimuli/objects/jug.jpg,right,new,159,,,,,,,,
,,,,,,,,7,2021-02-06_13h37.39.968,premceCat_ses-02_part-02_label-phase2,2020.2.10,MacIntel,60,left,1.636,2,0.537,0,17,17,68,1,stimuli/objects/jackhammer.jpg,right,new,212,,,,,,,,
,,,,,,,,7,2021-02-06_13h37.39.968,premceCat_ses-02_part-02_label-phase2,2020.2.10,MacIntel,60,left,3.37,2,0.832,0,18,18,53,1,stimuli/objects/stepladder.jpg,left,old,197,,,,,,,,
,,,,,,,,7,2021-02-06_13h37.39.968,premceCat_ses-02_part-02_label-phase2,2020.2.10,MacIntel,60,left,2.425,3,0.992,0,19,19,49,1,stimuli/objects/jigsaw.jpg,right,new,193,,,,,,,,
,,,,,,,,7,2021-02-06_13h37.39.968,premceCat_ses-02_part-02_label-phase2,2020.2.10,MacIntel,60,left,1.219,4,1.648,0,20,20,41,1,stimuli/objects/musicalwoodenspoons.jpg,left,old,185,,,,,,,,
,,,,,,,,7,2021-02-06_13h37.39.968,premceCat_ses-02_part-02_label-phase2,2020.2.10,MacIntel,60,left,1.604,4,1.072,0,21,21,42,1,stimuli/objects/treadmill.jpg,left,old,186,,,,,,,,
,,,,,,,,7,2021-02-06_13h37.39.968,premceCat_ses-02_part-02_label-phase2,2020.2.10,MacIntel,60,left,1.14,4,0.655,0,22,22,45,1,stimuli/objects/boxcutter03a.jpg,left,old,189,,,,,,,,
,,,,,,,,7,2021-02-06_13h37.39.968,premceCat_ses-02_part-02_label-phase2,2020.2.10,MacIntel,60,left,1.004,4,0.757,0,23,23,1,1,stimuli/objects/huntingknife.jpg,left,old,145,,,,,,,,
,,,,,,,,7,2021-02-06_13h37.39.968,premceCat_ses-02_part-02_label-phase2,2020.2.10,MacIntel,60,left,1.645,3,1.083,0,24,24,64,1,stimuli/objects/handblender.jpg,left,old,208,,,,,,,,
,,,,,,,,7,2021-02-06_13h37.39.968,premceCat_ses-02_part-02_label-phase2,2020.2.10,MacIntel,60,left,3.655,1,0.73,0,25,25,46,1,stimuli/objects/grater01a.jpg,right,new,190,,,,,,,,
,,,,,,,,7,2021-02-06_13h37.39.968,premceCat_ses-02_part-02_label-phase2,2020.2.10,MacIntel,60,left,1.185,4,0.808,0,26,26,103,1,stimuli/objects/baseballglove.jpg,left,old,247,,,,,,,,
,,,,,,,,7,2021-02-06_13h37.39.968,premceCat_ses-02_part-02_label-phase2,2020.2.10,MacIntel,60,left,0.907,4,1.226,0,27,27,92,1,stimuli/objects/wineglass01.jpg,left,old,236,,,,,,,,
,,,,,,,,7,2021-02-06_13h37.39.968,premceCat_ses-02_part-02_label-phase2,2020.2.10,MacIntel,60,left,1.105,4,0.722,0,28,28,129,1,stimuli/objects/toothpick02.jpg,left,old,273,,,,,,,,
,,,,,,,,7,2021-02-06_13h37.39.968,premceCat_ses-02_part-02_label-phase2,2020.2.10,MacIntel,60,left,1.541,3,1.012,0,29,29,36,1,stimuli/objects/gasburner.jpg,right,new,180,,,,,,,,
,,,,,,,,7,2021-02-06_13h37.39.968,premceCat_ses-02_part-02_label-phase2,2020.2.10,MacIntel,60,left,1.282,2,1.47,0,30,30,17,1,stimuli/objects/travelmug.jpg,left,old,161,,,,,,,,
,,,,,,,,7,2021-02-06_13h37.39.968,premceCat_ses-02_part-02_label-phase2,2020.2.10,MacIntel,60,left,3.274,3,1.5,0,31,31,114,1,stimuli/objects/ladder.jpg,left,old,258,,,,,,,,
,,,,,,,,7,2021-02-06_13h37.39.968,premceCat_ses-02_part-02_label-phase2,2020.2.10,MacIntel,60,left,1.006,3,1.099,0,32,32,98,1,stimuli/objects/phonejack.jpg,right,new,242,,,,,,,,
,,,,,,,,7,2021-02-06_13h37.39.968,premceCat_ses-02_part-02_label-phase2,2020.2.10,MacIntel,60,right,3.203,1,1.974,0,33,33,79,1,stimuli/objects/snowshoe.jpg,right,new,223,,,,,,,,
,,,,,,,,7,2021-02-06_13h37.39.968,premceCat_ses-02_part-02_label-phase2,2020.2.10,MacIntel,60,right,2.624,1,1.111,0,34,34,128,1,stimuli/objects/funnel.jpg,right,new,272,,,,,,,,
,,,,,,,,7,2021-02-06_13h37.39.968,premceCat_ses-02_part-02_label-phase2,2020.2.10,MacIntel,60,left,2.861,1,0.649,0,35,35,10,1,stimuli/objects/toyhockeystick01.jpg,right,new,154,,,,,,,,
,,,,,,,,7,2021-02-06_13h37.39.968,premceCat_ses-02_part-02_label-phase2,2020.2.10,MacIntel,60,left,1.255,4,1.055,0,36,36,63,1,stimuli/objects/photocopier.jpg,left,old,207,,,,,,,,
,,,,,,,,7,2021-02-06_13h37.39.968,premceCat_ses-02_part-02_label-phase2,2020.2.10,MacIntel,60,left,2.676,3,1.127,0,37,37,131,1,stimuli/objects/hockeygoalieglove.jpg,right,new,275,,,,,,,,
,,,,,,,,7,2021-02-06_13h37.39.968,premceCat_ses-02_part-02_label-phase2,2020.2.10,MacIntel,60,left,1.682,4,0.555,0,38,38,58,1,stimuli/objects/bottlecap.jpg,left,old,202,,,,,,,,
,,,,,,,,7,2021-02-06_13h37.39.968,premceCat_ses-02_part-02_label-phase2,2020.2.10,MacIntel,60,left,1.871,4,0.264,0,39,39,100,1,stimuli/objects/woodenspoon.jpg,left,old,244,,,,,,,,
,,,,,,,,7,2021-02-06_13h37.39.968,premceCat_ses-02_part-02_label-phase2,2020.2.10,MacIntel,60,left,1.233,4,0.116,0,40,40,102,1,stimuli/objects/trampoline.jpg,left,old,246,,,,,,,,
,,,,,,,,7,2021-02-06_13h37.39.968,premceCat_ses-02_part-02_label-phase2,2020.2.10,MacIntel,60,left,1.503,4,0.187,0,41,41,56,1,stimuli/objects/gymnasticring.jpg,left,old,200,,,,,,,,
,,,,,,,,7,2021-02-06_13h37.39.968,premceCat_ses-02_part-02_label-phase2,2020.2.10,MacIntel,60,left,1.824,3,0.346,0,42,42,19,1,stimuli/objects/bikehelmet.jpg,right,new,163,,,,,,,,
,,,,,,,,7,2021-02-06_13h37.39.968,premceCat_ses-02_part-02_label-phase2,2020.2.10,MacIntel,60,left,3.147,4,1.264,0,43,43,32,1,stimuli/objects/shinpad.jpg,left,old,176,,,,,,,,
,,,,,,,,7,2021-02-06_13h37.39.968,premceCat_ses-02_part-02_label-phase2,2020.2.10,MacIntel,60,left,2.632,3,0.203,0,44,44,5,1,stimuli/objects/handgripper.jpg,right,new,149,,,,,,,,
,,,,,,,,7,2021-02-06_13h37.39.968,premceCat_ses-02_part-02_label-phase2,2020.2.10,MacIntel,60,left,2.2,2,0.848,0,45,45,130,1,stimuli/objects/snowbrush.jpg,right,new,274,,,,,,,,
,,,,,,,,7,2021-02-06_13h37.39.968,premceCat_ses-02_part-02_label-phase2,2020.2.10,MacIntel,60,right,1.683,2,1.09,0,46,46,50,1,stimuli/objects/coffeemaker.jpg,right,new,194,,,,,,,,
,,,,,,,,7,2021-02-06_13h37.39.968,premceCat_ses-02_part-02_label-phase2,2020.2.10,MacIntel,60,left,1.523,4,0.138,0,47,47,38,1,stimuli/objects/papershredder.jpg,left,old,182,,,,,,,,
,,,,,,,,7,2021-02-06_13h37.39.968,premceCat_ses-02_part-02_label-phase2,2020.2.10,MacIntel,60,left,1.428,4,0.263,0,48,48,116,1,stimuli/objects/measuringtape01.jpg,left,old,260,,,,,,,,
,,,,,,,,7,2021-02-06_13h37.39.968,premceCat_ses-02_part-02_label-phase2,2020.2.10,MacIntel,60,left,1.218,4,0.314,0,49,49,121,1,stimuli/objects/chainsaw.jpg,right,new,265,,,,,,,,
,,,,,,,,7,2021-02-06_13h37.39.968,premceCat_ses-02_part-02_label-phase2,2020.2.10,MacIntel,60,left,2.073,2,0.397,0,50,50,73,1,stimuli/objects/lockingplier.jpg,left,old,217,,,,,,,,
,,,,,,,,7,2021-02-06_13h37.39.968,premceCat_ses-02_part-02_label-phase2,2020.2.10,MacIntel,60,left,1.808,4,0.799,0,51,51,13,1,stimuli/objects/expansioncard.jpg,left,old,157,,,,,,,,
,,,,,,,,7,2021-02-06_13h37.39.968,premceCat_ses-02_part-02_label-phase2,2020.2.10,MacIntel,60,left,3.695,2,0.911,0,52,52,83,1,stimuli/objects/vhstape.jpg,right,new,227,,,,,,,,
,,,,,,,,7,2021-02-06_13h37.39.968,premceCat_ses-02_part-02_label-phase2,2020.2.10,MacIntel,60,left,1.602,3,1.46,0,53,53,35,1,stimuli/objects/remotecontrol04.jpg,right,new,179,,,,,,,,
,,,,,,,,7,2021-02-06_13h37.39.968,premceCat_ses-02_part-02_label-phase2,2020.2.10,MacIntel,60,left,1.722,4,0.337,0,54,54,8,1,stimuli/objects/aluminiumfoil.jpg,left,old,152,,,,,,,,
,,,,,,,,7,2021-02-06_13h37.39.968,premceCat_ses-02_part-02_label-phase2,2020.2.10,MacIntel,60,left,2.987,3,0.637,0,55,55,80,1,stimuli/objects/baseballbat.jpg,left,old,224,,,,,,,,
,,,,,,,,7,2021-02-06_13h37.39.968,premceCat_ses-02_part-02_label-phase2,2020.2.10,MacIntel,60,left,1.771,2,0.471,0,56,56,3,1,stimuli/objects/wirestripper.jpg,right,new,147,,,,,,,,
,,,,,,,,7,2021-02-06_13h37.39.968,premceCat_ses-02_part-02_label-phase2,2020.2.10,MacIntel,60,right,2.388,3,1.25,0,57,57,108,1,stimuli/objects/fishinghook03.jpg,right,new,252,,,,,,,,
,,,,,,,,7,2021-02-06_13h37.39.968,premceCat_ses-02_part-02_label-phase2,2020.2.10,MacIntel,60,right,1.454,2,2.584,0,58,58,66,1,stimuli/objects/securitycamera.jpg,right,new,210,,,,,,,,
,,,,,,,,7,2021-02-06_13h37.39.968,premceCat_ses-02_part-02_label-phase2,2020.2.10,MacIntel,60,left,1.613,4,0.353,0,59,59,62,1,stimuli/objects/setsquare.jpg,left,old,206,,,,,,,,
,,,,,,,,7,2021-02-06_13h37.39.968,premceCat_ses-02_part-02_label-phase2,2020.2.10,MacIntel,60,right,1.858,2,1.142,0,60,60,107,1,stimuli/objects/telescope.jpg,right,new,251,,,,,,,,
,,,,,,,,7,2021-02-06_13h37.39.968,premceCat_ses-02_part-02_label-phase2,2020.2.10,MacIntel,60,right,3.019,2,1.107,0,61,61,138,1,stimuli/objects/punchingball.jpg,right,new,282,,,,,,,,
,,,,,,,,7,2021-02-06_13h37.39.968,premceCat_ses-02_part-02_label-phase2,2020.2.10,MacIntel,60,left,3.41,4,0.616,0,62,62,105,1,stimuli/objects/headphones02b.jpg,left,old,249,,,,,,,,
,,,,,,,,7,2021-02-06_13h37.39.968,premceCat_ses-02_part-02_label-phase2,2020.2.10,MacIntel,60,right,2.068,2,0.18,0,63,63,123,1,stimuli/objects/ladle02a.jpg,right,new,267,,,,,,,,
,,,,,,,,7,2021-02-06_13h37.39.968,premceCat_ses-02_part-02_label-phase2,2020.2.10,MacIntel,60,left,2.501,2,0.416,0,64,64,134,1,stimuli/objects/eggslicer.jpg,left,old,278,,,,,,,,
,,,,,,,,7,2021-02-06_13h37.39.968,premceCat_ses-02_part-02_label-phase2,2020.2.10,MacIntel,60,left,1.393,3,0.675,0,65,65,22,1,stimuli/objects/wiicontroller.jpg,left,old,166,,,,,,,,
,,,,,,,,7,2021-02-06_13h37.39.968,premceCat_ses-02_part-02_label-phase2,2020.2.10,MacIntel,60,left,1.208,4,0.345,0,66,66,9,1,stimuli/objects/weight01.jpg,left,old,153,,,,,,,,
,,,,,,,,7,2021-02-06_13h37.39.968,premceCat_ses-02_part-02_label-phase2,2020.2.10,MacIntel,60,left,1.629,3,0.453,0,67,67,119,1,stimuli/objects/kneepad01c.jpg,left,old,263,,,,,,,,
,,,,,,,,7,2021-02-06_13h37.39.968,premceCat_ses-02_part-02_label-phase2,2020.2.10,MacIntel,60,left,3.687,1,0.744,0,68,68,112,1,stimuli/objects/tennisball01b.jpg,right,new,256,,,,,,,,
,,,,,,,,7,2021-02-06_13h37.39.968,premceCat_ses-02_part-02_label-phase2,2020.2.10,MacIntel,60,left,4.132,2,0.653,0,69,69,2,1,stimuli/objects/carlighter02.jpg,right,new,146,,,,,,,,
,,,,,,,,7,2021-02-06_13h37.39.968,premceCat_ses-02_part-02_label-phase2,2020.2.10,MacIntel,60,left,1.103,4,0.376,0,70,70,67,1,stimuli/objects/mug01.jpg,left,old,211,,,,,,,,
,,,,,,,,7,2021-02-06_13h37.39.968,premceCat_ses-02_part-02_label-phase2,2020.2.10,MacIntel,60,left,2.599,3,0.327,0,71,71,4,1,stimuli/objects/leafrake.jpg,right,new,148,,,,,,,,
,,,,,,,,7,2021-02-06_13h37.39.968,premceCat_ses-02_part-02_label-phase2,2020.2.10,MacIntel,60,left,1.075,4,0.665,0,72,72,101,1,stimuli/objects/jumpercables.jpg,left,old,245,,,,,,,,
,,,,,,,,7,2021-02-06_13h37.39.968,premceCat_ses-02_part-02_label-phase2,2020.2.10,MacIntel,60,left,1.833,1,0.396,0,73,73,90,1,stimuli/objects/dolly01.jpg,left,old,234,,,,,,,,
,,,,,,,,7,2021-02-06_13h37.39.968,premceCat_ses-02_part-02_label-phase2,2020.2.10,MacIntel,60,right,1.391,2,2.604,0,74,74,44,1,stimuli/objects/dishrack.jpg,right,new,188,,,,,,,,
,,,,,,,,7,2021-02-06_13h37.39.968,premceCat_ses-02_part-02_label-phase2,2020.2.10,MacIntel,60,left,1.225,4,0.412,0,75,75,21,1,stimuli/objects/paintbrush01.jpg,left,old,165,,,,,,,,
,,,,,,,,7,2021-02-06_13h37.39.968,premceCat_ses-02_part-02_label-phase2,2020.2.10,MacIntel,60,left,2.521,3,0.353,0,76,76,94,1,stimuli/objects/microphone01.jpg,right,new,238,,,,,,,,
,,,,,,,,7,2021-02-06_13h37.39.968,premceCat_ses-02_part-02_label-phase2,2020.2.10,MacIntel,60,left,1.147,4,0.548,0,77,77,31,1,stimuli/objects/solderingwire.jpg,left,old,175,,,,,,,,
,,,,,,,,7,2021-02-06_13h37.39.968,premceCat_ses-02_part-02_label-phase2,2020.2.10,MacIntel,60,right,2.044,2,1.852,0,78,78,82,1,stimuli/objects/carantenna.jpg,right,new,226,,,,,,,,
,,,,,,,,7,2021-02-06_13h37.39.968,premceCat_ses-02_part-02_label-phase2,2020.2.10,MacIntel,60,left,1.066,4,0.321,0,79,79,28,1,stimuli/objects/toyhardhat.jpg,left,old,172,,,,,,,,
,,,,,,,,7,2021-02-06_13h37.39.968,premceCat_ses-02_part-02_label-phase2,2020.2.10,MacIntel,60,left,2.428,2,0.483,0,80,80,78,1,stimuli/objects/swissarmyknife01a.jpg,right,new,222,,,,,,,,
,,,,,,,,7,2021-02-06_13h37.39.968,premceCat_ses-02_part-02_label-phase2,2020.2.10,MacIntel,60,right,1.368,1,0.595,0,81,81,88,1,stimuli/objects/cuttingboard.jpg,right,new,232,,,,,,,,
,,,,,,,,7,2021-02-06_13h37.39.968,premceCat_ses-02_part-02_label-phase2,2020.2.10,MacIntel,60,left,3.669,1,0.291,0,82,82,51,1,stimuli/objects/fonduefork01.jpg,right,new,195,,,,,,,,
,,,,,,,,7,2021-02-06_13h37.39.968,premceCat_ses-02_part-02_label-phase2,2020.2.10,MacIntel,60,left,1.11,4,0.354,0,83,83,52,1,stimuli/objects/radio01.jpg,left,old,196,,,,,,,,
,,,,,,,,7,2021-02-06_13h37.39.968,premceCat_ses-02_part-02_label-phase2,2020.2.10,MacIntel,60,left,1.019,4,0.472,0,84,84,122,1,stimuli/objects/faxmachine.jpg,right,new,266,,,,,,,,
,,,,,,,,7,2021-02-06_13h37.39.968,premceCat_ses-02_part-02_label-phase2,2020.2.10,MacIntel,60,left,1.457,4,0.989,0,85,85,57,1,stimuli/objects/extensioncord.jpg,left,old,201,,,,,,,,
,,,,,,,,7,2021-02-06_13h37.39.968,premceCat_ses-02_part-02_label-phase2,2020.2.10,MacIntel,60,left,1.424,3,0.422,0,86,86,126,1,stimuli/objects/bowrake.jpg,left,old,270,,,,,,,,
,,,,,,,,7,2021-02-06_13h37.39.968,premceCat_ses-02_part-02_label-phase2,2020.2.10,MacIntel,60,left,1.057,4,0.452,0,87,87,115,1,stimuli/objects/pitcher02b.jpg,left,old,259,,,,,,,,
,,,,,,,,7,2021-02-06_13h37.39.968,premceCat_ses-02_part-02_label-phase2,2020.2.10,MacIntel,60,left,2.478,1,0.576,0,88,88,106,1,stimuli/objects/studiolight.jpg,left,old,250,,,,,,,,
,,,,,,,,7,2021-02-06_13h37.39.968,premceCat_ses-02_part-02_label-phase2,2020.2.10,MacIntel,60,left,1.753,2,0.461,0,89,89,54,1,stimuli/objects/alarmsystem.jpg,right,new,198,,,,,,,,
,,,,,,,,7,2021-02-06_13h37.39.968,premceCat_ses-02_part-02_label-phase2,2020.2.10,MacIntel,60,left,1.552,4,0.396,0,90,90,125,1,stimuli/objects/butterknife.jpg,left,old,269,,,,,,,,
,,,,,,,,7,2021-02-06_13h37.39.968,premceCat_ses-02_part-02_label-phase2,2020.2.10,MacIntel,60,right,2.16,2,0.929,0,91,91,65,1,stimuli/objects/jar02.jpg,right,new,209,,,,,,,,
,,,,,,,,7,2021-02-06_13h37.39.968,premceCat_ses-02_part-02_label-phase2,2020.2.10,MacIntel,60,left,2.626,4,1.013,0,92,92,111,1,stimuli/objects/bicycle.jpg,right,new,255,,,,,,,,
,,,,,,,,7,2021-02-06_13h37.39.968,premceCat_ses-02_part-02_label-phase2,2020.2.10,MacIntel,60,right,1.328,2,1.916,0,93,93,77,1,stimuli/objects/iceskate.jpg,right,new,221,,,,,,,,
,,,,,,,,7,2021-02-06_13h37.39.968,premceCat_ses-02_part-02_label-phase2,2020.2.10,MacIntel,60,left,1.289,4,0.353,0,94,94,104,1,stimuli/objects/cork02.jpg,left,old,248,,,,,,,,
,,,,,,,,7,2021-02-06_13h37.39.968,premceCat_ses-02_part-02_label-phase2,2020.2.10,MacIntel,60,left,2.605,4,0.396,0,95,95,60,1,stimuli/objects/propanetank01.jpg,left,old,204,,,,,,,,
,,,,,,,,7,2021-02-06_13h37.39.968,premceCat_ses-02_part-02_label-phase2,2020.2.10,MacIntel,60,left,2.55,2,0.508,0,96,96,96,1,stimuli/objects/sledgehammer.jpg,left,old,240,,,,,,,,
,,,,,,,,7,2021-02-06_13h37.39.968,premceCat_ses-02_part-02_label-phase2,2020.2.10,MacIntel,60,left,1.437,2,0.395,0,97,97,37,1,stimuli/objects/pipewrench.jpg,right,new,181,,,,,,,,
,,,,,,,,7,2021-02-06_13h37.39.968,premceCat_ses-02_part-02_label-phase2,2020.2.10,MacIntel,60,left,1.26,2,1.189,0,98,98,86,1,stimuli/objects/tennisracket.jpg,right,new,230,,,,,,,,
,,,,,,,,7,2021-02-06_13h37.39.968,premceCat_ses-02_part-02_label-phase2,2020.2.10,MacIntel,60,left,1.52,2,0.397,0,99,99,84,1,stimuli/objects/gastank.jpg,left,old,228,,,,,,,,
,,,,,,,,7,2021-02-06_13h37.39.968,premceCat_ses-02_part-02_label-phase2,2020.2.10,MacIntel,60,left,1.579,4,0.304,0,100,100,117,1,stimuli/objects/fan.jpg,left,old,261,,,,,,,,
,,,,,,,,7,2021-02-06_13h37.39.968,premceCat_ses-02_part-02_label-phase2,2020.2.10,MacIntel,60,left,4.162,1,0.305,0,101,101,34,1,stimuli/objects/floodlight.jpg,right,new,178,,,,,,,,
,,,,,,,,7,2021-02-06_13h37.39.968,premceCat_ses-02_part-02_label-phase2,2020.2.10,MacIntel,60,left,1.481,2,1.508,0,102,102,91,1,stimuli/objects/screwdriver04b.jpg,right,new,235,,,,,,,,
,,,,,,,,7,2021-02-06_13h37.39.968,premceCat_ses-02_part-02_label-phase2,2020.2.10,MacIntel,60,left,3.307,2,0.409,0,103,103,89,1,stimuli/objects/usbcable01a.jpg,left,old,233,,,,,,,,
,,,,,,,,7,2021-02-06_13h37.39.968,premceCat_ses-02_part-02_label-phase2,2020.2.10,MacIntel,60,left,2.282,2,0.375,0,104,104,87,1,stimuli/objects/boltcutter.jpg,right,new,231,,,,,,,,
,,,,,,,,7,2021-02-06_13h37.39.968,premceCat_ses-02_part-02_label-phase2,2020.2.10,MacIntel,60,left,1.821,4,0.325,0,105,105,20,1,stimuli/objects/icepack.jpg,left,old,164,,,,,,,,
,,,,,,,,7,2021-02-06_13h37.39.968,premceCat_ses-02_part-02_label-phase2,2020.2.10,MacIntel,60,left,2.254,2,0.384,0,106,106,14,1,stimuli/objects/hedgetrimmer.jpg,left,old,158,,,,,,,,
,,,,,,,,7,2021-02-06_13h37.39.968,premceCat_ses-02_part-02_label-phase2,2020.2.10,MacIntel,60,left,1.754,2,1.275,0,107,107,95,1,stimuli/objects/microwave.jpg,right,new,239,,,,,,,,
,,,,,,,,7,2021-02-06_13h37.39.968,premceCat_ses-02_part-02_label-phase2,2020.2.10,MacIntel,60,left,1.014,4,0.436,0,108,108,110,1,stimuli/objects/icecubetray01a.jpg,left,old,254,,,,,,,,
,,,,,,,,7,2021-02-06_13h37.39.968,premceCat_ses-02_part-02_label-phase2,2020.2.10,MacIntel,60,right,1.338,2,0.568,0,109,109,99,1,stimuli/objects/flashlight02b.jpg,right,new,243,,,,,,,,
,,,,,,,,7,2021-02-06_13h37.39.968,premceCat_ses-02_part-02_label-phase2,2020.2.10,MacIntel,60,left,1.151,4,0.337,0,110,110,24,1,stimuli/objects/peppermill02b.jpg,left,old,168,,,,,,,,
,,,,,,,,7,2021-02-06_13h37.39.968,premceCat_ses-02_part-02_label-phase2,2020.2.10,MacIntel,60,left,1.435,4,0.176,0,111,111,75,1,stimuli/objects/peeler01.jpg,left,old,219,,,,,,,,
,,,,,,,,7,2021-02-06_13h37.39.968,premceCat_ses-02_part-02_label-phase2,2020.2.10,MacIntel,60,left,2.051,2,0.295,0,112,112,136,1,stimuli/objects/nintendods.jpg,left,old,280,,,,,,,,
,,,,,,,,7,2021-02-06_13h37.39.968,premceCat_ses-02_part-02_label-phase2,2020.2.10,MacIntel,60,left,1.301,4,0.336,0,113,113,18,1,stimuli/objects/hose.jpg,left,old,162,,,,,,,,
,,,,,,,,7,2021-02-06_13h37.39.968,premceCat_ses-02_part-02_label-phase2,2020.2.10,MacIntel,60,left,3.323,2,0.337,0,114,114,109,1,stimuli/objects/knifesharpener.jpg,right,new,253,,,,,,,,
,,,,,,,,7,2021-02-06_13h37.39.968,premceCat_ses-02_part-02_label-phase2,2020.2.10,MacIntel,60,left,2.08,1,0.326,0,115,115,0,1,stimuli/objects/saw02b.jpg,right,new,144,,,,,,,,
,,,,,,,,7,2021-02-06_13h37.39.968,premceCat_ses-02_part-02_label-phase2,2020.2.10,MacIntel,60,left,1.508,3,0.351,0,116,116,27,1,stimuli/objects/chisel02b.jpg,left,old,171,,,,,,,,
,,,,,,,,7,2021-02-06_13h37.39.968,premceCat_ses-02_part-02_label-phase2,2020.2.10,MacIntel,60,left,1.948,2,0.87,0,117,117,30,1,stimuli/objects/pastaspoon.jpg,right,new,174,,,,,,,,
,,,,,,,,7,2021-02-06_13h37.39.968,premceCat_ses-02_part-02_label-phase2,2020.2.10,MacIntel,60,right,2.561,2,1.658,0,118,118,124,1,stimuli/objects/whisk.jpg,right,new,268,,,,,,,,
,,,,,,,,7,2021-02-06_13h37.39.968,premceCat_ses-02_part-02_label-phase2,2020.2.10,MacIntel,60,left,2.336,2,0.207,0,119,119,132,1,stimuli/objects/shoulderpad.jpg,left,old,276,,,,,,,,
,,,,,,,,7,2021-02-06_13h37.39.968,premceCat_ses-02_part-02_label-phase2,2020.2.10,MacIntel,60,right,1.571,2,0.357,0,120,120,142,1,stimuli/objects/file.jpg,right,new,286,,,,,,,,
,,,,,,,,7,2021-02-06_13h37.39.968,premceCat_ses-02_part-02_label-phase2,2020.2.10,MacIntel,60,left,1.605,3,0.336,0,121,121,71,1,stimuli/objects/gardenshears01a.jpg,left,old,215,,,,,,,,
,,,,,,,,7,2021-02-06_13h37.39.968,premceCat_ses-02_part-02_label-phase2,2020.2.10,MacIntel,60,right,2.228,2,1.139,0,122,122,16,1,stimuli/objects/charcoalbarbecue.jpg,right,new,160,,,,,,,,
,,,,,,,,7,2021-02-06_13h37.39.968,premceCat_ses-02_part-02_label-phase2,2020.2.10,MacIntel,60,left,1.104,4,0.335,0,123,123,70,1,stimuli/objects/fridge.jpg,left,old,214,,,,,,,,
,,,,,,,,7,2021-02-06_13h37.39.968,premceCat_ses-02_part-02_label-phase2,2020.2.10,MacIntel,60,right,1.844,2,1.087,0,124,124,74,1,stimuli/objects/videocamera01a.jpg,right,new,218,,,,,,,,
,,,,,,,,7,2021-02-06_13h37.39.968,premceCat_ses-02_part-02_label-phase2,2020.2.10,MacIntel,60,right,1.209,2,2.217,0,125,125,23,1,stimuli/objects/bucket02.jpg,right,new,167,,,,,,,,
,,,,,,,,7,2021-02-06_13h37.39.968,premceCat_ses-02_part-02_label-phase2,2020.2.10,MacIntel,60,right,3.351,2,0.615,0,126,126,141,1,stimuli/objects/boatmotor.jpg,right,new,285,,,,,,,,
,,,,,,,,7,2021-02-06_13h37.39.968,premceCat_ses-02_part-02_label-phase2,2020.2.10,MacIntel,60,right,1.347,2,0.709,0,127,127,11,1,stimuli/objects/coffeemachine.jpg,right,new,155,,,,,,,,
,,,,,,,,7,2021-02-06_13h37.39.968,premceCat_ses-02_part-02_label-phase2,2020.2.10,MacIntel,60,left,1.864,2,0.366,0,128,128,48,1,stimuli/objects/adjustablewrench01b.jpg,right,new,192,,,,,,,,
,,,,,,,,7,2021-02-06_13h37.39.968,premceCat_ses-02_part-02_label-phase2,2020.2.10,MacIntel,60,left,2.736,1,0.357,0,129,129,43,1,stimuli/objects/exercisebike.jpg,right,new,187,,,,,,,,
,,,,,,,,7,2021-02-06_13h37.39.968,premceCat_ses-02_part-02_label-phase2,2020.2.10,MacIntel,60,left,1.602,2,0.354,0,130,130,76,1,stimuli/objects/footballhelmet.jpg,right,new,220,,,,,,,,
,,,,,,,,7,2021-02-06_13h37.39.968,premceCat_ses-02_part-02_label-phase2,2020.2.10,MacIntel,60,left,2.14,4,0.259,0,131,131,85,1,stimuli/objects/outdoorheater.jpg,left,old,229,,,,,,,,
,,,,,,,,7,2021-02-06_13h37.39.968,premceCat_ses-02_part-02_label-phase2,2020.2.10,MacIntel,60,left,1.323,4,0.287,0,132,132,81,1,stimuli/objects/level03a.jpg,left,old,225,,,,,,,,
,,,,,,,,7,2021-02-06_13h37.39.968,premceCat_ses-02_part-02_label-phase2,2020.2.10,MacIntel,60,left,1.08,4,0.368,0,133,133,61,1,stimuli/objects/usbkey.jpg,left,old,205,,,,,,,,
,,,,,,,,7,2021-02-06_13h37.39.968,premceCat_ses-02_part-02_label-phase2,2020.2.10,MacIntel,60,left,1.067,3,0.286,0,134,134,140,1,stimuli/objects/golfball.jpg,left,old,284,,,,,,,,
,,,,,,,,7,2021-02-06_13h37.39.968,premceCat_ses-02_part-02_label-phase2,2020.2.10,MacIntel,60,left,0.904,4,0.323,0,135,135,137,1,stimuli/objects/monitor.jpg,left,old,281,,,,,,,,
,,,,,,,,7,2021-02-06_13h37.39.968,premceCat_ses-02_part-02_label-phase2,2020.2.10,MacIntel,60,left,2.187,2,0.324,0,136,136,113,1,stimuli/objects/paintscraper.jpg,left,old,257,,,,,,,,
,,,,,,,,7,2021-02-06_13h37.39.968,premceCat_ses-02_part-02_label-phase2,2020.2.10,MacIntel,60,right,1.415,2,3.202,0,137,137,39,1,stimuli/objects/beachumbrella01.jpg,right,new,183,,,,,,,,
,,,,,,,,7,2021-02-06_13h37.39.968,premceCat_ses-02_part-02_label-phase2,2020.2.10,MacIntel,60,left,1.219,4,0.336,0,138,138,7,1,stimuli/objects/kite.jpg,left,old,151,,,,,,,,
,,,,,,,,7,2021-02-06_13h37.39.968,premceCat_ses-02_part-02_label-phase2,2020.2.10,MacIntel,60,left,2.338,3,0.285,0,139,139,127,1,stimuli/objects/airconditioner.jpg,right,new,271,,,,,,,,
,,,,,,,,7,2021-02-06_13h37.39.968,premceCat_ses-02_part-02_label-phase2,2020.2.10,MacIntel,60,left,1.002,4,0.331,0,140,140,93,1,stimuli/objects/tupperware03a.jpg,left,old,237,,,,,,,,
,,,,,,,,7,2021-02-06_13h37.39.968,premceCat_ses-02_part-02_label-phase2,2020.2.10,MacIntel,60,left,3.062,2,0.828,0,141,141,12,1,stimuli/objects/bottleopener01.jpg,right,new,156,,,,,,,,
,,,,,,,,7,2021-02-06_13h37.39.968,premceCat_ses-02_part-02_label-phase2,2020.2.10,MacIntel,60,left,1.01,4,0.302,0,142,142,47,1,stimuli/objects/fork03c.jpg,left,old,191,,,,,,,,
,,,,,,,,7,2021-02-06_13h37.39.968,premceCat_ses-02_part-02_label-phase2,2020.2.10,MacIntel,60,,,,,,,,,,,,,,space,3.907,0,0,0,1,1,condition_files/ImagesforRecog4_2.csv
,,,,,,,,7,2021-02-06_13h37.39.968,premceCat_ses-02_part-02_label-phase2,2020.2.10,MacIntel,60,left,1.598,4,1.368,0,0,0,28,1,stimuli/objects/tongs01b.jpg,left,old,29,,,,,,,,
,,,,,,,,7,2021-02-06_13h37.39.968,premceCat_ses-02_part-02_label-phase2,2020.2.10,MacIntel,60,left,1.137,4,0.284,0,1,1,137,1,stimuli/objects/poolnet.jpg,left,old,138,,,,,,,,
,,,,,,,,7,2021-02-06_13h37.39.968,premceCat_ses-02_part-02_label-phase2,2020.2.10,MacIntel,60,left,1.169,4,0.262,0,2,2,135,1,stimuli/objects/carbattery.jpg,left,old,136,,,,,,,,
,,,,,,,,7,2021-02-06_13h37.39.968,premceCat_ses-02_part-02_label-phase2,2020.2.10,MacIntel,60,right,6.502,1,0.923,0,3,3,41,1,stimuli/objects/foodprocessor.jpg,right,new,42,,,,,,,,
,,,,,,,,7,2021-02-06_13h37.39.968,premceCat_ses-02_part-02_label-phase2,2020.2.10,MacIntel,60,left,2.959,2,0.674,0,4,4,83,1,stimuli/objects/contactlens.jpg,right,new,84,,,,,,,,
,,,,,,,,7,2021-02-06_13h37.39.968,premceCat_ses-02_part-02_label-phase2,2020.2.10,MacIntel,60,left,1.122,4,0.312,0,5,5,101,1,stimuli/objects/football.jpg,left,old,102,,,,,,,,
,,,,,,,,7,2021-02-06_13h37.39.968,premceCat_ses-02_part-02_label-phase2,2020.2.10,MacIntel,60,left,3.847,1,0.693,0,6,6,136,1,stimuli/objects/laptop01a.jpg,right,new,137,,,,,,,,
,,,,,,,,7,2021-02-06_13h37.39.968,premceCat_ses-02_part-02_label-phase2,2020.2.10,MacIntel,60,left,2.652,2,1.127,0,7,7,142,1,stimuli/objects/alarmclock01.jpg,left,old,143,,,,,,,,
,,,,,,,,7,2021-02-06_13h37.39.968,premceCat_ses-02_part-02_label-phase2,2020.2.10,MacIntel,60,right,1.444,2,0.955,0,8,8,111,1,stimuli/objects/tray.jpg,right,new,112,,,,,,,,
,,,,,,,,7,2021-02-06_13h37.39.968,premceCat_ses-02_part-02_label-phase2,2020.2.10,MacIntel,60,right,3.601,1,0.239,0,9,9,17,1,stimuli/objects/basketballhoop01.jpg,right,new,18,,,,,,,,
,,,,,,,,7,2021-02-06_13h37.39.968,premceCat_ses-02_part-02_label-phase2,2020.2.10,MacIntel,60,right,1.468,2,0.264,0,10,10,36,1,stimuli/objects/soccerball.jpg,left,old,37,,,,,,,,
,,,,,,,,7,2021-02-06_13h37.39.968,premceCat_ses-02_part-02_label-phase2,2020.2.10,MacIntel,60,left,1.284,4,0.177,0,11,11,49,1,stimuli/objects/flask.jpg,left,old,50,,,,,,,,
,,,,,,,,7,2021-02-06_13h37.39.968,premceCat_ses-02_part-02_label-phase2,2020.2.10,MacIntel,60,left,4.844,1,0.448,0,12,12,34,1,stimuli/objects/wetfloorsign.jpg,left,old,35,,,,,,,,
,,,,,,,,7,2021-02-06_13h37.39.968,premceCat_ses-02_part-02_label-phase2,2020.2.10,MacIntel,60,right,1.53,2,0.357,0,13,13,39,1,stimuli/objects/tableknife02.jpg,right,new,40,,,,,,,,
,,,,,,,,7,2021-02-06_13h37.39.968,premceCat_ses-02_part-02_label-phase2,2020.2.10,MacIntel,60,right,1.226,2,0.824,0,14,14,108,1,stimuli/objects/pylon01.jpg,right,new,109,,,,,,,,
,,,,,,,,7,2021-02-06_13h37.39.968,premceCat_ses-02_part-02_label-phase2,2020.2.10,MacIntel,60,right,1.341,2,1.662,0,15,15,85,1,stimuli/objects/skigoggles01.jpg,right,new,86,,,,,,,,
,,,,,,,,7,2021-02-06_13h37.39.968,premceCat_ses-02_part-02_label-phase2,2020.2.10,MacIntel,60,right,1.541,2,0.335,0,16,16,130,1,stimuli/objects/servingspoon01.jpg,left,old,131,,,,,,,,
,,,,,,,,7,2021-02-06_13h37.39.968,premceCat_ses-02_part-02_label-phase2,2020.2.10,MacIntel,60,left,2.035,3,0.269,0,17,17,62,1,stimuli/objects/gps.jpg,left,old,63,,,,,,,,
,,,,,,,,7,2021-02-06_13h37.39.968,premceCat_ses-02_part-02_label-phase2,2020.2.10,MacIntel,60,left,1.249,4,0.337,0,18,18,114,1,stimuli/objects/halogenlightbulb.jpg,left,old,115,,,,,,,,
,,,,,,,,7,2021-02-06_13h37.39.968,premceCat_ses-02_part-02_label-phase2,2020.2.10,MacIntel,60,right,1.615,2,0.473,0,19,19,128,1,stimuli/objects/bastingbrush.jpg,right,new,129,,,,,,,,
,,,,,,,,7,2021-02-06_13h37.39.968,premceCat_ses-02_part-02_label-phase2,2020.2.10,MacIntel,60,right,2.057,2,0.137,0,20,20,72,1,stimuli/objects/hedgeshears.jpg,right,new,73,,,,,,,,
,,,,,,,,7,2021-02-06_13h37.39.968,premceCat_ses-02_part-02_label-phase2,2020.2.10,MacIntel,60,left,1.393,4,0.273,0,21,21,87,1,stimuli/objects/golfbag.jpg,left,old,88,,,,,,,,
,,,,,,,,7,2021-02-06_13h37.39.968,premceCat_ses-02_part-02_label-phase2,2020.2.10,MacIntel,60,left,1.336,4,0.244,0,22,22,105,1,stimuli/objects/audiocablesplitter.jpg,left,old,106,,,,,,,,
,,,,,,,,7,2021-02-06_13h37.39.968,premceCat_ses-02_part-02_label-phase2,2020.2.10,MacIntel,60,left,1.986,2,0.302,0,23,23,64,1,stimuli/objects/measuringcup01.jpg,left,old,65,,,,,,,,
,,,,,,,,7,2021-02-06_13h37.39.968,premceCat_ses-02_part-02_label-phase2,2020.2.10,MacIntel,60,left,4.675,1,0.404,0,24,24,26,1,stimuli/objects/hockeygoaliepad.jpg,right,new,27,,,,,,,,
,,,,,,,,7,2021-02-06_13h37.39.968,premceCat_ses-02_part-02_label-phase2,2020.2.10,MacIntel,60,left,2.154,2,0.303,0,25,25,58,1,stimuli/objects/tape02a.jpg,left,old,59,,,,,,,,
,,,,,,,,7,2021-02-06_13h37.39.968,premceCat_ses-02_part-02_label-phase2,2020.2.10,MacIntel,60,right,4.12,1,0.248,0,26,26,68,1,stimuli/objects/flooringstapler.jpg,right,new,69,,,,,,,,
,,,,,,,,7,2021-02-06_13h37.39.968,premceCat_ses-02_part-02_label-phase2,2020.2.10,MacIntel,60,left,4.92,1,0.592,0,27,27,38,1,stimuli/objects/fuse.jpg,right,new,39,,,,,,,,
,,,,,,,,7,2021-02-06_13h37.39.968,premceCat_ses-02_part-02_label-phase2,2020.2.10,MacIntel,60,left,3.168,1,0.177,0,28,28,91,1,stimuli/objects/espressomachine.jpg,left,old,92,,,,,,,,
,,,,,,,,7,2021-02-06_13h37.39.968,premceCat_ses-02_part-02_label-phase2,2020.2.10,MacIntel,60,left,1.254,4,0.357,0,29,29,102,1,stimuli/objects/wafflemaker.jpg,left,old,103,,,,,,,,
,,,,,,,,7,2021-02-06_13h37.39.968,premceCat_ses-02_part-02_label-phase2,2020.2.10,MacIntel,60,right,1.547,2,1.311,0,30,30,131,1,stimuli/objects/electricmixer.jpg,right,new,132,,,,,,,,
,,,,,,,,7,2021-02-06_13h37.39.968,premceCat_ses-02_part-02_label-phase2,2020.2.10,MacIntel,60,right,4.029,1,0.296,0,31,31,71,1,stimuli/objects/webcam.jpg,right,new,72,,,,,,,,
,,,,,,,,7,2021-02-06_13h37.39.968,premceCat_ses-02_part-02_label-phase2,2020.2.10,MacIntel,60,right,2.942,1,0.243,0,32,32,134,1,stimuli/objects/television.jpg,right,new,135,,,,,,,,
,,,,,,,,7,2021-02-06_13h37.39.968,premceCat_ses-02_part-02_label-phase2,2020.2.10,MacIntel,60,right,1.719,1,0.252,0,33,33,21,1,stimuli/objects/measuringspoon.jpg,right,new,22,,,,,,,,
,,,,,,,,7,2021-02-06_13h37.39.968,premceCat_ses-02_part-02_label-phase2,2020.2.10,MacIntel,60,right,1.397,1,0.245,0,34,34,138,1,stimuli/objects/minifridge.jpg,right,new,139,,,,,,,,
,,,,,,,,7,2021-02-06_13h37.39.968,premceCat_ses-02_part-02_label-phase2,2020.2.10,MacIntel,60,left,1.16,4,0.292,0,35,35,8,1,stimuli/objects/glass02a.jpg,left,old,9,,,,,,,,
,,,,,,,,7,2021-02-06_13h37.39.968,premceCat_ses-02_part-02_label-phase2,2020.2.10,MacIntel,60,right,2.131,2,0.635,0,36,36,51,1,stimuli/objects/walkietalkie.jpg,right,new,52,,,,,,,,
,,,,,,,,7,2021-02-06_13h37.39.968,premceCat_ses-02_part-02_label-phase2,2020.2.10,MacIntel,60,right,1.287,2,0.765,0,37,37,76,1,stimuli/objects/parachute.jpg,right,new,77,,,,,,,,
,,,,,,,,7,2021-02-06_13h37.39.968,premceCat_ses-02_part-02_label-phase2,2020.2.10,MacIntel,60,left,1.868,2,0.739,0,38,38,124,1,stimuli/objects/hockeystick.jpg,left,old,125,,,,,,,,
,,,,,,,,7,2021-02-06_13h37.39.968,premceCat_ses-02_part-02_label-phase2,2020.2.10,MacIntel,60,right,2.799,2,0.62,0,39,39,82,1,stimuli/objects/caulking.jpg,right,new,83,,,,,,,,
,,,,,,,,7,2021-02-06_13h37.39.968,premceCat_ses-02_part-02_label-phase2,2020.2.10,MacIntel,60,right,1.372,3,1.441,0,40,40,112,1,stimuli/objects/bikelock.jpg,right,new,113,,,,,,,,
,,,,,,,,7,2021-02-06_13h37.39.968,premceCat_ses-02_part-02_label-phase2,2020.2.10,MacIntel,60,left,1.722,2,0.292,0,41,41,123,1,stimuli/objects/staplegun.jpg,left,old,124,,,,,,,,
,,,,,,,,7,2021-02-06_13h37.39.968,premceCat_ses-02_part-02_label-phase2,2020.2.10,MacIntel,60,right,1.383,3,0.508,0,42,42,19,1,stimuli/objects/coffeepot03a.jpg,right,new,20,,,,,,,,
,,,,,,,,7,2021-02-06_13h37.39.968,premceCat_ses-02_part-02_label-phase2,2020.2.10,MacIntel,60,right,0.989,3,0.498,0,43,43,80,1,stimuli/objects/fanblades.jpg,right,new,81,,,,,,,,
,,,,,,,,7,2021-02-06_13h37.39.968,premceCat_ses-02_part-02_label-phase2,2020.2.10,MacIntel,60,left,1.186,4,0.248,0,44,44,2,1,stimuli/objects/muffintray01.jpg,left,old,3,,,,,,,,
,,,,,,,,7,2021-02-06_13h37.39.968,premceCat_ses-02_part-02_label-phase2,2020.2.10,MacIntel,60,left,1.512,4,0.004,0,45,45,10,1,stimuli/objects/cameracase01a.jpg,left,old,11,,,,,,,,
,,,,,,,,7,2021-02-06_13h37.39.968,premceCat_ses-02_part-02_label-phase2,2020.2.10,MacIntel,60,right,1.854,2,0.388,0,46,46,24,1,stimuli/objects/punchingbag.jpg,right,new,25,,,,,,,,
,,,,,,,,7,2021-02-06_13h37.39.968,premceCat_ses-02_part-02_label-phase2,2020.2.10,MacIntel,60,left,1.153,4,0.293,0,47,47,0,1,stimuli/objects/ceilingspeaker.jpg,left,old,1,,,,,,,,
,,,,,,,,7,2021-02-06_13h37.39.968,premceCat_ses-02_part-02_label-phase2,2020.2.10,MacIntel,60,right,1.595,2,0.424,0,48,48,42,1,stimuli/objects/anchor.jpg,right,new,43,,,,,,,,
,,,,,,,,7,2021-02-06_13h37.39.968,premceCat_ses-02_part-02_label-phase2,2020.2.10,MacIntel,60,right,1.119,2,0.374,0,49,49,126,1,stimuli/objects/swing.jpg,right,new,127,,,,,,,,
,,,,,,,,7,2021-02-06_13h37.39.968,premceCat_ses-02_part-02_label-phase2,2020.2.10,MacIntel,60,right,1.024,2,0.137,0,50,50,22,1,stimuli/objects/rollerblade.jpg,right,new,23,,,,,,,,
,,,,,,,,7,2021-02-06_13h37.39.968,premceCat_ses-02_part-02_label-phase2,2020.2.10,MacIntel,60,left,1.915,3,0.222,0,51,51,53,1,stimuli/objects/smokedetector02.jpg,right,new,54,,,,,,,,
,,,,,,,,7,2021-02-06_13h37.39.968,premceCat_ses-02_part-02_label-phase2,2020.2.10,MacIntel,60,left,1.203,4,0.292,0,52,52,97,1,stimuli/objects/birdie.jpg,left,old,98,,,,,,,,
,,,,,,,,7,2021-02-06_13h37.39.968,premceCat_ses-02_part-02_label-phase2,2020.2.10,MacIntel,60,left,1.054,4,0.244,0,53,53,78,1,stimuli/objects/downhillski.jpg,left,old,79,,,,,,,,
,,,,,,,,7,2021-02-06_13h37.39.968,premceCat_ses-02_part-02_label-phase2,2020.2.10,MacIntel,60,left,1.674,4,0.288,0,54,54,37,1,stimuli/objects/paintroller01.jpg,left,old,38,,,,,,,,
,,,,,,,,7,2021-02-06_13h37.39.968,premceCat_ses-02_part-02_label-phase2,2020.2.10,MacIntel,60,left,3.08,3,0.664,0,55,55,56,1,stimuli/objects/scanner.jpg,left,old,57,,,,,,,,
,,,,,,,,7,2021-02-06_13h37.39.968,premceCat_ses-02_part-02_label-phase2,2020.2.10,MacIntel,60,right,1.573,2,3.861,0,56,56,54,1,stimuli/objects/cashregister01.jpg,right,new,55,,,,,,,,
,,,,,,,,7,2021-02-06_13h37.39.968,premceCat_ses-02_part-02_label-phase2,2020.2.10,MacIntel,60,left,1.9,1,0.32,0,57,57,14,1,stimuli/objects/kitchenscale01a.jpg,left,old,15,,,,,,,,
,,,,,,,,7,2021-02-06_13h37.39.968,premceCat_ses-02_part-02_label-phase2,2020.2.10,MacIntel,60,right,1.61,3,2.523,0,58,58,139,1,stimuli/objects/solderingiron.jpg,right,new,140,,,,,,,,
,,,,,,,,7,2021-02-06_13h37.39.968,premceCat_ses-02_part-02_label-phase2,2020.2.10,MacIntel,60,right,1.473,4,1.325,0,59,59,13,1,stimuli/objects/cookingpot.jpg,right,new,14,,,,,,,,
,,,,,,,,7,2021-02-06_13h37.39.968,premceCat_ses-02_part-02_label-phase2,2020.2.10,MacIntel,60,right,2.106,1,1.149,0,60,60,47,1,stimuli/objects/icescraper.jpg,left,old,48,,,,,,,,
,,,,,,,,7,2021-02-06_13h37.39.968,premceCat_ses-02_part-02_label-phase2,2020.2.10,MacIntel,60,right,1.999,1,0.313,0,61,61,23,1,stimuli/objects/volleyball.jpg,right,new,24,,,,,,,,
,,,,,,,,7,2021-02-06_13h37.39.968,premceCat_ses-02_part-02_label-phase2,2020.2.10,MacIntel,60,left,2.132,1,0.177,0,62,62,9,1,stimuli/objects/shopvac.jpg,right,new,10,,,,,,,,
,,,,,,,,7,2021-02-06_13h37.39.968,premceCat_ses-02_part-02_label-phase2,2020.2.10,MacIntel,60,left,1.551,4,0.313,0,63,63,70,1,stimuli/objects/pda.jpg,left,old,71,,,,,,,,
,,,,,,,,7,2021-02-06_13h37.39.968,premceCat_ses-02_part-02_label-phase2,2020.2.10,MacIntel,60,right,1.637,3,1.549,0,64,64,117,1,stimuli/objects/ipad02.jpg,right,new,118,,,,,,,,
,,,,,,,,7,2021-02-06_13h37.39.968,premceCat_ses-02_part-02_label-phase2,2020.2.10,MacIntel,60,right,1.25,3,1.156,0,65,65,43,1,stimuli/objects/lifejacket.jpg,right,new,44,,,,,,,,
,,,,,,,,7,2021-02-06_13h37.39.968,premceCat_ses-02_part-02_label-phase2,2020.2.10,MacIntel,60,left,2.159,2,0.555,0,66,66,99,1,stimuli/objects/weedwacker.jpg,left,old,100,,,,,,,,
,,,,,,,,7,2021-02-06_13h37.39.968,premceCat_ses-02_part-02_label-phase2,2020.2.10,MacIntel,60,left,1.876,4,0.434,0,67,67,88,1,stimuli/objects/desktopcomputer.jpg,left,old,89,,,,,,,,
,,,,,,,,7,2021-02-06_13h37.39.968,premceCat_ses-02_part-02_label-phase2,2020.2.10,MacIntel,60,right,1.799,2,0.319,0,68,68,100,1,stimuli/objects/pot01.jpg,right,new,101,,,,,,,,
,,,,,,,,7,2021-02-06_13h37.39.968,premceCat_ses-02_part-02_label-phase2,2020.2.10,MacIntel,60,left,3.619,1,0.463,0,69,69,109,1,stimuli/objects/computerkeyboard02.jpg,right,new,110,,,,,,,,
,,,,,,,,7,2021-02-06_13h37.39.968,premceCat_ses-02_part-02_label-phase2,2020.2.10,MacIntel,60,right,1.394,2,1.065,0,70,70,20,1,stimuli/objects/walkman.jpg,right,new,21,,,,,,,,
,,,,,,,,7,2021-02-06_13h37.39.968,premceCat_ses-02_part-02_label-phase2,2020.2.10,MacIntel,60,left,1.659,3,0.345,0,71,71,35,1,stimuli/objects/crosscountryski.jpg,left,old,36,,,,,,,,
,,,,,,,,7,2021-02-06_13h37.39.968,premceCat_ses-02_part-02_label-phase2,2020.2.10,MacIntel,60,right,0.986,3,0.706,0,72,72,50,1,stimuli/objects/wateringcan.jpg,right,new,51,,,,,,,,
,,,,,,,,7,2021-02-06_13h37.39.968,premceCat_ses-02_part-02_label-phase2,2020.2.10,MacIntel,60,right,1.303,2,0.3,0,73,73,25,1,stimuli/objects/bikepump01.jpg,right,new,26,,,,,,,,
,,,,,,,,7,2021-02-06_13h37.39.968,premceCat_ses-02_part-02_label-phase2,2020.2.10,MacIntel,60,right,1.376,2,0.373,0,74,74,57,1,stimuli/objects/dvdcase01.jpg,right,new,58,,,,,,,,
,,,,,,,,7,2021-02-06_13h37.39.968,premceCat_ses-02_part-02_label-phase2,2020.2.10,MacIntel,60,left,1.405,4,0.247,0,75,75,16,1,stimuli/objects/filmnegative.jpg,left,old,17,,,,,,,,
,,,,,,,,7,2021-02-06_13h37.39.968,premceCat_ses-02_part-02_label-phase2,2020.2.10,MacIntel,60,right,5.012,2,4.699,0,76,76,93,1,stimuli/objects/payphone.jpg,right,new,94,,,,,,,,
,,,,,,,,7,2021-02-06_13h37.39.968,premceCat_ses-02_part-02_label-phase2,2020.2.10,MacIntel,60,right,2.011,2,0.295,0,77,77,106,1,stimuli/objects/towel01.jpg,right,new,107,,,,,,,,
,,,,,,,,7,2021-02-06_13h37.39.968,premceCat_ses-02_part-02_label-phase2,2020.2.10,MacIntel,60,right,1.004,3,0.356,0,78,78,96,1,stimuli/objects/chandelier.jpg,right,new,97,,,,,,,,
,,,,,,,,7,2021-02-06_13h37.39.968,premceCat_ses-02_part-02_label-phase2,2020.2.10,MacIntel,60,left,2.062,1,0.203,0,79,79,132,1,stimuli/objects/cooler01.jpg,left,old,133,,,,,,,,
,,,,,,,,7,2021-02-06_13h37.39.968,premceCat_ses-02_part-02_label-phase2,2020.2.10,MacIntel,60,left,1.99,4,0.634,0,80,80,1,1,stimuli/objects/canoepaddle02.jpg,left,old,2,,,,,,,,
,,,,,,,,7,2021-02-06_13h37.39.968,premceCat_ses-02_part-02_label-phase2,2020.2.10,MacIntel,60,left,1.614,4,0.47,0,81,81,12,1,stimuli/objects/drinkshaker.jpg,right,new,13,,,,,,,,
,,,,,,,,7,2021-02-06_13h37.39.968,premceCat_ses-02_part-02_label-phase2,2020.2.10,MacIntel,60,left,2.786,3,1.161,0,82,82,67,1,stimuli/objects/cowbell.jpg,left,old,68,,,,,,,,
,,,,,,,,7,2021-02-06_13h37.39.968,premceCat_ses-02_part-02_label-phase2,2020.2.10,MacIntel,60,left,2.076,1,1.442,0,83,83,33,1,stimuli/objects/spatula03.jpg,right,new,34,,,,,,,,
,,,,,,,,7,2021-02-06_13h37.39.968,premceCat_ses-02_part-02_label-phase2,2020.2.10,MacIntel,60,left,1.187,2,0.36,0,84,84,31,1,stimuli/objects/printer02.jpg,left,old,32,,,,,,,,
,,,,,,,,7,2021-02-06_13h37.39.968,premceCat_ses-02_part-02_label-phase2,2020.2.10,MacIntel,60,right,2.172,2,0.736,0,85,85,44,1,stimuli/objects/leafblower01.jpg,left,old,45,,,,,,,,
,,,,,,,,7,2021-02-06_13h37.39.968,premceCat_ses-02_part-02_label-phase2,2020.2.10,MacIntel,60,left,1.483,4,1.488,0,86,86,103,1,stimuli/objects/cellphone.jpg,left,old,104,,,,,,,,
,,,,,,,,7,2021-02-06_13h37.39.968,premceCat_ses-02_part-02_label-phase2,2020.2.10,MacIntel,60,left,2.649,1,0.498,0,87,87,89,1,stimuli/objects/jumpingjack.jpg,right,new,90,,,,,,,,
,,,,,,,,7,2021-02-06_13h37.39.968,premceCat_ses-02_part-02_label-phase2,2020.2.10,MacIntel,60,left,3.44,2,6.699,0,88,88,77,1,stimuli/objects/catchermask.jpg,left,old,78,,,,,,,,
,,,,,,,,7,2021-02-06_13h37.39.968,premceCat_ses-02_part-02_label-phase2,2020.2.10,MacIntel,60,left,1.753,2,1.255,0,89,89,11,1,stimuli/objects/lightswitch01.jpg,left,old,12,,,,,,,,
,,,,,,,,7,2021-02-06_13h37.39.968,premceCat_ses-02_part-02_label-phase2,2020.2.10,MacIntel,60,left,0.89,4,0.281,0,90,90,5,1,stimuli/objects/drillbit03a.jpg,left,old,6,,,,,,,,
,,,,,,,,7,2021-02-06_13h37.39.968,premceCat_ses-02_part-02_label-phase2,2020.2.10,MacIntel,60,left,1.817,1,0.228,0,91,91,116,1,stimuli/objects/spoon01.jpg,right,new,117,,,,,,,,
,,,,,,,,7,2021-02-06_13h37.39.968,premceCat_ses-02_part-02_label-phase2,2020.2.10,MacIntel,60,right,1.827,2,0.491,0,92,92,55,1,stimuli/objects/snowblower.jpg,right,new,56,,,,,,,,
,,,,,,,,7,2021-02-06_13h37.39.968,premceCat_ses-02_part-02_label-phase2,2020.2.10,MacIntel,60,left,1.421,2,1.142,0,93,93,98,1,stimuli/objects/cleaver01.jpg,left,old,99,,,,,,,,
,,,,,,,,7,2021-02-06_13h37.39.968,premceCat_ses-02_part-02_label-phase2,2020.2.10,MacIntel,60,right,2.305,2,0.684,0,94,94,119,1,stimuli/objects/crocodileclips.jpg,right,new,120,,,,,,,,
,,,,,,,,7,2021-02-06_13h37.39.968,premceCat_ses-02_part-02_label-phase2,2020.2.10,MacIntel,60,left,1.99,2,0.239,0,95,95,110,1,stimuli/objects/hammer01.jpg,right,new,111,,,,,,,,
,,,,,,,,7,2021-02-06_13h37.39.968,premceCat_ses-02_part-02_label-phase2,2020.2.10,MacIntel,60,left,1.368,3,0.241,0,96,96,92,1,stimuli/objects/pliers02b.jpg,right,new,93,,,,,,,,
,,,,,,,,7,2021-02-06_13h37.39.968,premceCat_ses-02_part-02_label-phase2,2020.2.10,MacIntel,60,left,1.503,2,0.304,0,97,97,129,1,stimuli/objects/skihelmet01.jpg,left,old,130,,,,,,,,
,,,,,,,,7,2021-02-06_13h37.39.968,premceCat_ses-02_part-02_label-phase2,2020.2.10,MacIntel,60,left,1.31,4,1.772,0,98,98,27,1,stimuli/objects/bikewheel.jpg,left,old,28,,,,,,,,
,,,,,,,,7,2021-02-06_13h37.39.968,premceCat_ses-02_part-02_label-phase2,2020.2.10,MacIntel,60,right,1.217,2,0.331,0,99,99,66,1,stimuli/objects/tablesaw.jpg,right,new,67,,,,,,,,
,,,,,,,,7,2021-02-06_13h37.39.968,premceCat_ses-02_part-02_label-phase2,2020.2.10,MacIntel,60,left,1.1,4,0.305,0,100,100,79,1,stimuli/objects/straw.jpg,left,old,80,,,,,,,,
,,,,,,,,7,2021-02-06_13h37.39.968,premceCat_ses-02_part-02_label-phase2,2020.2.10,MacIntel,60,left,2.205,2,0.395,0,101,101,140,1,stimuli/objects/toasteroven.jpg,left,old,141,,,,,,,,
,,,,,,,,7,2021-02-06_13h37.39.968,premceCat_ses-02_part-02_label-phase2,2020.2.10,MacIntel,60,left,1.007,4,0.382,0,102,102,61,1,stimuli/objects/soundmixer.jpg,left,old,62,,,,,,,,
,,,,,,,,7,2021-02-06_13h37.39.968,premceCat_ses-02_part-02_label-phase2,2020.2.10,MacIntel,60,left,1.038,4,0.308,0,103,103,69,1,stimuli/objects/skateboard.jpg,left,old,70,,,,,,,,
,,,,,,,,7,2021-02-06_13h37.39.968,premceCat_ses-02_part-02_label-phase2,2020.2.10,MacIntel,60,left,2.066,1,0.44,0,104,104,120,1,stimuli/objects/camera01a.jpg,left,old,121,,,,,,,,
,,,,,,,,7,2021-02-06_13h37.39.968,premceCat_ses-02_part-02_label-phase2,2020.2.10,MacIntel,60,left,4.299,1,0.33,0,105,105,94,1,stimuli/objects/corkscrew03a.jpg,right,new,95,,,,,,,,
,,,,,,,,7,2021-02-06_13h37.39.968,premceCat_ses-02_part-02_label-phase2,2020.2.10,MacIntel,60,left,0.929,4,0.493,0,106,106,122,1,stimuli/objects/ellipticalmachine.jpg,left,old,123,,,,,,,,
,,,,,,,,7,2021-02-06_13h37.39.968,premceCat_ses-02_part-02_label-phase2,2020.2.10,MacIntel,60,left,0.914,4,0.694,0,107,107,104,1,stimuli/objects/rollingpin01a.jpg,left,old,105,,,,,,,,
,,,,,,,,7,2021-02-06_13h37.39.968,premceCat_ses-02_part-02_label-phase2,2020.2.10,MacIntel,60,left,1.264,2,0.273,0,108,108,65,1,stimuli/objects/ethernetcable02.jpg,left,old,66,,,,,,,,
,,,,,,,,7,2021-02-06_13h37.39.968,premceCat_ses-02_part-02_label-phase2,2020.2.10,MacIntel,60,right,1.16,2,0.249,0,109,109,30,1,stimuli/objects/satellitedish01.jpg,right,new,31,,,,,,,,
,,,,,,,,7,2021-02-06_13h37.39.968,premceCat_ses-02_part-02_label-phase2,2020.2.10,MacIntel,60,right,1.561,2,0.869,0,110,110,86,1,stimuli/objects/styrofoamcup.jpg,right,new,87,,,,,,,,
,,,,,,,,7,2021-02-06_13h37.39.968,premceCat_ses-02_part-02_label-phase2,2020.2.10,MacIntel,60,left,1.514,2,1.083,0,111,111,7,1,stimuli/objects/handrake01a.jpg,left,old,8,,,,,,,,
,,,,,,,,7,2021-02-06_13h37.39.968,premceCat_ses-02_part-02_label-phase2,2020.2.10,MacIntel,60,right,1.162,2,0.341,0,112,112,127,1,stimuli/objects/metalscissors.jpg,left,old,128,,,,,,,,
,,,,,,,,7,2021-02-06_13h37.39.968,premceCat_ses-02_part-02_label-phase2,2020.2.10,MacIntel,60,left,1.13,3,0.963,0,113,113,45,1,stimuli/objects/mallet01b.jpg,left,old,46,,,,,,,,
,,,,,,,,7,2021-02-06_13h37.39.968,premceCat_ses-02_part-02_label-phase2,2020.2.10,MacIntel,60,right,1.053,2,0.61,0,114,114,32,1,stimuli/objects/mitresaw.jpg,right,new,33,,,,,,,,
,,,,,,,,7,2021-02-06_13h37.39.968,premceCat_ses-02_part-02_label-phase2,2020.2.10,MacIntel,60,right,1.423,3,0.355,0,115,115,4,1,stimuli/objects/atm.jpg,right,new,5,,,,,,,,
,,,,,,,,7,2021-02-06_13h37.39.968,premceCat_ses-02_part-02_label-phase2,2020.2.10,MacIntel,60,left,1.265,3,2.038,0,116,116,6,1,stimuli/objects/clock01a.jpg,left,old,7,,,,,,,,
,,,,,,,,7,2021-02-06_13h37.39.968,premceCat_ses-02_part-02_label-phase2,2020.2.10,MacIntel,60,left,2.712,2,3.874,0,117,117,3,1,stimuli/objects/spotlight.jpg,left,old,4,,,,,,,,
,,,,,,,,7,2021-02-06_13h37.39.968,premceCat_ses-02_part-02_label-phase2,2020.2.10,MacIntel,60,left,2.09,1,0.204,0,118,118,63,1,stimuli/objects/knife03.jpg,right,new,64,,,,,,,,
,,,,,,,,7,2021-02-06_13h37.39.968,premceCat_ses-02_part-02_label-phase2,2020.2.10,MacIntel,60,left,1.87,1,0.356,0,119,119,15,1,stimuli/objects/hosenozzle.jpg,left,old,16,,,,,,,,
,,,,,,,,7,2021-02-06_13h37.39.968,premceCat_ses-02_part-02_label-phase2,2020.2.10,MacIntel,60,left,0.95,4,0.315,0,120,120,115,1,stimuli/objects/beermug01a.jpg,left,old,116,,,,,,,,
,,,,,,,,7,2021-02-06_13h37.39.968,premceCat_ses-02_part-02_label-phase2,2020.2.10,MacIntel,60,left,1.061,2,0.392,0,121,121,75,1,stimuli/objects/puttyknife.jpg,right,new,76,,,,,,,,
,,,,,,,,7,2021-02-06_13h37.39.968,premceCat_ses-02_part-02_label-phase2,2020.2.10,MacIntel,60,right,2.583,2,0.698,0,122,122,73,1,stimuli/objects/kiddiepool.jpg,right,new,74,,,,,,,,
,,,,,,,,7,2021-02-06_13h37.39.968,premceCat_ses-02_part-02_label-phase2,2020.2.10,MacIntel,60,right,1.316,1,0.384,0,123,123,81,1,stimuli/objects/tripod01.jpg,right,new,82,,,,,,,,
,,,,,,,,7,2021-02-06_13h37.39.968,premceCat_ses-02_part-02_label-phase2,2020.2.10,MacIntel,60,left,1.403,2,1.519,0,124,124,29,1,stimuli/objects/filmroll.jpg,left,old,30,,,,,,,,
,,,,,,,,7,2021-02-06_13h37.39.968,premceCat_ses-02_part-02_label-phase2,2020.2.10,MacIntel,60,right,2.154,3,0.267,0,125,125,46,1,stimuli/objects/sportbag.jpg,right,new,47,,,,,,,,
,,,,,,,,7,2021-02-06_13h37.39.968,premceCat_ses-02_part-02_label-phase2,2020.2.10,MacIntel,60,right,1.1,3,0.888,0,126,126,125,1,stimuli/objects/diaperbag.jpg,right,new,126,,,,,,,,
,,,,,,,,7,2021-02-06_13h37.39.968,premceCat_ses-02_part-02_label-phase2,2020.2.10,MacIntel,60,right,1.335,1,0.243,0,127,127,141,1,stimuli/objects/skiboot01a.jpg,right,new,142,,,,,,,,
,,,,,,,,7,2021-02-06_13h37.39.968,premceCat_ses-02_part-02_label-phase2,2020.2.10,MacIntel,60,left,2.454,2,0.802,0,128,128,95,1,stimuli/objects/boxingglove01.jpg,left,old,96,,,,,,,,
,,,,,,,,7,2021-02-06_13h37.39.968,premceCat_ses-02_part-02_label-phase2,2020.2.10,MacIntel,60,right,1.461,2,0.451,0,129,129,90,1,stimuli/objects/canister.jpg,right,new,91,,,,,,,,
,,,,,,,,7,2021-02-06_13h37.39.968,premceCat_ses-02_part-02_label-phase2,2020.2.10,MacIntel,60,left,1.358,4,0.324,0,130,130,52,1,stimuli/objects/exercisemachine.jpg,left,old,53,,,,,,,,
,,,,,,,,7,2021-02-06_13h37.39.968,premceCat_ses-02_part-02_label-phase2,2020.2.10,MacIntel,60,left,1.743,2,1.171,0,131,131,18,1,stimuli/objects/electricoutlet.jpg,right,new,19,,,,,,,,
,,,,,,,,7,2021-02-06_13h37.39.968,premceCat_ses-02_part-02_label-phase2,2020.2.10,MacIntel,60,right,1.594,1,0.41,0,132,132,60,1,stimuli/objects/plate01b.jpg,right,new,61,,,,,,,,
,,,,,,,,7,2021-02-06_13h37.39.968,premceCat_ses-02_part-02_label-phase2,2020.2.10,MacIntel,60,right,1.881,1,0.436,0,133,133,118,1,stimuli/objects/toolbox02.jpg,left,old,119,,,,,,,,
,,,,,,,,7,2021-02-06_13h37.39.968,premceCat_ses-02_part-02_label-phase2,2020.2.10,MacIntel,60,left,3.014,1,0.314,0,134,134,84,1,stimuli/objects/lawnmower.jpg,left,old,85,,,,,,,,
,,,,,,,,7,2021-02-06_13h37.39.968,premceCat_ses-02_part-02_label-phase2,2020.2.10,MacIntel,60,right,2.271,1,0.92,0,135,135,59,1,stimuli/objects/dvdplayer.jpg,right,new,60,,,,,,,,
,,,,,,,,7,2021-02-06_13h37.39.968,premceCat_ses-02_part-02_label-phase2,2020.2.10,MacIntel,60,left,1.545,3,0.269,0,136,136,107,1,stimuli/objects/axe01.jpg,left,old,108,,,,,,,,
,,,,,,,,7,2021-02-06_13h37.39.968,premceCat_ses-02_part-02_label-phase2,2020.2.10,MacIntel,60,left,1.557,4,0.282,0,137,137,48,1,stimuli/objects/rope03.jpg,left,old,49,,,,,,,,
,,,,,,,,7,2021-02-06_13h37.39.968,premceCat_ses-02_part-02_label-phase2,2020.2.10,MacIntel,60,left,2.233,1,0.444,0,138,138,113,1,stimuli/objects/taperecorder.jpg,right,new,114,,,,,,,,
,,,,,,,,7,2021-02-06_13h37.39.968,premceCat_ses-02_part-02_label-phase2,2020.2.10,MacIntel,60,left,1.183,4,0.247,0,139,139,74,1,stimuli/objects/surfboard.jpg,left,old,75,,,,,,,,
,,,,,,,,7,2021-02-06_13h37.39.968,premceCat_ses-02_part-02_label-phase2,2020.2.10,MacIntel,60,left,1,3,1.205,0,140,140,40,1,stimuli/objects/battery02b.jpg,left,old,41,,,,,,,,
,,,,,,,,7,2021-02-06_13h37.39.968,premceCat_ses-02_part-02_label-phase2,2020.2.10,MacIntel,60,right,2.544,1,0.247,0,141,141,121,1,stimuli/objects/chocolatefonduedish.jpg,right,new,122,,,,,,,,
,,,,,,,,7,2021-02-06_13h37.39.968,premceCat_ses-02_part-02_label-phase2,2020.2.10,MacIntel,60,left,3.471,1,2.234,0,142,142,133,1,stimuli/objects/avcable.jpg,right,new,134,,,,,,,,
,,,,,,,,7,2021-02-06_13h37.39.968,premceCat_ses-02_part-02_label-phase2,2020.2.10,MacIntel,60,,,,,,,,,,,,,,space,4.261,0,1,1,0,1,condition_files/ImagesforRecog4_1.csv
