"participant","pract_resp.keys","pract_resp.corr","pract_resp.rt","first_character","second_character","Cue","left_categ","centleft_categ","centright_categ","right_categ","corr_ans","image","trial_cond","cuedCharacter","task_resp.keys","task_resp.corr","task_resp.rt"
5,NA,NA,NA,"","",NA,"","","","",NA,"",NA,"",NA,NA,NA
5,NA,NA,NA,"","",NA,"","","","",NA,"",NA,"",NA,NA,NA
5,NA,NA,NA,"","",NA,"","","","",NA,"",NA,"",NA,NA,NA
5,NA,NA,NA,"","",NA,"","","","",NA,"",NA,"",NA,NA,NA
5,NA,NA,NA,"","",NA,"","","","",NA,"",NA,"",NA,NA,NA
5,NA,NA,NA,"","",NA,"","","","",NA,"",NA,"",NA,NA,NA
5,2,0,1.868575,"stimuli/m1.jpg","stimuli/m4.jpg",2,"stimuli/Stationary & school supply.png","stimuli/Vehicle.png","stimuli/Gamestoy & entertainment.png","stimuli/Clothing.png",4,"stimuli/objects/sneaker03b.jpg",1,"stimuli/m4.jpg",NA,NA,NA
5,3,0,1.97089,"stimuli/m1.jpg","stimuli/m4.jpg",2,"stimuli/Stationary & school supply.png","stimuli/Clothing.png","stimuli/Vehicle.png","stimuli/Gamestoy & entertainment.png",1,"stimuli/objects/paperclip01b.jpg",0,"stimuli/m4.jpg",NA,NA,NA
5,1,0,1.389805,"stimuli/m1.jpg","stimuli/m4.jpg",1,"stimuli/Vehicle.png","stimuli/Stationary & school supply.png","stimuli/Clothing.png","stimuli/Gamestoy & entertainment.png",2,"stimuli/objects/protractor.jpg",1,"stimuli/m1.jpg",NA,NA,NA
5,3,0,2.984805,"stimuli/m4.jpg","stimuli/m1.jpg",1,"stimuli/Stationary & school supply.png","stimuli/Vehicle.png","stimuli/Gamestoy & entertainment.png","stimuli/Clothing.png",4,"stimuli/objects/hikingshoe01.jpg",1,"stimuli/m4.jpg",NA,NA,NA
5,NA,0,NA,"stimuli/m1.jpg","stimuli/m4.jpg",1,"stimuli/Clothing.png","stimuli/Stationary & school supply.png","stimuli/Vehicle.png","stimuli/Gamestoy & entertainment.png",2,"stimuli/objects/book01b.jpg",1,"stimuli/m1.jpg",NA,NA,NA
5,2,0,1.281055,"stimuli/m4.jpg","stimuli/m1.jpg",1,"stimuli/Stationary & school supply.png","stimuli/Gamestoy & entertainment.png","stimuli/Vehicle.png","stimuli/Clothing.png",4,"stimuli/objects/shoelace.jpg",1,"stimuli/m4.jpg",NA,NA,NA
5,1,1,0.759915,"stimuli/m1.jpg","stimuli/m4.jpg",2,"stimuli/Clothing.png","stimuli/Stationary & school supply.png","stimuli/Vehicle.png","stimuli/Gamestoy & entertainment.png",1,"stimuli/objects/moccasin.jpg",1,"stimuli/m4.jpg",NA,NA,NA
5,2,1,0.93464,"stimuli/m1.jpg","stimuli/m4.jpg",2,"stimuli/Gamestoy & entertainment.png","stimuli/Clothing.png","stimuli/Stationary & school supply.png","stimuli/Vehicle.png",2,"stimuli/objects/waders.jpg",1,"stimuli/m4.jpg",NA,NA,NA
5,2,0,3.780505,"stimuli/m4.jpg","stimuli/m1.jpg",2,"stimuli/Vehicle.png","stimuli/Gamestoy & entertainment.png","stimuli/Stationary & school supply.png","stimuli/Clothing.png",3,"stimuli/objects/eraser.jpg",1,"stimuli/m1.jpg",NA,NA,NA
5,1,1,1.498525,"stimuli/m4.jpg","stimuli/m1.jpg",2,"stimuli/Stationary & school supply.png","stimuli/Vehicle.png","stimuli/Clothing.png","stimuli/Gamestoy & entertainment.png",1,"stimuli/objects/fountainpen.jpg",1,"stimuli/m1.jpg",NA,NA,NA
5,2,1,0.83993,"stimuli/m4.jpg","stimuli/m1.jpg",1,"stimuli/Vehicle.png","stimuli/Clothing.png","stimuli/Stationary & school supply.png","stimuli/Gamestoy & entertainment.png",2,"stimuli/objects/visor.jpg",1,"stimuli/m4.jpg",NA,NA,NA
5,2,1,0.809685,"stimuli/m4.jpg","stimuli/m1.jpg",1,"stimuli/Stationary & school supply.png","stimuli/Clothing.png","stimuli/Vehicle.png","stimuli/Gamestoy & entertainment.png",2,"stimuli/objects/mitten04.jpg",1,"stimuli/m4.jpg",NA,NA,NA
5,2,1,1.306735,"stimuli/m4.jpg","stimuli/m1.jpg",2,"stimuli/Clothing.png","stimuli/Stationary & school supply.png","stimuli/Vehicle.png","stimuli/Gamestoy & entertainment.png",2,"stimuli/objects/notebook03a.jpg",1,"stimuli/m1.jpg",NA,NA,NA
5,2,0,0.895315,"stimuli/m4.jpg","stimuli/m1.jpg",1,"stimuli/Vehicle.png","stimuli/Clothing.png","stimuli/Gamestoy & entertainment.png","stimuli/Stationary & school supply.png",1,"stimuli/objects/locomotive.jpg",0,"stimuli/m4.jpg",NA,NA,NA
5,2,1,1.31703,"stimuli/m4.jpg","stimuli/m1.jpg",2,"stimuli/Gamestoy & entertainment.png","stimuli/Stationary & school supply.png","stimuli/Vehicle.png","stimuli/Clothing.png",2,"stimuli/objects/mechanicalpencil02.jpg",1,"stimuli/m1.jpg",NA,NA,NA
5,2,0,0.88642,"stimuli/m4.jpg","stimuli/m1.jpg",1,"stimuli/Gamestoy & entertainment.png","stimuli/Clothing.png","stimuli/Stationary & school supply.png","stimuli/Vehicle.png",1,"stimuli/objects/rattle.jpg",0,"stimuli/m4.jpg",NA,NA,NA
5,1,0,1.83296,"stimuli/m4.jpg","stimuli/m1.jpg",1,"stimuli/Gamestoy & entertainment.png","stimuli/Vehicle.png","stimuli/Stationary & school supply.png","stimuli/Clothing.png",4,"stimuli/objects/sheriffhat.jpg",1,"stimuli/m4.jpg",NA,NA,NA
5,2,1,0.73923,"stimuli/m4.jpg","stimuli/m1.jpg",1,"stimuli/Gamestoy & entertainment.png","stimuli/Clothing.png","stimuli/Vehicle.png","stimuli/Stationary & school supply.png",2,"stimuli/objects/jeans01.jpg",1,"stimuli/m4.jpg",NA,NA,NA
5,NA,NA,NA,"","",NA,"","","","",NA,"",NA,"",NA,NA,NA
5,NA,NA,NA,"stimuli/m2.jpg","stimuli/m5.jpg",2,"stimuli/Outdoor activity & sport item.png","stimuli/Hand labour tool & accessory.png","stimuli/Electronic device & accessory.png","stimuli/Kitchen & utensil.png",2,"stimuli/objects/jumpingjack.jpg",1,"stimuli/m5.jpg",3,0,2.28876
5,NA,NA,NA,"stimuli/m2.jpg","stimuli/m5.jpg",2,"stimuli/Hand labour tool & accessory.png","stimuli/Outdoor activity & sport item.png","stimuli/Electronic device & accessory.png","stimuli/Kitchen & utensil.png",1,"stimuli/objects/boxcutter03a.jpg",1,"stimuli/m5.jpg",3,0,1.09229
5,NA,NA,NA,"stimuli/m2.jpg","stimuli/m5.jpg",1,"stimuli/Hand labour tool & accessory.png","stimuli/Kitchen & utensil.png","stimuli/Electronic device & accessory.png","stimuli/Outdoor activity & sport item.png",2,"stimuli/objects/huntingknife.jpg",0,"stimuli/m2.jpg",4,0,2.849825
5,NA,NA,NA,"stimuli/m5.jpg","stimuli/m2.jpg",2,"stimuli/Kitchen & utensil.png","stimuli/Electronic device & accessory.png","stimuli/Hand labour tool & accessory.png","stimuli/Outdoor activity & sport item.png",4,"stimuli/objects/footballhelmet.jpg",1,"stimuli/m2.jpg",1,0,1.464505
5,NA,NA,NA,"stimuli/m5.jpg","stimuli/m2.jpg",1,"stimuli/Outdoor activity & sport item.png","stimuli/Hand labour tool & accessory.png","stimuli/Kitchen & utensil.png","stimuli/Electronic device & accessory.png",2,"stimuli/objects/handrake01a.jpg",1,"stimuli/m5.jpg",2,1,1.846015
5,NA,NA,NA,"stimuli/m2.jpg","stimuli/m5.jpg",1,"stimuli/Outdoor activity & sport item.png","stimuli/Electronic device & accessory.png","stimuli/Hand labour tool & accessory.png","stimuli/Kitchen & utensil.png",1,"stimuli/objects/crosscountryski.jpg",1,"stimuli/m2.jpg",4,0,2.412965
5,NA,NA,NA,"stimuli/m5.jpg","stimuli/m2.jpg",2,"stimuli/Hand labour tool & accessory.png","stimuli/Electronic device & accessory.png","stimuli/Outdoor activity & sport item.png","stimuli/Kitchen & utensil.png",2,"stimuli/objects/television.jpg",0,"stimuli/m2.jpg",1,0,3.697685
5,NA,NA,NA,"stimuli/m5.jpg","stimuli/m2.jpg",2,"stimuli/Kitchen & utensil.png","stimuli/Outdoor activity & sport item.png","stimuli/Hand labour tool & accessory.png","stimuli/Electronic device & accessory.png",2,"stimuli/objects/hose.jpg",1,"stimuli/m2.jpg",1,0,3.49598
5,NA,NA,NA,"stimuli/m2.jpg","stimuli/m5.jpg",2,"stimuli/Hand labour tool & accessory.png","stimuli/Electronic device & accessory.png","stimuli/Kitchen & utensil.png","stimuli/Outdoor activity & sport item.png",1,"stimuli/objects/solderingiron.jpg",1,"stimuli/m5.jpg",2,0,2.441155
5,NA,NA,NA,"stimuli/m2.jpg","stimuli/m5.jpg",2,"stimuli/Electronic device & accessory.png","stimuli/Kitchen & utensil.png","stimuli/Hand labour tool & accessory.png","stimuli/Outdoor activity & sport item.png",3,"stimuli/objects/gavel.jpg",1,"stimuli/m5.jpg",1,0,1.008915
5,NA,NA,NA,"stimuli/m5.jpg","stimuli/m2.jpg",1,"stimuli/Kitchen & utensil.png","stimuli/Electronic device & accessory.png","stimuli/Outdoor activity & sport item.png","stimuli/Hand labour tool & accessory.png",4,"stimuli/objects/boxcutter03a.jpg",1,"stimuli/m5.jpg",NA,0,NA
5,NA,NA,NA,"stimuli/m2.jpg","stimuli/m5.jpg",2,"stimuli/Electronic device & accessory.png","stimuli/Hand labour tool & accessory.png","stimuli/Outdoor activity & sport item.png","stimuli/Kitchen & utensil.png",1,"stimuli/objects/walkietalkie.jpg",0,"stimuli/m5.jpg",1,1,1.230845
5,NA,NA,NA,"stimuli/m2.jpg","stimuli/m5.jpg",1,"stimuli/Kitchen & utensil.png","stimuli/Electronic device & accessory.png","stimuli/Hand labour tool & accessory.png","stimuli/Outdoor activity & sport item.png",1,"stimuli/objects/coffeemaker.jpg",0,"stimuli/m2.jpg",NA,0,NA
5,NA,NA,NA,"stimuli/m5.jpg","stimuli/m2.jpg",2,"stimuli/Outdoor activity & sport item.png","stimuli/Electronic device & accessory.png","stimuli/Kitchen & utensil.png","stimuli/Hand labour tool & accessory.png",1,"stimuli/objects/bicycle.jpg",1,"stimuli/m2.jpg",4,0,1.28979
5,NA,NA,NA,"stimuli/m2.jpg","stimuli/m5.jpg",1,"stimuli/Kitchen & utensil.png","stimuli/Outdoor activity & sport item.png","stimuli/Electronic device & accessory.png","stimuli/Hand labour tool & accessory.png",2,"stimuli/objects/punchingbag.jpg",1,"stimuli/m2.jpg",1,0,1.18438
5,NA,NA,NA,"stimuli/m5.jpg","stimuli/m2.jpg",1,"stimuli/Electronic device & accessory.png","stimuli/Outdoor activity & sport item.png","stimuli/Hand labour tool & accessory.png","stimuli/Kitchen & utensil.png",2,"stimuli/objects/footballhelmet.jpg",0,"stimuli/m5.jpg",1,0,0.99537
5,NA,NA,NA,"stimuli/m5.jpg","stimuli/m2.jpg",1,"stimuli/Kitchen & utensil.png","stimuli/Hand labour tool & accessory.png","stimuli/Electronic device & accessory.png","stimuli/Outdoor activity & sport item.png",4,"stimuli/objects/swing.jpg",0,"stimuli/m5.jpg",4,1,2.16524
5,NA,NA,NA,"stimuli/m2.jpg","stimuli/m5.jpg",2,"stimuli/Hand labour tool & accessory.png","stimuli/Electronic device & accessory.png","stimuli/Outdoor activity & sport item.png","stimuli/Kitchen & utensil.png",1,"stimuli/objects/pitchfork.jpg",1,"stimuli/m5.jpg",3,0,1.238435
5,NA,NA,NA,"stimuli/m5.jpg","stimuli/m2.jpg",2,"stimuli/Hand labour tool & accessory.png","stimuli/Outdoor activity & sport item.png","stimuli/Electronic device & accessory.png","stimuli/Kitchen & utensil.png",2,"stimuli/objects/bicycle.jpg",1,"stimuli/m2.jpg",1,0,1.62202
5,NA,NA,NA,"stimuli/m5.jpg","stimuli/m2.jpg",1,"stimuli/Hand labour tool & accessory.png","stimuli/Outdoor activity & sport item.png","stimuli/Kitchen & utensil.png","stimuli/Electronic device & accessory.png",3,"stimuli/objects/freezer02.jpg",0,"stimuli/m5.jpg",2,0,2.48284
5,NA,NA,NA,"stimuli/m2.jpg","stimuli/m5.jpg",1,"stimuli/Kitchen & utensil.png","stimuli/Hand labour tool & accessory.png","stimuli/Electronic device & accessory.png","stimuli/Outdoor activity & sport item.png",2,"stimuli/objects/handrake01a.jpg",0,"stimuli/m2.jpg",4,0,1.172155
5,NA,NA,NA,"stimuli/m5.jpg","stimuli/m2.jpg",1,"stimuli/Outdoor activity & sport item.png","stimuli/Electronic device & accessory.png","stimuli/Hand labour tool & accessory.png","stimuli/Kitchen & utensil.png",3,"stimuli/objects/jumpingjack.jpg",1,"stimuli/m5.jpg",4,0,1.57089
5,NA,NA,NA,"stimuli/m5.jpg","stimuli/m2.jpg",2,"stimuli/Electronic device & accessory.png","stimuli/Kitchen & utensil.png","stimuli/Hand labour tool & accessory.png","stimuli/Outdoor activity & sport item.png",4,"stimuli/objects/bicycle.jpg",1,"stimuli/m2.jpg",4,1,1.648705
5,NA,NA,NA,"stimuli/m5.jpg","stimuli/m2.jpg",1,"stimuli/Hand labour tool & accessory.png","stimuli/Outdoor activity & sport item.png","stimuli/Electronic device & accessory.png","stimuli/Kitchen & utensil.png",1,"stimuli/objects/jumpingjack.jpg",1,"stimuli/m5.jpg",3,0,1.569755
5,NA,NA,NA,"stimuli/m2.jpg","stimuli/m5.jpg",2,"stimuli/Outdoor activity & sport item.png","stimuli/Electronic device & accessory.png","stimuli/Hand labour tool & accessory.png","stimuli/Kitchen & utensil.png",4,"stimuli/objects/jug.jpg",0,"stimuli/m5.jpg",4,1,2.67256
5,NA,NA,NA,"stimuli/m2.jpg","stimuli/m5.jpg",1,"stimuli/Electronic device & accessory.png","stimuli/Hand labour tool & accessory.png","stimuli/Kitchen & utensil.png","stimuli/Outdoor activity & sport item.png",4,"stimuli/objects/racquetballracket.jpg",1,"stimuli/m2.jpg",4,1,2.902535
5,NA,NA,NA,"stimuli/m2.jpg","stimuli/m5.jpg",2,"stimuli/Kitchen & utensil.png","stimuli/Outdoor activity & sport item.png","stimuli/Electronic device & accessory.png","stimuli/Hand labour tool & accessory.png",4,"stimuli/objects/jumpingjack.jpg",1,"stimuli/m5.jpg",1,0,0.6425
5,NA,NA,NA,"stimuli/m2.jpg","stimuli/m5.jpg",2,"stimuli/Hand labour tool & accessory.png","stimuli/Kitchen & utensil.png","stimuli/Electronic device & accessory.png","stimuli/Outdoor activity & sport item.png",1,"stimuli/objects/hedgetrimmer.jpg",1,"stimuli/m5.jpg",4,0,2.547405
5,NA,NA,NA,"stimuli/m5.jpg","stimuli/m2.jpg",1,"stimuli/Kitchen & utensil.png","stimuli/Outdoor activity & sport item.png","stimuli/Electronic device & accessory.png","stimuli/Hand labour tool & accessory.png",4,"stimuli/objects/gavel.jpg",1,"stimuli/m5.jpg",3,0,2.27539
5,NA,NA,NA,"stimuli/m2.jpg","stimuli/m5.jpg",2,"stimuli/Electronic device & accessory.png","stimuli/Hand labour tool & accessory.png","stimuli/Kitchen & utensil.png","stimuli/Outdoor activity & sport item.png",2,"stimuli/objects/gavel.jpg",1,"stimuli/m5.jpg",2,1,1.395215
5,NA,NA,NA,"stimuli/m2.jpg","stimuli/m5.jpg",1,"stimuli/Kitchen & utensil.png","stimuli/Hand labour tool & accessory.png","stimuli/Outdoor activity & sport item.png","stimuli/Electronic device & accessory.png",3,"stimuli/objects/racquetballracket.jpg",1,"stimuli/m2.jpg",4,0,2.70045
5,NA,NA,NA,"stimuli/m5.jpg","stimuli/m2.jpg",2,"stimuli/Kitchen & utensil.png","stimuli/Electronic device & accessory.png","stimuli/Outdoor activity & sport item.png","stimuli/Hand labour tool & accessory.png",3,"stimuli/objects/punchingbag.jpg",1,"stimuli/m2.jpg",1,0,2.175
5,NA,NA,NA,"stimuli/m2.jpg","stimuli/m5.jpg",2,"stimuli/Outdoor activity & sport item.png","stimuli/Hand labour tool & accessory.png","stimuli/Kitchen & utensil.png","stimuli/Electronic device & accessory.png",4,"stimuli/objects/camera01a.jpg",0,"stimuli/m5.jpg",3,0,1.257965
5,NA,NA,NA,"stimuli/m2.jpg","stimuli/m5.jpg",2,"stimuli/Outdoor activity & sport item.png","stimuli/Electronic device & accessory.png","stimuli/Kitchen & utensil.png","stimuli/Hand labour tool & accessory.png",4,"stimuli/objects/jumpingjack.jpg",1,"stimuli/m5.jpg",1,0,1.78187
5,NA,NA,NA,"stimuli/m2.jpg","stimuli/m5.jpg",1,"stimuli/Electronic device & accessory.png","stimuli/Kitchen & utensil.png","stimuli/Outdoor activity & sport item.png","stimuli/Hand labour tool & accessory.png",3,"stimuli/objects/swing.jpg",1,"stimuli/m2.jpg",1,0,2.130885
5,NA,NA,NA,"stimuli/m5.jpg","stimuli/m2.jpg",1,"stimuli/Hand labour tool & accessory.png","stimuli/Kitchen & utensil.png","stimuli/Outdoor activity & sport item.png","stimuli/Electronic device & accessory.png",1,"stimuli/objects/pitchfork.jpg",1,"stimuli/m5.jpg",2,0,1.04733
5,NA,NA,NA,"stimuli/m2.jpg","stimuli/m5.jpg",1,"stimuli/Electronic device & accessory.png","stimuli/Outdoor activity & sport item.png","stimuli/Hand labour tool & accessory.png","stimuli/Kitchen & utensil.png",2,"stimuli/objects/racquetballracket.jpg",1,"stimuli/m2.jpg",3,0,2.0411
5,NA,NA,NA,"stimuli/m2.jpg","stimuli/m5.jpg",1,"stimuli/Outdoor activity & sport item.png","stimuli/Hand labour tool & accessory.png","stimuli/Electronic device & accessory.png","stimuli/Kitchen & utensil.png",1,"stimuli/objects/telescope.jpg",1,"stimuli/m2.jpg",1,1,0.718405
5,NA,NA,NA,"stimuli/m5.jpg","stimuli/m2.jpg",2,"stimuli/Hand labour tool & accessory.png","stimuli/Kitchen & utensil.png","stimuli/Electronic device & accessory.png","stimuli/Outdoor activity & sport item.png",4,"stimuli/objects/footballhelmet.jpg",1,"stimuli/m2.jpg",4,1,1.5363
5,NA,NA,NA,"stimuli/m5.jpg","stimuli/m2.jpg",2,"stimuli/Kitchen & utensil.png","stimuli/Hand labour tool & accessory.png","stimuli/Outdoor activity & sport item.png","stimuli/Electronic device & accessory.png",3,"stimuli/objects/swing.jpg",1,"stimuli/m2.jpg",3,1,1.72037
5,NA,NA,NA,"stimuli/m5.jpg","stimuli/m2.jpg",1,"stimuli/Outdoor activity & sport item.png","stimuli/Hand labour tool & accessory.png","stimuli/Electronic device & accessory.png","stimuli/Kitchen & utensil.png",2,"stimuli/objects/pitchfork.jpg",1,"stimuli/m5.jpg",4,0,1.796525
5,NA,NA,NA,"stimuli/m2.jpg","stimuli/m5.jpg",1,"stimuli/Hand labour tool & accessory.png","stimuli/Outdoor activity & sport item.png","stimuli/Electronic device & accessory.png","stimuli/Kitchen & utensil.png",2,"stimuli/objects/footballhelmet.jpg",1,"stimuli/m2.jpg",2,1,1.46501
5,NA,NA,NA,"stimuli/m5.jpg","stimuli/m2.jpg",2,"stimuli/Hand labour tool & accessory.png","stimuli/Outdoor activity & sport item.png","stimuli/Kitchen & utensil.png","stimuli/Electronic device & accessory.png",2,"stimuli/objects/rollerblade.jpg",1,"stimuli/m2.jpg",2,1,0.7214
5,NA,NA,NA,"stimuli/m2.jpg","stimuli/m5.jpg",1,"stimuli/Outdoor activity & sport item.png","stimuli/Kitchen & utensil.png","stimuli/Hand labour tool & accessory.png","stimuli/Electronic device & accessory.png",1,"stimuli/objects/crosscountryski.jpg",1,"stimuli/m2.jpg",1,1,0.718555
5,NA,NA,NA,"stimuli/m5.jpg","stimuli/m2.jpg",1,"stimuli/Kitchen & utensil.png","stimuli/Outdoor activity & sport item.png","stimuli/Hand labour tool & accessory.png","stimuli/Electronic device & accessory.png",3,"stimuli/objects/solderingiron.jpg",1,"stimuli/m5.jpg",1,0,1.83817
5,NA,NA,NA,"stimuli/m5.jpg","stimuli/m2.jpg",2,"stimuli/Kitchen & utensil.png","stimuli/Hand labour tool & accessory.png","stimuli/Electronic device & accessory.png","stimuli/Outdoor activity & sport item.png",2,"stimuli/objects/boxcutter03a.jpg",0,"stimuli/m2.jpg",4,0,1.22744
5,NA,NA,NA,"stimuli/m2.jpg","stimuli/m5.jpg",2,"stimuli/Kitchen & utensil.png","stimuli/Electronic device & accessory.png","stimuli/Hand labour tool & accessory.png","stimuli/Outdoor activity & sport item.png",3,"stimuli/objects/gavel.jpg",1,"stimuli/m5.jpg",3,1,1.818085
5,NA,NA,NA,"stimuli/m5.jpg","stimuli/m2.jpg",2,"stimuli/Outdoor activity & sport item.png","stimuli/Hand labour tool & accessory.png","stimuli/Kitchen & utensil.png","stimuli/Electronic device & accessory.png",4,"stimuli/objects/jack.jpg",0,"stimuli/m2.jpg",1,0,2.48411
5,NA,NA,NA,"","",NA,"","","","",NA,"",NA,"",NA,NA,NA
