"participant","recog_resp.keys","recog_resp.rt","conf_resp.keys","conf_resp.rt","resp_assoc.keys","resp_assoc.rt","images","corr_ans","type"
5,"",NA,NA,NA,"",NA,"","",""
5,"",NA,NA,NA,"",NA,"","",""
5,"",NA,NA,NA,"",NA,"","",""
5,"right",9.133785,2,5.353,"",NA,"stimuli/objects/carjack.jpg","right","new"
5,"left",4.95104,4,1.59771,"left",12.063215,"","",""
5,"",NA,NA,NA,"",NA,"stimuli/objects/peeler01.jpg","left","old"
5,"left",6.136155,4,8.3961,"left",2.25191,"","",""
5,"",NA,NA,NA,"",NA,"stimuli/objects/fishinghook03.jpg","left","old"
5,"right",6.789085,3,4.9101,"",NA,"stimuli/objects/frisbee.jpg","right","new"
5,"left",9.753625,2,1.995055,"right",2.448485,"","",""
5,"",NA,NA,NA,"",NA,"stimuli/objects/generator.jpg","right","new"
5,"right",4.813365,3,3.581685,"",NA,"stimuli/objects/pylon01.jpg","right","new"
5,"right",15.30064,2,0.944685,"",NA,"stimuli/objects/paintbrush01.jpg","right","new"
5,"left",2.443865,4,2.304085,"right",4.17084,"","",""
5,"",NA,NA,NA,"",NA,"stimuli/objects/saw02b.jpg","left","old"
5,"left",2.20078,4,2.627085,"left",2.26065,"","",""
5,"",NA,NA,NA,"",NA,"stimuli/objects/handmixer01d.jpg","left","old"
5,"left",6.571825,2,0.80118,"right",4.445155,"","",""
5,"",NA,NA,NA,"",NA,"stimuli/objects/videocamera01a.jpg","left","old"
5,"left",1.59711,4,1.13999,"left",3.23666,"","",""
5,"",NA,NA,NA,"",NA,"stimuli/objects/cork02.jpg","left","old"
5,"left",4.12956,3,0.927305,"right",1.84159,"","",""
5,"",NA,NA,NA,"",NA,"stimuli/objects/ipod.jpg","left","old"
5,"left",2.601905,4,1.0377,"right",1.132635,"","",""
5,"",NA,NA,NA,"",NA,"stimuli/objects/fluorescentlightbulb.jpg","left","old"
5,"left",5.156485,3,0.884205,"left",2.862915,"","",""
5,"",NA,NA,NA,"",NA,"stimuli/objects/sippycup.jpg","right","new"
5,"right",10.79585,2,1.761705,"",NA,"stimuli/objects/snowshoe.jpg","right","new"
5,"left",1.614895,4,2.90734,"right",3.13346,"","",""
5,"",NA,NA,NA,"",NA,"stimuli/objects/metalbrush.jpg","left","old"
5,"left",3.820645,4,1.332765,"right",1.24659,"","",""
5,"",NA,NA,NA,"",NA,"stimuli/objects/slidetray.jpg","left","old"
5,"right",5.862225,3,0.806165,"",NA,"stimuli/objects/spotlight.jpg","right","new"
5,"left",2.95837,4,0.814565,"left",2.682445,"","",""
5,"",NA,NA,NA,"",NA,"stimuli/objects/bottlecap.jpg","left","old"
5,"right",9.707245,3,1.168455,"",NA,"stimuli/objects/reflector.jpg","left","old"
5,"right",4.2773,3,2.69621,"",NA,"stimuli/objects/binoculars01b.jpg","right","new"
5,"left",1.127265,4,0.86476,"right",2.180855,"","",""
5,"",NA,NA,NA,"",NA,"stimuli/objects/puttyknife.jpg","left","old"
5,"left",2.74451,4,0.9118,"right",1.314055,"","",""
5,"",NA,NA,NA,"",NA,"stimuli/objects/knifesharpener.jpg","left","old"
5,"right",4.525405,3,6.707535,"",NA,"stimuli/objects/walkman.jpg","right","new"
5,"left",1.840435,4,1.20908,"right",4.01575,"","",""
5,"",NA,NA,NA,"",NA,"stimuli/objects/lectern01.jpg","left","old"
5,"left",2.307055,4,3.425555,"left",2.09093,"","",""
5,"",NA,NA,NA,"",NA,"stimuli/objects/poolnet.jpg","left","old"
5,"right",9.264765,2,1.099185,"",NA,"stimuli/objects/glass02a.jpg","right","new"
5,"right",4.007145,3,8.62819,"",NA,"stimuli/objects/stepladder.jpg","right","new"
5,"right",7.48429,2,3.396505,"",NA,"stimuli/objects/golfball.jpg","right","new"
5,"right",8.504705,3,1.448385,"",NA,"stimuli/objects/ceilingspeaker.jpg","right","new"
5,"left",4.443315,2,7.51404,"right",3.33443,"","",""
5,"",NA,NA,NA,"",NA,"stimuli/objects/nailgun.jpg","right","new"
5,"right",4.628255,3,1.56926,"",NA,"stimuli/objects/clock01a.jpg","right","new"
5,"left",1.986345,4,0.87942,"left",1.048925,"","",""
5,"",NA,NA,NA,"",NA,"stimuli/objects/anchor.jpg","left","old"
5,"left",4.896395,3,0.83728,"left",1.49571,"","",""
5,"",NA,NA,NA,"",NA,"stimuli/objects/shoulderpad.jpg","right","new"
5,"left",13.91398,4,1.49267,"right",0.814435,"","",""
5,"",NA,NA,NA,"",NA,"stimuli/objects/weedwacker.jpg","left","old"
5,"left",2.043545,4,0.928825,"right",1.385545,"","",""
5,"",NA,NA,NA,"",NA,"stimuli/objects/satellitedish01.jpg","left","old"
5,"left",2.613295,3,1.197525,"right",0.59664,"","",""
5,"",NA,NA,NA,"",NA,"stimuli/objects/remotecontrol04.jpg","right","new"
5,"left",6.42805,3,0.721935,"right",0.4284,"","",""
5,"",NA,NA,NA,"",NA,"stimuli/objects/alarmclock01.jpg","left","old"
5,"left",1.26401,4,0.91646,"left",0.40522,"","",""
5,"",NA,NA,NA,"",NA,"stimuli/objects/tray.jpg","left","old"
5,"left",2.928545,4,0.73019,"left",0.51634,"","",""
5,"",NA,NA,NA,"",NA,"stimuli/objects/butterknife.jpg","left","old"
5,"left",1.29506,4,0.77838,"right",0.39453,"","",""
5,"",NA,NA,NA,"",NA,"stimuli/objects/lightbulb01.jpg","left","old"
5,"left",0.864465,4,1.318205,"right",2.34778,"","",""
5,"",NA,NA,NA,"",NA,"stimuli/objects/vhstape.jpg","left","old"
5,"left",13.264295,2,0.69739,"left",1.06917,"","",""
5,"",NA,NA,NA,"",NA,"stimuli/objects/kitchenscale01a.jpg","right","new"
5,"left",1.46428,4,0.90097,"right",1.337715,"","",""
5,"",NA,NA,NA,"",NA,"stimuli/objects/outletadapter.jpg","left","old"
5,"right",2.191375,3,6.57298,"",NA,"stimuli/objects/gymnasticring.jpg","right","new"
5,"left",1.16337,4,0.940915,"right",2.540015,"","",""
5,"",NA,NA,NA,"",NA,"stimuli/objects/drill01b.jpg","left","old"
5,"right",1.365815,4,0.917505,"",NA,"stimuli/objects/snowman.jpg","right","new"
5,"right",2.55674,3,1.08594,"",NA,"stimuli/objects/winerack.jpg","right","new"
5,"left",3.06268,2,1.936065,"left",1.270285,"","",""
5,"",NA,NA,NA,"",NA,"stimuli/objects/tongs01b.jpg","right","new"
5,"left",1.0637,4,1.01616,"right",2.61737,"","",""
5,"",NA,NA,NA,"",NA,"stimuli/objects/drillbit03a.jpg","left","old"
5,"left",1.288215,4,4.282335,"right",0.47116,"","",""
5,"",NA,NA,NA,"",NA,"stimuli/objects/fanblades.jpg","left","old"
5,"left",4.21596,2,2.825615,"left",1.061965,"","",""
5,"",NA,NA,NA,"",NA,"stimuli/objects/football.jpg","right","new"
5,"left",1.28349,4,0.997775,"right",4.69927,"","",""
5,"",NA,NA,NA,"",NA,"stimuli/objects/ducttape.jpg","right","new"
5,"left",1.7142,4,0.972935,"left",0.47702,"","",""
5,"",NA,NA,NA,"",NA,"stimuli/objects/pitcher02b.jpg","left","old"
5,"right",2.077555,3,6.253215,"",NA,"stimuli/objects/icebucket.jpg","right","new"
5,"right",1.23238,3,0.812285,"",NA,"stimuli/objects/radio01.jpg","right","new"
5,"right",4.028305,2,3.598025,"",NA,"stimuli/objects/cclamp.jpg","right","new"
5,"right",2.98349,2,0.63155,"",NA,"stimuli/objects/cashregister01.jpg","right","new"
5,"left",2.401515,3,0.7568,"left",0.42158,"","",""
5,"",NA,NA,NA,"",NA,"stimuli/objects/canoepaddle02.jpg","left","old"
5,"right",5.41232,3,3.664105,"",NA,"stimuli/objects/minifridge.jpg","right","new"
5,"left",1.525225,4,1.08155,"left",0.457425,"","",""
5,"",NA,NA,NA,"",NA,"stimuli/objects/potatomasher03b.jpg","left","old"
5,"right",5.38139,3,2.17125,"",NA,"stimuli/objects/golfbag.jpg","right","new"
5,"right",5.0243,3,0.570235,"",NA,"stimuli/objects/lock03a.jpg","right","new"
5,"right",1.21255,3,0.60114,"",NA,"stimuli/objects/faxmachine.jpg","right","new"
5,"right",2.15735,3,0.56238,"",NA,"stimuli/objects/exercisebench.jpg","right","new"
5,"right",3.765485,3,0.86229,"",NA,"stimuli/objects/carlighter02.jpg","right","new"
5,"left",1.290365,4,0.808945,"right",3.350275,"","",""
5,"",NA,NA,NA,"",NA,"stimuli/objects/watercooler.jpg","left","old"
5,"left",3.12368,4,2.94988,"right",0.447115,"","",""
5,"",NA,NA,NA,"",NA,"stimuli/objects/powercable.jpg","right","new"
5,"left",1.911605,4,2.1287,"left",0.351025,"","",""
5,"",NA,NA,NA,"",NA,"stimuli/objects/gravyboat.jpg","left","old"
5,"left",2.291495,4,1.440395,"right",1.062345,"","",""
5,"",NA,NA,NA,"",NA,"stimuli/objects/lawnmower.jpg","left","old"
5,"right",3.261545,2,1.497225,"",NA,"stimuli/objects/skateboard.jpg","right","new"
5,"left",2.147145,3,1.613685,"right",1.69345,"","",""
5,"",NA,NA,NA,"",NA,"stimuli/objects/filmnegative.jpg","left","old"
5,"right",2.906575,3,12.739405,"",NA,"stimuli/objects/garlicpress02a.jpg","right","new"
5,"right",4.080245,2,0.75138,"",NA,"stimuli/objects/toolbox02.jpg","right","new"
5,"left",1.206735,4,0.862525,"left",0.395955,"","",""
5,"",NA,NA,NA,"",NA,"stimuli/objects/funnel.jpg","left","old"
5,"left",6.96478,2,0.728785,"right",0.44494,"","",""
5,"",NA,NA,NA,"",NA,"stimuli/objects/pressurewasher.jpg","left","old"
5,"right",8.48287,2,0.6084,"",NA,"stimuli/objects/studiolight.jpg","right","new"
5,"left",1.448995,4,2.72345,"right",0.67598,"","",""
5,"",NA,NA,NA,"",NA,"stimuli/objects/electricoutlet.jpg","left","old"
5,"left",0.91462,4,0.900245,"left",0.678765,"","",""
5,"",NA,NA,NA,"",NA,"stimuli/objects/cookingpot.jpg","left","old"
5,"left",1.830195,4,1.159685,"right",3.731285,"","",""
5,"",NA,NA,NA,"",NA,"stimuli/objects/dvdplayer.jpg","left","old"
5,"left",2.51291,2,1.378565,"left",2.634585,"","",""
5,"",NA,NA,NA,"",NA,"stimuli/objects/microwave.jpg","right","new"
5,"right",2.87695,3,1.648125,"",NA,"stimuli/objects/speaker04.jpg","right","new"
5,"left",1.43715,4,1.04779,"right",0.808055,"","",""
5,"",NA,NA,NA,"",NA,"stimuli/objects/level03a.jpg","left","old"
5,"left",1.232215,4,0.930275,"left",0.38902,"","",""
5,"",NA,NA,NA,"",NA,"stimuli/objects/baseball01a.jpg","left","old"
5,"left",1.393,4,0.763955,"left",0.390295,"","",""
5,"",NA,NA,NA,"",NA,"stimuli/objects/fishingrod.jpg","left","old"
5,"right",3.354655,2,0.96169,"",NA,"stimuli/objects/chisel02b.jpg","right","new"
5,"right",1.51362,4,0.849925,"",NA,"stimuli/objects/avcable.jpg","right","new"
5,"right",1.30885,4,1.99257,"",NA,"stimuli/objects/snowbrush.jpg","right","new"
5,"left",3.27915,2,3.71826,"left",0.86435,"","",""
5,"",NA,NA,NA,"",NA,"stimuli/objects/snowboard.jpg","left","old"
5,"right",2.62168,3,1.37664,"",NA,"stimuli/objects/leafblower01.jpg","right","new"
5,"right",1.176795,4,0.6612,"",NA,"stimuli/objects/umbrella04.jpg","right","new"
5,"right",2.59357,3,0.715495,"",NA,"stimuli/objects/printer02.jpg","right","new"
5,"left",1.88219,4,1.71267,"left",0.64395,"","",""
5,"",NA,NA,NA,"",NA,"stimuli/objects/oven.jpg","left","old"
5,"left",1.850915,4,1.88722,"left",0.491145,"","",""
5,"",NA,NA,NA,"",NA,"stimuli/objects/backpack01a.jpg","left","old"
5,"left",0.869685,4,0.78332,"left",0.76561,"","",""
5,"",NA,NA,NA,"",NA,"stimuli/objects/martiniglass01b.jpg","left","old"
5,"left",4.913815,2,1.58602,"right",0.366775,"","",""
5,"",NA,NA,NA,"",NA,"stimuli/objects/measuringtape01.jpg","right","new"
5,"left",0.92974,4,1.04047,"left",1.149975,"","",""
5,"",NA,NA,NA,"",NA,"stimuli/objects/bowl02a.jpg","left","old"
5,"right",4.970885,2,7.843365,"",NA,"stimuli/objects/lifesaver.jpg","left","old"
5,"right",1.20698,4,1.460005,"",NA,"stimuli/objects/battery02b.jpg","right","new"
5,"right",8.037255,2,0.49678,"",NA,"stimuli/objects/tableknife02.jpg","right","new"
5,"right",1.15705,3,1.712705,"",NA,"stimuli/objects/metalscissors.jpg","right","new"
5,"right",2.04516,2,0.70614,"",NA,"stimuli/objects/adjustablewrench01b.jpg","left","old"
5,"left",0.96046,4,0.80372,"right",0.90431,"","",""
5,"",NA,NA,NA,"",NA,"stimuli/objects/paintroller01.jpg","left","old"
5,"right",3.379745,3,0.94697,"",NA,"stimuli/objects/securitycamera.jpg","left","old"
5,"right",1.51475,3,0.983585,"",NA,"stimuli/objects/screwdriver04b.jpg","right","new"
5,"left",2.363145,3,2.3078,"left",0.3213,"","",""
5,"",NA,NA,NA,"",NA,"stimuli/objects/surfboard.jpg","left","old"
5,"left",2.17545,3,0.945185,"left",1.47839,"","",""
5,"",NA,NA,NA,"",NA,"stimuli/objects/sportbag.jpg","left","old"
5,"right",3.011555,3,3.6845,"",NA,"stimuli/objects/videotape01b.jpg","right","new"
5,"right",1.482075,4,0.93025,"",NA,"stimuli/objects/boogieboard.jpg","right","new"
5,"left",1.30515,4,2.900915,"left",3.77337,"","",""
5,"",NA,NA,NA,"",NA,"stimuli/objects/cooler01.jpg","left","old"
5,"right",2.26036,4,2.258995,"",NA,"stimuli/objects/punchingball.jpg","right","new"
5,"right",1.45403,3,2.912735,"",NA,"stimuli/objects/basketballhoop01.jpg","right","new"
5,"right",2.728635,2,0.3848,"",NA,"stimuli/objects/laptop01a.jpg","right","new"
5,"left",1.19641,3,0.678055,"right",0.780445,"","",""
5,"",NA,NA,NA,"",NA,"stimuli/objects/floppydisk02a.jpg","left","old"
5,"right",3.504855,2,1.117025,"",NA,"stimuli/objects/tripod01.jpg","right","new"
5,"right",1.008715,3,0.592185,"",NA,"stimuli/objects/megaphone.jpg","right","new"
5,"left",1.082905,4,1.33367,"right",0.39571,"","",""
5,"",NA,NA,NA,"",NA,"stimuli/objects/painttray.jpg","left","old"
5,"left",1.105215,4,0.700385,"right",0.618985,"","",""
5,"",NA,NA,NA,"",NA,"stimuli/objects/squeegee01b.jpg","left","old"
5,"right",3.980145,2,5.598985,"",NA,"stimuli/objects/desktopcomputer.jpg","left","old"
5,"right",1.236015,3,0.58877,"",NA,"stimuli/objects/bowlingball.jpg","right","new"
5,"left",0.913275,4,2.01337,"left",0.815865,"","",""
5,"",NA,NA,NA,"",NA,"stimuli/objects/shotglass.jpg","left","old"
5,"left",3.28936,2,0.97652,"right",0.57783,"","",""
5,"",NA,NA,NA,"",NA,"stimuli/objects/audiocablesplitter.jpg","right","new"
5,"right",1.375515,3,2.145285,"",NA,"stimuli/objects/electricmixer.jpg","right","new"
5,"right",2.98302,2,0.330385,"",NA,"stimuli/objects/icepack.jpg","right","new"
5,"right",1.09675,4,1.5922,"",NA,"stimuli/objects/toasteroven.jpg","right","new"
5,"right",1.784655,3,1.90347,"",NA,"stimuli/objects/pda.jpg","right","new"
5,"right",3.00881,2,2.18475,"",NA,"stimuli/objects/taperecorder.jpg","right","new"
5,"left",1.88037,3,1.09524,"right",0.37348,"","",""
5,"",NA,NA,NA,"",NA,"stimuli/objects/expansioncard.jpg","left","old"
5,"right",3.24401,2,0.57415,"",NA,"stimuli/objects/butterdish.jpg","right","new"
5,"left",1.05653,4,1.073275,"right",0.57309,"","",""
5,"",NA,NA,NA,"",NA,"stimuli/objects/gastank.jpg","left","old"
5,"right",2.921045,3,0.931995,"",NA,"stimuli/objects/microphone01.jpg","right","new"
5,"right",2.30841,2,1.11893,"",NA,"stimuli/objects/peppermill02b.jpg","right","new"
5,"left",1.258205,4,1.1489,"right",0.35428,"","",""
5,"",NA,NA,NA,"",NA,"stimuli/objects/caulking.jpg","left","old"
5,"left",1.06703,4,1.300105,"left",0.459025,"","",""
5,"",NA,NA,NA,"",NA,"stimuli/objects/aluminiumfoil.jpg","left","old"
5,"left",1.792585,3,1.031625,"left",0.32673,"","",""
5,"",NA,NA,NA,"",NA,"stimuli/objects/bastingbrush.jpg","right","new"
5,"right",1.258235,4,2.263435,"",NA,"stimuli/objects/webcam.jpg","right","new"
5,"left",2.21373,2,4.349735,"left",1.750025,"","",""
5,"",NA,NA,NA,"",NA,"stimuli/objects/thermos.jpg","left","old"
5,"right",1.371475,3,2.169115,"",NA,"stimuli/objects/soundmixer.jpg","right","new"
5,"left",2.192455,2,1.314265,"right",0.615095,"","",""
5,"",NA,NA,NA,"",NA,"stimuli/objects/mitresaw.jpg","right","new"
5,"left",1.212515,4,0.92043,"right",0.309895,"","",""
5,"",NA,NA,NA,"",NA,"stimuli/objects/stubbywrench01a.jpg","left","old"
5,"right",3.71088,2,0.961635,"",NA,"stimuli/objects/exercisebike.jpg","left","old"
5,"left",1.582655,4,0.899155,"right",0.779035,"","",""
5,"",NA,NA,NA,"",NA,"stimuli/objects/ipad02.jpg","left","old"
5,"left",1.756955,3,0.73885,"right",0.32388,"","",""
5,"",NA,NA,NA,"",NA,"stimuli/objects/payphone.jpg","left","old"
5,"",NA,NA,NA,"",NA,"","",""
5,"left",3.228995,4,3.81333,"left",1.37364,"","",""
5,"",NA,NA,NA,"",NA,"stimuli/objects/shinpad.jpg","left","old"
5,"right",2.557515,2,1.13181,"",NA,"stimuli/objects/lockingplier.jpg","right","new"
5,"left",1.545855,4,0.90228,"right",1.76515,"","",""
5,"",NA,NA,NA,"",NA,"stimuli/objects/carantenna.jpg","left","old"
5,"left",2.407515,2,0.74288,"left",1.141635,"","",""
5,"",NA,NA,NA,"",NA,"stimuli/objects/hockeygoaliepad.jpg","left","old"
5,"left",5.229385,3,1.093615,"right",1.21673,"","",""
5,"",NA,NA,NA,"",NA,"stimuli/objects/wateringcan.jpg","left","old"
5,"right",3.77152,3,0.934235,"",NA,"stimuli/objects/ladle02a.jpg","right","new"
5,"left",1.491735,3,0.700445,"left",0.29833,"","",""
5,"",NA,NA,NA,"",NA,"stimuli/objects/waterbottle03.jpg","left","old"
5,"left",0.882025,4,0.92151,"left",0.34444,"","",""
5,"",NA,NA,NA,"",NA,"stimuli/objects/dishrack.jpg","left","old"
5,"right",3.071025,4,0.57296,"",NA,"stimuli/objects/shopvac.jpg","right","new"
5,"right",1.28653,4,0.66941,"",NA,"stimuli/objects/cameracase01a.jpg","right","new"
5,"left",0.962885,4,0.906655,"left",0.58218,"","",""
5,"",NA,NA,NA,"",NA,"stimuli/objects/spoon01.jpg","left","old"
5,"right",1.61133,4,0.39856,"",NA,"stimuli/objects/tablesaw.jpg","right","new"
5,"right",1.951005,2,1.11413,"",NA,"stimuli/objects/flashlight02b.jpg","right","new"
5,"left",1.742445,4,0.56283,"right",1.892755,"","",""
5,"",NA,NA,NA,"",NA,"stimuli/objects/jigsaw.jpg","left","old"
5,"right",5.06489,2,0.30378,"",NA,"stimuli/objects/cassettetape01a.jpg","right","new"
5,"right",2.515085,3,3.413985,"",NA,"stimuli/objects/speedball.jpg","right","new"
5,"left",0.95358,4,0.700955,"right",1.46585,"","",""
5,"",NA,NA,NA,"",NA,"stimuli/objects/rope03.jpg","left","old"
5,"left",1.39507,4,1.211195,"right",0.38324,"","",""
5,"",NA,NA,NA,"",NA,"stimuli/objects/coffeemachine.jpg","left","old"
5,"left",4.20173,2,0.631055,"left",3.34557,"","",""
5,"",NA,NA,NA,"",NA,"stimuli/objects/fuse.jpg","left","old"
5,"left",2.90297,4,2.43726,"right",0.33325,"","",""
5,"",NA,NA,NA,"",NA,"stimuli/objects/filmroll.jpg","left","old"
5,"right",2.862535,2,2.140195,"",NA,"stimuli/objects/solderingwire.jpg","right","new"
5,"right",1.2678,2,0.47679,"",NA,"stimuli/objects/lamp04a.jpg","left","old"
5,"right",2.160885,4,1.732515,"",NA,"stimuli/objects/nutcracker01.jpg","right","new"
5,"left",1.01137,4,0.60229,"right",0.710595,"","",""
5,"",NA,NA,NA,"",NA,"stimuli/objects/nintendods.jpg","left","old"
5,"left",5.49393,2,1.70054,"left",1.18299,"","",""
5,"",NA,NA,NA,"",NA,"stimuli/objects/swimgoggles.jpg","left","old"
5,"right",0.935885,4,1.58601,"",NA,"stimuli/objects/jar02.jpg","left","old"
5,"left",4.566815,2,1.061835,"right",2.903365,"","",""
5,"",NA,NA,NA,"",NA,"stimuli/objects/gps.jpg","left","old"
5,"left",2.727815,4,2.199675,"right",0.41256,"","",""
5,"",NA,NA,NA,"",NA,"stimuli/objects/mallet01b.jpg","left","old"
5,"left",3.99846,2,0.938055,"left",0.42627,"","",""
5,"",NA,NA,NA,"",NA,"stimuli/objects/plate01b.jpg","right","new"
5,"left",3.12699,2,5.69804,"left",0.67575,"","",""
5,"",NA,NA,NA,"",NA,"stimuli/objects/tennisracket.jpg","right","new"
5,"left",1.17806,4,2.02511,"right",0.38216,"","",""
5,"",NA,NA,NA,"",NA,"stimuli/objects/hockeypuck.jpg","left","old"
5,"right",1.204545,4,0.582815,"",NA,"stimuli/objects/stroller.jpg","right","new"
5,"right",2.055175,4,2.19578,"",NA,"stimuli/objects/pickaxe02.jpg","right","new"
5,"left",2.880005,2,0.488705,"right",0.41202,"","",""
5,"",NA,NA,NA,"",NA,"stimuli/objects/hammer01.jpg","left","old"
5,"left",3.033725,2,0.404265,"left",6.354825,"","",""
5,"",NA,NA,NA,"",NA,"stimuli/objects/patioumbrella.jpg","left","old"
5,"left",14.01745,2,2.898935,"left",0.441885,"","",""
5,"",NA,NA,NA,"",NA,"stimuli/objects/soccerball.jpg","left","old"
5,"right",2.395265,3,1.26497,"",NA,"stimuli/objects/mortarandpestle.jpg","right","new"
5,"right",1.249025,3,1.682445,"",NA,"stimuli/objects/beermug01a.jpg","right","new"
5,"left",1.23754,4,1.6825,"left",1.06732,"","",""
5,"",NA,NA,NA,"",NA,"stimuli/objects/corkscrew03a.jpg","left","old"
5,"left",1.573965,4,1.020335,"right",0.489845,"","",""
5,"",NA,NA,NA,"",NA,"stimuli/objects/leafrake.jpg","left","old"
5,"left",1.11956,4,1.02368,"right",1.173075,"","",""
5,"",NA,NA,NA,"",NA,"stimuli/objects/tape02a.jpg","left","old"
5,"left",4.667155,3,0.832225,"right",0.582425,"","",""
5,"",NA,NA,NA,"",NA,"stimuli/objects/wheel01.jpg","left","old"
5,"right",1.39131,3,1.256965,"",NA,"stimuli/objects/halogenlightbulb.jpg","right","new"
5,"right",1.275495,3,0.71456,"",NA,"stimuli/objects/wiicontroller.jpg","right","new"
5,"left",1.407915,3,2.090885,"right",0.829375,"","",""
5,"",NA,NA,NA,"",NA,"stimuli/objects/gluetube.jpg","left","old"
5,"left",1.138935,4,0.67826,"right",1.69507,"","",""
5,"",NA,NA,NA,"",NA,"stimuli/objects/handgripper.jpg","left","old"
5,"right",2.09661,3,1.212155,"",NA,"stimuli/objects/floodlight.jpg","right","new"
5,"right",1.014305,4,0.379275,"",NA,"stimuli/objects/beachumbrella01.jpg","right","new"
5,"right",1.38264,3,0.74178,"",NA,"stimuli/objects/smokedetector02.jpg","right","new"
5,"left",2.82563,2,0.270465,"right",0.885525,"","",""
5,"",NA,NA,NA,"",NA,"stimuli/objects/chandelier.jpg","left","old"
5,"left",1.38528,4,1.285825,"right",0.661725,"","",""
5,"",NA,NA,NA,"",NA,"stimuli/objects/axe01.jpg","left","old"
5,"left",1.01521,4,0.731545,"left",6.72094,"","",""
5,"",NA,NA,NA,"",NA,"stimuli/objects/ellipticalmachine.jpg","left","old"
5,"right",4.94181,3,1.276725,"",NA,"stimuli/objects/waterbottleholder.jpg","right","new"
5,"right",1.18691,3,0.642315,"",NA,"stimuli/objects/file.jpg","right","new"
5,"left",3.58246,3,1.23698,"left",1.68052,"","",""
5,"",NA,NA,NA,"",NA,"stimuli/objects/boatmotor.jpg","left","old"
5,"right",2.46429,3,1.463855,"",NA,"stimuli/objects/tent.jpg","right","new"
5,"right",1.26238,3,0.46607,"",NA,"stimuli/objects/grill.jpg","right","new"
5,"right",2.09689,2,0.400335,"",NA,"stimuli/objects/barbecue03.jpg","right","new"
5,"left",1.518605,3,0.941095,"right",1.046805,"","",""
5,"",NA,NA,NA,"",NA,"stimuli/objects/gardenshears01a.jpg","left","old"
5,"right",1.04223,2,0.570605,"",NA,"stimuli/objects/bikewheel.jpg","left","old"
5,"right",1.03383,3,1.667135,"",NA,"stimuli/objects/birdie.jpg","right","new"
5,"right",1.887395,2,6.864415,"",NA,"stimuli/objects/hockeygoaliemask.jpg","left","old"
5,"right",1.66696,4,0.979255,"",NA,"stimuli/objects/wetfloorsign.jpg","right","new"
5,"right",5.0929,2,1.799815,"",NA,"stimuli/objects/dolly01.jpg","right","new"
5,"right",2.735045,2,0.428615,"",NA,"stimuli/objects/alarmsystem.jpg","right","new"
5,"left",1.201575,4,1.21709,"right",2.38587,"","",""
5,"",NA,NA,NA,"",NA,"stimuli/objects/fan.jpg","left","old"
5,"right",5.38644,2,0.556505,"",NA,"stimuli/objects/cuttingpliers02.jpg","right","new"
5,"right",2.255405,4,0.46477,"",NA,"stimuli/objects/bottleopener01.jpg","right","new"
5,"right",2.214015,2,0.23818,"",NA,"stimuli/objects/shovel01.jpg","right","new"
5,"left",1.41048,4,0.977895,"right",0.384795,"","",""
5,"",NA,NA,NA,"",NA,"stimuli/objects/photocopier.jpg","left","old"
5,"left",1.06269,4,0.69893,"left",0.53911,"","",""
5,"",NA,NA,NA,"",NA,"stimuli/objects/toyhockeystick01.jpg","left","old"
5,"right",1.300845,3,1.07894,"",NA,"stimuli/objects/skigoggles01.jpg","right","new"
5,"left",1.731185,2,0.296925,"right",0.94638,"","",""
5,"",NA,NA,NA,"",NA,"stimuli/objects/boltcutter.jpg","left","old"
5,"left",1.20134,4,0.7309,"right",0.520255,"","",""
5,"",NA,NA,NA,"",NA,"stimuli/objects/toothpick02.jpg","left","old"
5,"left",2.85054,3,0.91341,"left",0.324075,"","",""
5,"",NA,NA,NA,"",NA,"stimuli/objects/tennisball01b.jpg","right","new"
5,"left",1.61545,2,3.140195,"right",1.370265,"","",""
5,"",NA,NA,NA,"",NA,"stimuli/objects/fanheater.jpg","right","new"
5,"right",1.00089,2,2.19968,"",NA,"stimuli/objects/toaster01.jpg","right","new"
5,"right",0.98861,4,0.81198,"",NA,"stimuli/objects/diaperbag.jpg","right","new"
5,"right",2.375055,4,0.404935,"",NA,"stimuli/objects/jackhammer.jpg","right","new"
5,"left",1.393875,3,0.745255,"right",0.35727,"","",""
5,"",NA,NA,NA,"",NA,"stimuli/objects/extensioncord.jpg","left","old"
5,"right",1.409805,4,0.58833,"",NA,"stimuli/objects/kneepad01c.jpg","right","new"
5,"left",0.897915,4,0.3635,"left",0.301795,"","",""
5,"",NA,NA,NA,"",NA,"stimuli/objects/spatula04.jpg","left","old"
5,"right",3.296845,2,0.45051,"",NA,"stimuli/objects/hockeystick.jpg","right","new"
5,"right",1.74103,2,1.04517,"",NA,"stimuli/objects/telephone01b.jpg","left","old"
5,"right",1.23952,4,2.543685,"",NA,"stimuli/objects/lifejacket.jpg","right","new"
5,"left",4.58638,2,0.549365,"right",1.51533,"","",""
5,"",NA,NA,NA,"",NA,"stimuli/objects/wheelbarrow01.jpg","left","old"
5,"left",2.90244,2,0.34986,"left",0.291105,"","",""
5,"",NA,NA,NA,"",NA,"stimuli/objects/cakeplatter.jpg","right","new"
5,"right",1.34896,3,0.326705,"",NA,"stimuli/objects/basketball01.jpg","right","new"
5,"left",3.62936,2,0.405115,"left",0.90918,"","",""
5,"",NA,NA,NA,"",NA,"stimuli/objects/handblender.jpg","right","new"
5,"right",1.203605,4,0.60407,"",NA,"stimuli/objects/wafflemaker.jpg","right","new"
5,"right",2.058125,2,0.299505,"",NA,"stimuli/objects/mug01.jpg","right","new"
5,"left",1.06515,3,0.378895,"left",1.79098,"","",""
5,"",NA,NA,NA,"",NA,"stimuli/objects/bikehelmet.jpg","left","old"
5,"left",3.15286,2,0.52608,"right",0.312365,"","",""
5,"",NA,NA,NA,"",NA,"stimuli/objects/usbcable01a.jpg","left","old"
5,"right",2.441015,2,2.023935,"",NA,"stimuli/objects/straw.jpg","right","new"
5,"left",2.39431,4,0.39096,"right",0.880625,"","",""
5,"",NA,NA,NA,"",NA,"stimuli/objects/jumpercables.jpg","left","old"
5,"right",3.4977,3,0.95002,"",NA,"stimuli/objects/drinkshaker.jpg","right","new"
5,"left",1.39422,3,0.91558,"left",0.5057,"","",""
5,"",NA,NA,NA,"",NA,"stimuli/objects/wineglass01.jpg","right","new"
5,"left",2.19337,3,0.72904,"left",0.384365,"","",""
5,"",NA,NA,NA,"",NA,"stimuli/objects/cleaver01.jpg","left","old"
5,"right",1.96242,3,1.03865,"",NA,"stimuli/objects/icecubetray01a.jpg","right","new"
5,"left",0.87678,4,0.58676,"left",0.367905,"","",""
5,"",NA,NA,NA,"",NA,"stimuli/objects/woodenspoon.jpg","left","old"
5,"left",2.184265,2,0.60402,"right",1.147885,"","",""
5,"",NA,NA,NA,"",NA,"stimuli/objects/pliers02b.jpg","left","old"
5,"left",2.62869,4,0.63157,"right",0.299715,"","",""
5,"",NA,NA,NA,"",NA,"stimuli/objects/hoe.jpg","left","old"
5,"left",1.264875,3,0.31116,"right",0.346765,"","",""
5,"",NA,NA,NA,"",NA,"stimuli/objects/bowrake.jpg","right","new"
5,"right",0.81344,4,0.31746,"",NA,"stimuli/objects/volleyball.jpg","left","old"
5,"left",0.99391,4,0.26474,"left",0.38418,"","",""
5,"",NA,NA,NA,"",NA,"stimuli/objects/pastaspoon.jpg","left","old"
5,"right",1.07542,3,0.48004,"",NA,"stimuli/objects/saladspinner.jpg","left","old"
5,"right",0.979535,3,0.344745,"",NA,"stimuli/objects/boxingglove01.jpg","right","new"
5,"left",0.911455,4,0.39982,"left",0.287715,"","",""
5,"",NA,NA,NA,"",NA,"stimuli/objects/pot01.jpg","left","old"
5,"right",0.866095,4,0.30045,"",NA,"stimuli/objects/kite.jpg","right","new"
5,"right",2.94098,3,0.905085,"",NA,"stimuli/objects/trampoline.jpg","right","new"
5,"right",1.50884,4,0.299,"",NA,"stimuli/objects/swissarmyknife01a.jpg","right","new"
5,"left",0.84196,4,0.391775,"left",0.42808,"","",""
5,"",NA,NA,NA,"",NA,"stimuli/objects/towel01.jpg","left","old"
5,"left",1.511165,2,1.29634,"left",0.51725,"","",""
5,"",NA,NA,NA,"",NA,"stimuli/objects/tupperware03a.jpg","left","old"
5,"left",1.484415,4,3.33065,"right",0.92948,"","",""
5,"",NA,NA,NA,"",NA,"stimuli/objects/propanetank01.jpg","left","old"
5,"right",1.621215,4,0.339875,"",NA,"stimuli/objects/heatpump.jpg","right","new"
5,"left",3.471065,2,0.08601,"right",1.266565,"","",""
5,"",NA,NA,NA,"",NA,"stimuli/objects/bikelock.jpg","left","old"
5,"left",2.2653,4,0.3045,"left",0.349585,"","",""
5,"",NA,NA,NA,"",NA,"stimuli/objects/hourglass.jpg","left","old"
5,"right",2.02152,4,0.41371,"",NA,"stimuli/objects/cheeseknife01.jpg","right","new"
5,"left",0.84488,4,0.32104,"left",0.31033,"","",""
5,"",NA,NA,NA,"",NA,"stimuli/objects/iceskate.jpg","left","old"
5,"right",3.382575,3,0.748045,"",NA,"stimuli/objects/monitor.jpg","right","new"
5,"right",2.050675,3,1.666455,"",NA,"stimuli/objects/kiddiepool.jpg","left","old"
5,"right",1.201785,2,0.68688,"",NA,"stimuli/objects/hedgeshears.jpg","left","old"
5,"left",2.597975,2,0.499825,"right",0.596745,"","",""
5,"",NA,NA,NA,"",NA,"stimuli/objects/loppingshears.jpg","right","new"
5,"left",1.06783,3,1.729365,"left",0.52373,"","",""
5,"",NA,NA,NA,"",NA,"stimuli/objects/coffeepot03a.jpg","left","old"
5,"left",3.16841,2,0.394,"left",0.29594,"","",""
5,"",NA,NA,NA,"",NA,"stimuli/objects/skihelmet01.jpg","left","old"
5,"left",1.683025,2,3.13093,"left",0.582455,"","",""
5,"",NA,NA,NA,"",NA,"stimuli/objects/bikepump01.jpg","left","old"
5,"left",1.350515,4,0.78815,"left",0.716215,"","",""
5,"",NA,NA,NA,"",NA,"stimuli/objects/podium.jpg","left","old"
5,"right",1.592185,2,0.534695,"",NA,"stimuli/objects/computermouse06.jpg","right","new"
5,"right",1.23318,3,1.87695,"",NA,"stimuli/objects/needlenosepliers01.jpg","right","new"
5,"right",2.72747,3,1.805785,"",NA,"stimuli/objects/flask.jpg","right","new"
5,"right",1.12714,4,0.91326,"",NA,"stimuli/objects/eggslicer.jpg","right","new"
5,"right",3.376795,2,0.598175,"",NA,"stimuli/objects/fonduefork01.jpg","right","new"
5,"right",1.23072,3,1.633775,"",NA,"stimuli/objects/wirestripper.jpg","right","new"
5,"left",3.3191,3,1.44636,"right",0.34503,"","",""
5,"",NA,NA,NA,"",NA,"stimuli/objects/toyhardhat.jpg","left","old"
5,"left",2.518165,2,0.396155,"right",0.79078,"","",""
5,"",NA,NA,NA,"",NA,"stimuli/objects/cellphone.jpg","left","old"
5,"right",1.42824,4,0.75055,"",NA,"stimuli/objects/parachute.jpg","right","new"
5,"left",1.085125,3,0.81602,"left",0.51281,"","",""
5,"",NA,NA,NA,"",NA,"stimuli/objects/badmintonracket.jpg","left","old"
5,"right",1.1011,3,0.707055,"",NA,"stimuli/objects/lightswitch01.jpg","right","new"
5,"right",1.578205,2,0.774705,"",NA,"stimuli/objects/crocodileclips.jpg","left","old"
5,"left",1.27351,4,0.53223,"right",1.34653,"","",""
5,"",NA,NA,NA,"",NA,"stimuli/objects/snowblower.jpg","left","old"
5,"right",1.853995,2,0.383345,"",NA,"stimuli/objects/antenna.jpg","left","old"
5,"right",1.54213,3,0.40112,"",NA,"stimuli/objects/espressomachine.jpg","left","old"
5,"left",1.814965,2,0.430065,"left",2.46542,"","",""
5,"",NA,NA,NA,"",NA,"stimuli/objects/gasburner.jpg","left","old"
5,"",NA,NA,NA,"",NA,"","",""
