images,corr_ans,type,order
stimuli/objects/ethernetcable02.jpg,left,old,1
stimuli/objects/photocopier.jpg,left,old,2
stimuli/objects/filmnegative.jpg,left,old,3
stimuli/objects/dishrack.jpg,left,old,4
stimuli/objects/microphone01.jpg,right,new,5
stimuli/objects/fan.jpg,left,old,6
stimuli/objects/corkscrew03a.jpg,left,old,7
stimuli/objects/puttyknife.jpg,left,old,8
stimuli/objects/basketballhoop01.jpg,right,new,9
stimuli/objects/measuringtape01.jpg,right,new,10
stimuli/objects/dvdcase01.jpg,left,old,11
stimuli/objects/telephone01b.jpg,left,old,12
stimuli/objects/garlicpress02a.jpg,right,new,13
stimuli/objects/bastingbrush.jpg,right,new,14
stimuli/objects/wheelbarrow01.jpg,left,old,15
stimuli/objects/watercooler.jpg,left,old,16
stimuli/objects/stubbywrench01a.jpg,left,old,17
stimuli/objects/exercisebench.jpg,right,new,18
stimuli/objects/cashregister01.jpg,right,new,19
stimuli/objects/peppermill02b.jpg,right,new,20
stimuli/objects/laptop01a.jpg,right,new,21
stimuli/objects/paintbrush01.jpg,right,new,22
stimuli/objects/umbrella04.jpg,right,new,23
stimuli/objects/football.jpg,right,new,24
stimuli/objects/skateboard.jpg,right,new,25
stimuli/objects/bowlingball.jpg,right,new,26
stimuli/objects/boogieboard.jpg,right,new,27
stimuli/objects/baseballglove.jpg,left,old,28
stimuli/objects/anchor.jpg,left,old,29
stimuli/objects/computerkeyboard02.jpg,left,old,30
stimuli/objects/printer02.jpg,right,new,31
stimuli/objects/mallet01b.jpg,left,old,32
stimuli/objects/mitresaw.jpg,right,new,33
stimuli/objects/microwave.jpg,right,new,34
stimuli/objects/hockeygoaliemask.jpg,left,old,35
stimuli/objects/crocodileclips.jpg,left,old,36
stimuli/objects/gps.jpg,left,old,37
stimuli/objects/bungeecord02.jpg,left,old,38
stimuli/objects/soundmixer.jpg,right,new,39
stimuli/objects/sippycup.jpg,right,new,40
stimuli/objects/wateringcan.jpg,left,old,41
stimuli/objects/pylon01.jpg,right,new,42
stimuli/objects/snowshoe.jpg,right,new,43
stimuli/objects/punchingball.jpg,right,new,44
stimuli/objects/pliers02b.jpg,left,old,45
stimuli/objects/aluminiumfoil.jpg,left,old,46
stimuli/objects/walkman.jpg,right,new,47
stimuli/objects/hoe.jpg,left,old,48
stimuli/objects/breadknife.jpg,left,old,49
stimuli/objects/volleyball.jpg,left,old,50
stimuli/objects/chisel02b.jpg,right,new,51
stimuli/objects/webcam.jpg,right,new,52
stimuli/objects/spatula04.jpg,left,old,53
stimuli/objects/binoculars01b.jpg,right,new,54
stimuli/objects/pda.jpg,right,new,55
stimuli/objects/toolbox02.jpg,right,new,56
stimuli/objects/thermos.jpg,left,old,57
stimuli/objects/audiocablesplitter.jpg,right,new,58
stimuli/objects/toyhardhat.jpg,left,old,59
stimuli/objects/studiolight.jpg,right,new,60
stimuli/objects/glass02a.jpg,right,new,61
stimuli/objects/metalbrush.jpg,left,old,62
stimuli/objects/potatomasher03b.jpg,left,old,63
stimuli/objects/butterdish.jpg,right,new,64
stimuli/objects/knifesharpener.jpg,left,old,65
stimuli/objects/squeegee01b.jpg,left,old,66
stimuli/objects/nailgun.jpg,right,new,67
stimuli/objects/bikelock.jpg,left,old,68
stimuli/objects/leafblower01.jpg,right,new,69
stimuli/objects/atm.jpg,left,old,70
stimuli/objects/martiniglass01b.jpg,left,old,71
stimuli/objects/faxmachine.jpg,right,new,72
stimuli/objects/cclamp.jpg,right,new,73
stimuli/objects/clock01a.jpg,right,new,74
stimuli/objects/toyhockeystick01.jpg,left,old,75
stimuli/objects/stepladder.jpg,right,new,76
stimuli/objects/megaphone.jpg,right,new,77
stimuli/objects/headphones02b.jpg,left,old,78
stimuli/objects/tupperware03a.jpg,left,old,79
stimuli/objects/dvdplayer.jpg,left,old,80
stimuli/objects/snowman.jpg,right,new,81
stimuli/objects/avcable.jpg,right,new,82
stimuli/objects/snowbrush.jpg,right,new,83
stimuli/objects/kitchenscale01a.jpg,right,new,84
stimuli/objects/hockeypuck.jpg,left,old,85
stimuli/objects/golfball.jpg,right,new,86
stimuli/objects/toasteroven.jpg,right,new,87
stimuli/objects/fluorescentlightbulb.jpg,left,old,88
stimuli/objects/measuringcup01.jpg,left,old,89
stimuli/objects/ducttape.jpg,right,new,90
stimuli/objects/carlighter02.jpg,right,new,91
stimuli/objects/chainsaw.jpg,left,old,92
stimuli/objects/carjack.jpg,right,new,93
stimuli/objects/icepack.jpg,right,new,94
stimuli/objects/electricmixer.jpg,right,new,95
stimuli/objects/lectern01.jpg,left,old,96
stimuli/objects/golfbag.jpg,right,new,97
stimuli/objects/coffeemachine.jpg,left,old,98
stimuli/objects/handgripper.jpg,left,old,99
stimuli/objects/snowblower.jpg,left,old,100
stimuli/objects/remotecontrol04.jpg,right,new,101
stimuli/objects/chandelier.jpg,left,old,102
stimuli/objects/propanetank01.jpg,left,old,103
stimuli/objects/towel01.jpg,left,old,104
stimuli/objects/carantenna.jpg,left,old,105
stimuli/objects/videocamera01a.jpg,left,old,106
stimuli/objects/minifridge.jpg,right,new,107
stimuli/objects/canister.jpg,left,old,108
stimuli/objects/metalscissors.jpg,right,new,109
stimuli/objects/winerack.jpg,right,new,110
stimuli/objects/lock03a.jpg,right,new,111
stimuli/objects/speaker04.jpg,right,new,112
stimuli/objects/gymnasticring.jpg,right,new,113
stimuli/objects/powercable.jpg,right,new,114
stimuli/objects/butterknife.jpg,left,old,115
stimuli/objects/pipewrench.jpg,left,old,116
stimuli/objects/radio01.jpg,right,new,117
stimuli/objects/videotape01b.jpg,right,new,118
stimuli/objects/sledgehammer.jpg,left,old,119
stimuli/objects/tongs01b.jpg,right,new,120
stimuli/objects/pot01.jpg,left,old,121
stimuli/objects/ceilingspeaker.jpg,right,new,122
stimuli/objects/extensioncord.jpg,left,old,123
stimuli/objects/gasburner.jpg,left,old,124
stimuli/objects/reflector.jpg,left,old,125
stimuli/objects/shoulderpad.jpg,right,new,126
stimuli/objects/tableknife02.jpg,right,new,127
stimuli/objects/badmintonracket.jpg,left,old,128
stimuli/objects/tripod01.jpg,right,new,129
stimuli/objects/cleaver01.jpg,left,old,130
stimuli/objects/soccerball.jpg,left,old,131
stimuli/objects/spotlight.jpg,right,new,132
stimuli/objects/djmixer02.jpg,left,old,133
stimuli/objects/icebucket.jpg,right,new,134
stimuli/objects/screwdriver04b.jpg,right,new,135
stimuli/objects/pressurewasher.jpg,left,old,136
stimuli/objects/battery02b.jpg,right,new,137
stimuli/objects/exercisebike.jpg,left,old,138
stimuli/objects/taperecorder.jpg,right,new,139
stimuli/objects/frisbee.jpg,right,new,140
stimuli/objects/catchermask.jpg,left,old,141
stimuli/objects/generator.jpg,right,new,142
stimuli/objects/spoon01.jpg,left,old,143
