"participant","pract_resp.keys","pract_resp.corr","pract_resp.rt","first_character","second_character","Cue","left_categ","centleft_categ","centright_categ","right_categ","corr_ans","obj_category","image","trial_cond","cuedCharacter","task_resp.keys","task_resp.corr","task_resp.rt"
3,NA,NA,NA,"","",NA,"","","","",NA,"","",NA,"",NA,NA,NA
3,NA,NA,NA,"","",NA,"","","","",NA,"","",NA,"",NA,NA,NA
3,NA,NA,NA,"","",NA,"","","","",NA,"","",NA,"",NA,NA,NA
3,NA,NA,NA,"","",NA,"","","","",NA,"","",NA,"",NA,NA,NA
3,NA,NA,NA,"","",NA,"","","","",NA,"","",NA,"",NA,NA,NA
3,NA,NA,NA,"","",NA,"","","","",NA,"","",NA,"",NA,NA,NA
3,2,1,1.28593,"stimuli/m1.jpg","stimuli/m4.jpg",1,"stimuli/Vehicle.png","stimuli/Stationary & school supply.png","stimuli/Clothing.png","stimuli/Gamestoy & entertainment.png",2,"","stimuli/objects/pen04b.jpg",1,"stimuli/m1.jpg",NA,NA,NA
3,1,1,1.3267,"stimuli/m1.jpg","stimuli/m4.jpg",1,"stimuli/Stationary & school supply.png","stimuli/Gamestoy & entertainment.png","stimuli/Clothing.png","stimuli/Vehicle.png",1,"","stimuli/objects/marker01a.jpg",1,"stimuli/m1.jpg",NA,NA,NA
3,2,1,0.737525,"stimuli/m1.jpg","stimuli/m4.jpg",1,"stimuli/Gamestoy & entertainment.png","stimuli/Stationary & school supply.png","stimuli/Clothing.png","stimuli/Vehicle.png",2,"","stimuli/objects/ruler04.jpg",1,"stimuli/m1.jpg",NA,NA,NA
3,2,0,1.44659,"stimuli/m4.jpg","stimuli/m1.jpg",1,"stimuli/Stationary & school supply.png","stimuli/Vehicle.png","stimuli/Gamestoy & entertainment.png","stimuli/Clothing.png",4,"","stimuli/objects/scarf.jpg",1,"stimuli/m4.jpg",NA,NA,NA
3,3,0,2.063405,"stimuli/m4.jpg","stimuli/m1.jpg",1,"stimuli/Clothing.png","stimuli/Vehicle.png","stimuli/Gamestoy & entertainment.png","stimuli/Stationary & school supply.png",1,"","stimuli/objects/waders.jpg",1,"stimuli/m4.jpg",NA,NA,NA
3,1,1,0.69373,"stimuli/m1.jpg","stimuli/m4.jpg",1,"stimuli/Stationary & school supply.png","stimuli/Clothing.png","stimuli/Vehicle.png","stimuli/Gamestoy & entertainment.png",1,"","stimuli/objects/stapleremover.jpg",1,"stimuli/m1.jpg",NA,NA,NA
3,4,0,2.3679,"stimuli/m1.jpg","stimuli/m4.jpg",2,"stimuli/Stationary & school supply.png","stimuli/Vehicle.png","stimuli/Clothing.png","stimuli/Gamestoy & entertainment.png",3,"","stimuli/objects/zipper.jpg",1,"stimuli/m4.jpg",NA,NA,NA
3,2,0,2.65644,"stimuli/m4.jpg","stimuli/m1.jpg",1,"stimuli/Clothing.png","stimuli/Gamestoy & entertainment.png","stimuli/Stationary & school supply.png","stimuli/Vehicle.png",4,"","stimuli/objects/convertible.jpg",0,"stimuli/m4.jpg",NA,NA,NA
3,3,1,1.21769,"stimuli/m1.jpg","stimuli/m4.jpg",1,"stimuli/Vehicle.png","stimuli/Gamestoy & entertainment.png","stimuli/Stationary & school supply.png","stimuli/Clothing.png",3,"","stimuli/objects/paperclip03.jpg",1,"stimuli/m1.jpg",NA,NA,NA
3,3,1,0.635645,"stimuli/m4.jpg","stimuli/m1.jpg",2,"stimuli/Vehicle.png","stimuli/Clothing.png","stimuli/Stationary & school supply.png","stimuli/Gamestoy & entertainment.png",3,"","stimuli/objects/mathcompass.jpg",1,"stimuli/m1.jpg",NA,NA,NA
3,1,1,0.942785,"stimuli/m4.jpg","stimuli/m1.jpg",2,"stimuli/Stationary & school supply.png","stimuli/Vehicle.png","stimuli/Gamestoy & entertainment.png","stimuli/Clothing.png",1,"","stimuli/objects/folder.jpg",1,"stimuli/m1.jpg",NA,NA,NA
3,4,0,1.25191,"stimuli/m1.jpg","stimuli/m4.jpg",2,"stimuli/Vehicle.png","stimuli/Clothing.png","stimuli/Gamestoy & entertainment.png","stimuli/Stationary & school supply.png",2,"","stimuli/objects/poloshirt.jpg",1,"stimuli/m4.jpg",NA,NA,NA
3,2,0,1.56859,"stimuli/m1.jpg","stimuli/m4.jpg",2,"stimuli/Clothing.png","stimuli/Gamestoy & entertainment.png","stimuli/Vehicle.png","stimuli/Stationary & school supply.png",1,"","stimuli/objects/hat03b.jpg",1,"stimuli/m4.jpg",NA,NA,NA
3,1,1,0.77991,"stimuli/m4.jpg","stimuli/m1.jpg",2,"stimuli/Stationary & school supply.png","stimuli/Clothing.png","stimuli/Gamestoy & entertainment.png","stimuli/Vehicle.png",1,"","stimuli/objects/binder03b.jpg",1,"stimuli/m1.jpg",NA,NA,NA
3,4,0,1.604325,"stimuli/m4.jpg","stimuli/m1.jpg",1,"stimuli/Vehicle.png","stimuli/Clothing.png","stimuli/Stationary & school supply.png","stimuli/Gamestoy & entertainment.png",2,"","stimuli/objects/hikingshoe01.jpg",1,"stimuli/m4.jpg",NA,NA,NA
3,1,0,0.530125,"stimuli/m4.jpg","stimuli/m1.jpg",2,"stimuli/Stationary & school supply.png","stimuli/Clothing.png","stimuli/Vehicle.png","stimuli/Gamestoy & entertainment.png",2,"","stimuli/objects/sportsjersey.jpg",0,"stimuli/m1.jpg",NA,NA,NA
3,2,0,1.824625,"stimuli/m4.jpg","stimuli/m1.jpg",2,"stimuli/Gamestoy & entertainment.png","stimuli/Clothing.png","stimuli/Stationary & school supply.png","stimuli/Vehicle.png",3,"","stimuli/objects/pencilsharpener02a.jpg",1,"stimuli/m1.jpg",NA,NA,NA
3,4,0,0.905275,"stimuli/m4.jpg","stimuli/m1.jpg",2,"stimuli/Vehicle.png","stimuli/Clothing.png","stimuli/Gamestoy & entertainment.png","stimuli/Stationary & school supply.png",3,"","stimuli/objects/rattle.jpg",0,"stimuli/m1.jpg",NA,NA,NA
3,1,0,1.011725,"stimuli/m1.jpg","stimuli/m4.jpg",2,"stimuli/Gamestoy & entertainment.png","stimuli/Vehicle.png","stimuli/Clothing.png","stimuli/Stationary & school supply.png",3,"","stimuli/objects/tricornhat.jpg",1,"stimuli/m4.jpg",NA,NA,NA
3,4,1,0.53024,"stimuli/m1.jpg","stimuli/m4.jpg",1,"stimuli/Clothing.png","stimuli/Vehicle.png","stimuli/Gamestoy & entertainment.png","stimuli/Stationary & school supply.png",4,"","stimuli/objects/clipboard.jpg",1,"stimuli/m1.jpg",NA,NA,NA
3,3,0,1.54844,"stimuli/m1.jpg","stimuli/m4.jpg",2,"stimuli/Stationary & school supply.png","stimuli/Gamestoy & entertainment.png","stimuli/Vehicle.png","stimuli/Clothing.png",4,"","stimuli/objects/athleticsock.jpg",1,"stimuli/m4.jpg",NA,NA,NA
3,2,0,1.135715,"stimuli/m1.jpg","stimuli/m4.jpg",1,"stimuli/Gamestoy & entertainment.png","stimuli/Stationary & school supply.png","stimuli/Vehicle.png","stimuli/Clothing.png",3,"","stimuli/objects/motorcycle.jpg",0,"stimuli/m1.jpg",NA,NA,NA
3,3,1,0.95806,"stimuli/m4.jpg","stimuli/m1.jpg",2,"stimuli/Vehicle.png","stimuli/Gamestoy & entertainment.png","stimuli/Stationary & school supply.png","stimuli/Clothing.png",3,"","stimuli/objects/triangleruler01.jpg",1,"stimuli/m1.jpg",NA,NA,NA
3,4,0,1.97279,"stimuli/m4.jpg","stimuli/m1.jpg",1,"stimuli/Gamestoy & entertainment.png","stimuli/Clothing.png","stimuli/Stationary & school supply.png","stimuli/Vehicle.png",2,"","stimuli/objects/pants.jpg",1,"stimuli/m4.jpg",NA,NA,NA
3,3,1,1.13525,"stimuli/m4.jpg","stimuli/m1.jpg",2,"stimuli/Gamestoy & entertainment.png","stimuli/Vehicle.png","stimuli/Stationary & school supply.png","stimuli/Clothing.png",3,"","stimuli/objects/rubberband01.jpg",1,"stimuli/m1.jpg",NA,NA,NA
3,2,0,1.55147,"stimuli/m4.jpg","stimuli/m1.jpg",1,"stimuli/Stationary & school supply.png","stimuli/Vehicle.png","stimuli/Clothing.png","stimuli/Gamestoy & entertainment.png",4,"","stimuli/objects/highstrikergame.jpg",0,"stimuli/m4.jpg",NA,NA,NA
3,3,1,1.04138,"stimuli/m4.jpg","stimuli/m1.jpg",2,"stimuli/Clothing.png","stimuli/Gamestoy & entertainment.png","stimuli/Stationary & school supply.png","stimuli/Vehicle.png",3,"","stimuli/objects/smartboard.jpg",1,"stimuli/m1.jpg",NA,NA,NA
3,4,1,0.786985,"stimuli/m4.jpg","stimuli/m1.jpg",1,"stimuli/Stationary & school supply.png","stimuli/Gamestoy & entertainment.png","stimuli/Vehicle.png","stimuli/Clothing.png",4,"","stimuli/objects/slipper01b.jpg",1,"stimuli/m4.jpg",NA,NA,NA
3,4,1,0.70166,"stimuli/m4.jpg","stimuli/m1.jpg",1,"stimuli/Gamestoy & entertainment.png","stimuli/Vehicle.png","stimuli/Stationary & school supply.png","stimuli/Clothing.png",4,"","stimuli/objects/pilgrimhat.jpg",1,"stimuli/m4.jpg",NA,NA,NA
3,2,1,0.858965,"stimuli/m4.jpg","stimuli/m1.jpg",1,"stimuli/Stationary & school supply.png","stimuli/Clothing.png","stimuli/Gamestoy & entertainment.png","stimuli/Vehicle.png",2,"","stimuli/objects/moccasin.jpg",1,"stimuli/m4.jpg",NA,NA,NA
3,2,1,0.706975,"stimuli/m4.jpg","stimuli/m1.jpg",1,"stimuli/Vehicle.png","stimuli/Clothing.png","stimuli/Gamestoy & entertainment.png","stimuli/Stationary & school supply.png",2,"","stimuli/objects/safarihat.jpg",1,"stimuli/m4.jpg",NA,NA,NA
3,NA,NA,NA,"","",NA,"","","","",NA,"","",NA,"",NA,NA,NA
3,NA,NA,NA,"stimuli/m2.jpg","stimuli/m5.jpg",1,"stimuli/Outdoor activity & sport item.png","stimuli/Electronic device & accessory.png","stimuli/Kitchen & utensil.png","stimuli/Hand labour tool & accessory.png",3,"Kitchen & utensil","stimuli/objects/cutleryset.jpg",1,"stimuli/m2.jpg",1,0,1.231885
3,NA,NA,NA,"stimuli/m5.jpg","stimuli/m2.jpg",2,"stimuli/Kitchen & utensil.png","stimuli/Electronic device & accessory.png","stimuli/Outdoor activity & sport item.png","stimuli/Hand labour tool & accessory.png",1,"Kitchen & utensil","stimuli/objects/grill.jpg",1,"stimuli/m2.jpg",2,0,0.90737
3,NA,NA,NA,"stimuli/m5.jpg","stimuli/m2.jpg",1,"stimuli/Hand labour tool & accessory.png","stimuli/Outdoor activity & sport item.png","stimuli/Electronic device & accessory.png","stimuli/Kitchen & utensil.png",1,"Hand labour tool & accessory","stimuli/objects/ducttape.jpg",1,"stimuli/m5.jpg",4,0,1.21861
3,NA,NA,NA,"stimuli/m5.jpg","stimuli/m2.jpg",2,"stimuli/Electronic device & accessory.png","stimuli/Kitchen & utensil.png","stimuli/Outdoor activity & sport item.png","stimuli/Hand labour tool & accessory.png",2,"Kitchen & utensil","stimuli/objects/cakeplatter.jpg",1,"stimuli/m2.jpg",3,0,0.91463
3,NA,NA,NA,"stimuli/m5.jpg","stimuli/m2.jpg",2,"stimuli/Outdoor activity & sport item.png","stimuli/Hand labour tool & accessory.png","stimuli/Electronic device & accessory.png","stimuli/Kitchen & utensil.png",4,"Kitchen & utensil","stimuli/objects/bagtie.jpg",1,"stimuli/m2.jpg",2,0,1.55948
3,NA,NA,NA,"stimuli/m5.jpg","stimuli/m2.jpg",1,"stimuli/Outdoor activity & sport item.png","stimuli/Kitchen & utensil.png","stimuli/Electronic device & accessory.png","stimuli/Hand labour tool & accessory.png",4,"Hand labour tool & accessory","stimuli/objects/generator.jpg",1,"stimuli/m5.jpg",4,1,1.911135
3,NA,NA,NA,"stimuli/m2.jpg","stimuli/m5.jpg",1,"stimuli/Electronic device & accessory.png","stimuli/Outdoor activity & sport item.png","stimuli/Hand labour tool & accessory.png","stimuli/Kitchen & utensil.png",4,"Kitchen & utensil","stimuli/objects/thermos.jpg",1,"stimuli/m2.jpg",3,0,1.31023
3,NA,NA,NA,"stimuli/m2.jpg","stimuli/m5.jpg",1,"stimuli/Electronic device & accessory.png","stimuli/Hand labour tool & accessory.png","stimuli/Outdoor activity & sport item.png","stimuli/Kitchen & utensil.png",4,"Kitchen & utensil","stimuli/objects/fryingpan02a.jpg",1,"stimuli/m2.jpg",4,1,1.728865
3,NA,NA,NA,"stimuli/m5.jpg","stimuli/m2.jpg",1,"stimuli/Electronic device & accessory.png","stimuli/Hand labour tool & accessory.png","stimuli/Kitchen & utensil.png","stimuli/Outdoor activity & sport item.png",2,"Hand labour tool & accessory","stimuli/objects/cheeseknife01.jpg",1,"stimuli/m5.jpg",1,0,1.658905
3,NA,NA,NA,"stimuli/m2.jpg","stimuli/m5.jpg",1,"stimuli/Hand labour tool & accessory.png","stimuli/Electronic device & accessory.png","stimuli/Outdoor activity & sport item.png","stimuli/Kitchen & utensil.png",4,"Kitchen & utensil","stimuli/objects/bowl02a.jpg",1,"stimuli/m2.jpg",4,1,0.591765
3,NA,NA,NA,"stimuli/m5.jpg","stimuli/m2.jpg",1,"stimuli/Kitchen & utensil.png","stimuli/Electronic device & accessory.png","stimuli/Outdoor activity & sport item.png","stimuli/Hand labour tool & accessory.png",4,"Hand labour tool & accessory","stimuli/objects/sandpaper.jpg",1,"stimuli/m5.jpg",2,0,1.591785
3,NA,NA,NA,"stimuli/m2.jpg","stimuli/m5.jpg",1,"stimuli/Outdoor activity & sport item.png","stimuli/Kitchen & utensil.png","stimuli/Hand labour tool & accessory.png","stimuli/Electronic device & accessory.png",2,"Kitchen & utensil","stimuli/objects/saladspinner.jpg",1,"stimuli/m2.jpg",2,1,2.29977
3,NA,NA,NA,"stimuli/m5.jpg","stimuli/m2.jpg",1,"stimuli/Outdoor activity & sport item.png","stimuli/Kitchen & utensil.png","stimuli/Hand labour tool & accessory.png","stimuli/Electronic device & accessory.png",3,"Hand labour tool & accessory","stimuli/objects/cuttingpliers02.jpg",1,"stimuli/m5.jpg",NA,0,NA
3,NA,NA,NA,"stimuli/m2.jpg","stimuli/m5.jpg",2,"stimuli/Outdoor activity & sport item.png","stimuli/Electronic device & accessory.png","stimuli/Kitchen & utensil.png","stimuli/Hand labour tool & accessory.png",4,"Hand labour tool & accessory","stimuli/objects/gavel.jpg",1,"stimuli/m5.jpg",2,0,1.468275
3,NA,NA,NA,"stimuli/m5.jpg","stimuli/m2.jpg",1,"stimuli/Electronic device & accessory.png","stimuli/Kitchen & utensil.png","stimuli/Hand labour tool & accessory.png","stimuli/Outdoor activity & sport item.png",3,"Hand labour tool & accessory","stimuli/objects/bungeecord02.jpg",1,"stimuli/m5.jpg",NA,0,NA
3,NA,NA,NA,"stimuli/m2.jpg","stimuli/m5.jpg",1,"stimuli/Hand labour tool & accessory.png","stimuli/Outdoor activity & sport item.png","stimuli/Electronic device & accessory.png","stimuli/Kitchen & utensil.png",4,"Kitchen & utensil","stimuli/objects/spicerack.jpg",1,"stimuli/m2.jpg",4,1,0.864185
3,NA,NA,NA,"stimuli/m5.jpg","stimuli/m2.jpg",2,"stimuli/Hand labour tool & accessory.png","stimuli/Kitchen & utensil.png","stimuli/Outdoor activity & sport item.png","stimuli/Electronic device & accessory.png",2,"Kitchen & utensil","stimuli/objects/potatomasher03b.jpg",1,"stimuli/m2.jpg",4,0,0.712745
3,NA,NA,NA,"stimuli/m2.jpg","stimuli/m5.jpg",2,"stimuli/Electronic device & accessory.png","stimuli/Outdoor activity & sport item.png","stimuli/Kitchen & utensil.png","stimuli/Hand labour tool & accessory.png",3,"Kitchen & utensil","stimuli/objects/oven.jpg",0,"stimuli/m5.jpg",3,1,1.714355
3,NA,NA,NA,"stimuli/m2.jpg","stimuli/m5.jpg",1,"stimuli/Hand labour tool & accessory.png","stimuli/Kitchen & utensil.png","stimuli/Outdoor activity & sport item.png","stimuli/Electronic device & accessory.png",3,"Outdoor activity & sport item","stimuli/objects/basketball01.jpg",0,"stimuli/m2.jpg",4,0,1.436225
3,NA,NA,NA,"stimuli/m2.jpg","stimuli/m5.jpg",2,"stimuli/Outdoor activity & sport item.png","stimuli/Kitchen & utensil.png","stimuli/Hand labour tool & accessory.png","stimuli/Electronic device & accessory.png",3,"Hand labour tool & accessory","stimuli/objects/cclamp.jpg",1,"stimuli/m5.jpg",3,1,1.15674
3,NA,NA,NA,"stimuli/m5.jpg","stimuli/m2.jpg",2,"stimuli/Kitchen & utensil.png","stimuli/Hand labour tool & accessory.png","stimuli/Outdoor activity & sport item.png","stimuli/Electronic device & accessory.png",1,"Kitchen & utensil","stimuli/objects/martiniglass01b.jpg",1,"stimuli/m2.jpg",1,1,1.884525
3,NA,NA,NA,"stimuli/m2.jpg","stimuli/m5.jpg",2,"stimuli/Kitchen & utensil.png","stimuli/Hand labour tool & accessory.png","stimuli/Outdoor activity & sport item.png","stimuli/Electronic device & accessory.png",3,"Outdoor activity & sport item","stimuli/objects/racquetballracket.jpg",0,"stimuli/m5.jpg",4,0,2.18499
3,NA,NA,NA,"stimuli/m5.jpg","stimuli/m2.jpg",2,"stimuli/Outdoor activity & sport item.png","stimuli/Electronic device & accessory.png","stimuli/Hand labour tool & accessory.png","stimuli/Kitchen & utensil.png",4,"Kitchen & utensil","stimuli/objects/strainer01b.jpg",1,"stimuli/m2.jpg",3,0,1.235215
3,NA,NA,NA,"stimuli/m2.jpg","stimuli/m5.jpg",2,"stimuli/Electronic device & accessory.png","stimuli/Kitchen & utensil.png","stimuli/Outdoor activity & sport item.png","stimuli/Hand labour tool & accessory.png",4,"Hand labour tool & accessory","stimuli/objects/metalbrush.jpg",1,"stimuli/m5.jpg",4,1,2.067635
3,NA,NA,NA,"stimuli/m5.jpg","stimuli/m2.jpg",1,"stimuli/Hand labour tool & accessory.png","stimuli/Kitchen & utensil.png","stimuli/Outdoor activity & sport item.png","stimuli/Electronic device & accessory.png",1,"Hand labour tool & accessory","stimuli/objects/pressurewasher.jpg",1,"stimuli/m5.jpg",1,1,1.329825
3,NA,NA,NA,"stimuli/m2.jpg","stimuli/m5.jpg",1,"stimuli/Outdoor activity & sport item.png","stimuli/Hand labour tool & accessory.png","stimuli/Electronic device & accessory.png","stimuli/Kitchen & utensil.png",4,"Kitchen & utensil","stimuli/objects/mortarandpestle.jpg",1,"stimuli/m2.jpg",4,1,1.4691
3,NA,NA,NA,"stimuli/m5.jpg","stimuli/m2.jpg",1,"stimuli/Electronic device & accessory.png","stimuli/Hand labour tool & accessory.png","stimuli/Outdoor activity & sport item.png","stimuli/Kitchen & utensil.png",1,"Electronic device & accessory","stimuli/objects/speaker04.jpg",0,"stimuli/m5.jpg",4,0,1.92223
3,NA,NA,NA,"stimuli/m2.jpg","stimuli/m5.jpg",2,"stimuli/Hand labour tool & accessory.png","stimuli/Kitchen & utensil.png","stimuli/Electronic device & accessory.png","stimuli/Outdoor activity & sport item.png",1,"Hand labour tool & accessory","stimuli/objects/squeegee01b.jpg",1,"stimuli/m5.jpg",2,0,2.152965
3,NA,NA,NA,"stimuli/m5.jpg","stimuli/m2.jpg",2,"stimuli/Hand labour tool & accessory.png","stimuli/Outdoor activity & sport item.png","stimuli/Kitchen & utensil.png","stimuli/Electronic device & accessory.png",4,"Electronic device & accessory","stimuli/objects/antenna.jpg",0,"stimuli/m2.jpg",3,0,1.04199
3,NA,NA,NA,"stimuli/m5.jpg","stimuli/m2.jpg",2,"stimuli/Electronic device & accessory.png","stimuli/Outdoor activity & sport item.png","stimuli/Hand labour tool & accessory.png","stimuli/Kitchen & utensil.png",4,"Kitchen & utensil","stimuli/objects/sippycup.jpg",1,"stimuli/m2.jpg",1,0,1.68998
3,NA,NA,NA,"stimuli/m2.jpg","stimuli/m5.jpg",2,"stimuli/Kitchen & utensil.png","stimuli/Outdoor activity & sport item.png","stimuli/Electronic device & accessory.png","stimuli/Hand labour tool & accessory.png",4,"Hand labour tool & accessory","stimuli/objects/painttray.jpg",1,"stimuli/m5.jpg",3,0,1.319115
3,NA,NA,NA,"stimuli/m2.jpg","stimuli/m5.jpg",1,"stimuli/Hand labour tool & accessory.png","stimuli/Kitchen & utensil.png","stimuli/Electronic device & accessory.png","stimuli/Outdoor activity & sport item.png",2,"Kitchen & utensil","stimuli/objects/handmixer01d.jpg",1,"stimuli/m2.jpg",4,0,1.451085
3,NA,NA,NA,"stimuli/m5.jpg","stimuli/m2.jpg",2,"stimuli/Outdoor activity & sport item.png","stimuli/Kitchen & utensil.png","stimuli/Electronic device & accessory.png","stimuli/Hand labour tool & accessory.png",4,"Hand labour tool & accessory","stimuli/objects/hoe.jpg",0,"stimuli/m2.jpg",2,0,1.3822
3,NA,NA,NA,"stimuli/m2.jpg","stimuli/m5.jpg",2,"stimuli/Hand labour tool & accessory.png","stimuli/Kitchen & utensil.png","stimuli/Outdoor activity & sport item.png","stimuli/Electronic device & accessory.png",1,"Hand labour tool & accessory","stimuli/objects/loppingshears.jpg",1,"stimuli/m5.jpg",3,0,1.114685
3,NA,NA,NA,"stimuli/m2.jpg","stimuli/m5.jpg",1,"stimuli/Kitchen & utensil.png","stimuli/Electronic device & accessory.png","stimuli/Outdoor activity & sport item.png","stimuli/Hand labour tool & accessory.png",1,"Kitchen & utensil","stimuli/objects/hourglass.jpg",1,"stimuli/m2.jpg",1,1,0.982225
3,NA,NA,NA,"stimuli/m2.jpg","stimuli/m5.jpg",2,"stimuli/Electronic device & accessory.png","stimuli/Hand labour tool & accessory.png","stimuli/Kitchen & utensil.png","stimuli/Outdoor activity & sport item.png",2,"Hand labour tool & accessory","stimuli/objects/snowshovel.jpg",1,"stimuli/m5.jpg",2,1,1.256665
3,NA,NA,NA,"stimuli/m2.jpg","stimuli/m5.jpg",2,"stimuli/Electronic device & accessory.png","stimuli/Hand labour tool & accessory.png","stimuli/Outdoor activity & sport item.png","stimuli/Kitchen & utensil.png",2,"Hand labour tool & accessory","stimuli/objects/carjack.jpg",1,"stimuli/m5.jpg",2,1,0.749625
3,NA,NA,NA,"stimuli/m2.jpg","stimuli/m5.jpg",2,"stimuli/Hand labour tool & accessory.png","stimuli/Electronic device & accessory.png","stimuli/Kitchen & utensil.png","stimuli/Outdoor activity & sport item.png",1,"Hand labour tool & accessory","stimuli/objects/wheel01.jpg",1,"stimuli/m5.jpg",1,1,2.082215
3,NA,NA,NA,"stimuli/m2.jpg","stimuli/m5.jpg",1,"stimuli/Outdoor activity & sport item.png","stimuli/Electronic device & accessory.png","stimuli/Hand labour tool & accessory.png","stimuli/Kitchen & utensil.png",4,"Kitchen & utensil","stimuli/objects/winerack.jpg",1,"stimuli/m2.jpg",4,1,1.11409
3,NA,NA,NA,"stimuli/m5.jpg","stimuli/m2.jpg",2,"stimuli/Hand labour tool & accessory.png","stimuli/Kitchen & utensil.png","stimuli/Electronic device & accessory.png","stimuli/Outdoor activity & sport item.png",2,"Kitchen & utensil","stimuli/objects/butterdish.jpg",1,"stimuli/m2.jpg",2,1,1.35777
3,NA,NA,NA,"stimuli/m2.jpg","stimuli/m5.jpg",2,"stimuli/Hand labour tool & accessory.png","stimuli/Outdoor activity & sport item.png","stimuli/Kitchen & utensil.png","stimuli/Electronic device & accessory.png",1,"Hand labour tool & accessory","stimuli/objects/needlenosepliers01.jpg",1,"stimuli/m5.jpg",1,1,1.75717
3,NA,NA,NA,"stimuli/m2.jpg","stimuli/m5.jpg",2,"stimuli/Kitchen & utensil.png","stimuli/Hand labour tool & accessory.png","stimuli/Electronic device & accessory.png","stimuli/Outdoor activity & sport item.png",2,"Hand labour tool & accessory","stimuli/objects/pickaxe02.jpg",1,"stimuli/m5.jpg",3,0,1.4274
3,NA,NA,NA,"","",NA,"","","","",NA,"","",NA,"",NA,NA,NA
