"participant","pract_resp.keys","pract_resp.corr","pract_resp.rt","first_character","second_character","Cue","left_categ","centleft_categ","centright_categ","right_categ","corr_ans","obj_category","image","trial_cond","cuedCharacter","task_resp.keys","task_resp.corr","task_resp.rt"
4,NA,NA,NA,"","",NA,"","","","",NA,"","",NA,"",NA,NA,NA
4,NA,NA,NA,"","",NA,"","","","",NA,"","",NA,"",NA,NA,NA
4,NA,NA,NA,"","",NA,"","","","",NA,"","",NA,"",NA,NA,NA
4,NA,NA,NA,"","",NA,"","","","",NA,"","",NA,"",NA,NA,NA
4,NA,NA,NA,"","",NA,"","","","",NA,"","",NA,"",NA,NA,NA
4,NA,NA,NA,"","",NA,"","","","",NA,"","",NA,"",NA,NA,NA
4,2,1,1.402615,"stimuli/m1.jpg","stimuli/m4.jpg",1,"stimuli/Vehicle.png","stimuli/Stationary & school supply.png","stimuli/Clothing.png","stimuli/Gamestoy & entertainment.png",2,"","stimuli/objects/pen04b.jpg",1,"stimuli/m1.jpg",NA,NA,NA
4,1,1,1.91767,"stimuli/m1.jpg","stimuli/m4.jpg",1,"stimuli/Stationary & school supply.png","stimuli/Gamestoy & entertainment.png","stimuli/Clothing.png","stimuli/Vehicle.png",1,"","stimuli/objects/marker01a.jpg",1,"stimuli/m1.jpg",NA,NA,NA
4,1,0,1.701305,"stimuli/m1.jpg","stimuli/m4.jpg",1,"stimuli/Gamestoy & entertainment.png","stimuli/Stationary & school supply.png","stimuli/Clothing.png","stimuli/Vehicle.png",2,"","stimuli/objects/ruler04.jpg",1,"stimuli/m1.jpg",NA,NA,NA
4,3,0,1.11722,"stimuli/m4.jpg","stimuli/m1.jpg",1,"stimuli/Stationary & school supply.png","stimuli/Vehicle.png","stimuli/Gamestoy & entertainment.png","stimuli/Clothing.png",4,"","stimuli/objects/scarf.jpg",1,"stimuli/m4.jpg",NA,NA,NA
4,1,1,1.1499,"stimuli/m4.jpg","stimuli/m1.jpg",1,"stimuli/Clothing.png","stimuli/Vehicle.png","stimuli/Gamestoy & entertainment.png","stimuli/Stationary & school supply.png",1,"","stimuli/objects/waders.jpg",1,"stimuli/m4.jpg",NA,NA,NA
4,1,1,1.67179,"stimuli/m1.jpg","stimuli/m4.jpg",1,"stimuli/Stationary & school supply.png","stimuli/Clothing.png","stimuli/Vehicle.png","stimuli/Gamestoy & entertainment.png",1,"","stimuli/objects/stapleremover.jpg",1,"stimuli/m1.jpg",NA,NA,NA
4,3,1,1.6564,"stimuli/m1.jpg","stimuli/m4.jpg",2,"stimuli/Stationary & school supply.png","stimuli/Vehicle.png","stimuli/Clothing.png","stimuli/Gamestoy & entertainment.png",3,"","stimuli/objects/zipper.jpg",1,"stimuli/m4.jpg",NA,NA,NA
4,1,0,0.736945,"stimuli/m4.jpg","stimuli/m1.jpg",1,"stimuli/Clothing.png","stimuli/Gamestoy & entertainment.png","stimuli/Stationary & school supply.png","stimuli/Vehicle.png",4,"","stimuli/objects/convertible.jpg",0,"stimuli/m4.jpg",NA,NA,NA
4,3,1,0.998085,"stimuli/m1.jpg","stimuli/m4.jpg",1,"stimuli/Vehicle.png","stimuli/Gamestoy & entertainment.png","stimuli/Stationary & school supply.png","stimuli/Clothing.png",3,"","stimuli/objects/paperclip03.jpg",1,"stimuli/m1.jpg",NA,NA,NA
4,3,1,1.307725,"stimuli/m4.jpg","stimuli/m1.jpg",2,"stimuli/Vehicle.png","stimuli/Clothing.png","stimuli/Stationary & school supply.png","stimuli/Gamestoy & entertainment.png",3,"","stimuli/objects/mathcompass.jpg",1,"stimuli/m1.jpg",NA,NA,NA
4,1,1,0.67217,"stimuli/m4.jpg","stimuli/m1.jpg",2,"stimuli/Stationary & school supply.png","stimuli/Vehicle.png","stimuli/Gamestoy & entertainment.png","stimuli/Clothing.png",1,"","stimuli/objects/folder.jpg",1,"stimuli/m1.jpg",NA,NA,NA
4,NA,NA,NA,"","",NA,"","","","",NA,"","",NA,"",NA,NA,NA
4,NA,NA,NA,"stimuli/m2.jpg","stimuli/m5.jpg",1,"stimuli/Outdoor activity & sport item.png","stimuli/Electronic device & accessory.png","stimuli/Kitchen & utensil.png","stimuli/Hand labour tool & accessory.png",3,"Kitchen & utensil","stimuli/objects/cutleryset.jpg",1,"stimuli/m2.jpg",2,0,1.017355
4,NA,NA,NA,"stimuli/m5.jpg","stimuli/m2.jpg",2,"stimuli/Kitchen & utensil.png","stimuli/Electronic device & accessory.png","stimuli/Outdoor activity & sport item.png","stimuli/Hand labour tool & accessory.png",1,"Kitchen & utensil","stimuli/objects/grill.jpg",1,"stimuli/m2.jpg",3,0,0.99861
4,NA,NA,NA,"stimuli/m5.jpg","stimuli/m2.jpg",1,"stimuli/Hand labour tool & accessory.png","stimuli/Outdoor activity & sport item.png","stimuli/Electronic device & accessory.png","stimuli/Kitchen & utensil.png",1,"Hand labour tool & accessory","stimuli/objects/ducttape.jpg",1,"stimuli/m5.jpg",4,0,1.88194
4,NA,NA,NA,"stimuli/m5.jpg","stimuli/m2.jpg",2,"stimuli/Electronic device & accessory.png","stimuli/Kitchen & utensil.png","stimuli/Outdoor activity & sport item.png","stimuli/Hand labour tool & accessory.png",2,"Kitchen & utensil","stimuli/objects/cakeplatter.jpg",1,"stimuli/m2.jpg",2,1,0.930055
4,NA,NA,NA,"stimuli/m5.jpg","stimuli/m2.jpg",2,"stimuli/Outdoor activity & sport item.png","stimuli/Hand labour tool & accessory.png","stimuli/Electronic device & accessory.png","stimuli/Kitchen & utensil.png",4,"Kitchen & utensil","stimuli/objects/bagtie.jpg",1,"stimuli/m2.jpg",4,1,1.47705
4,NA,NA,NA,"stimuli/m5.jpg","stimuli/m2.jpg",1,"stimuli/Outdoor activity & sport item.png","stimuli/Kitchen & utensil.png","stimuli/Electronic device & accessory.png","stimuli/Hand labour tool & accessory.png",4,"Hand labour tool & accessory","stimuli/objects/generator.jpg",1,"stimuli/m5.jpg",4,1,2.020175
4,NA,NA,NA,"stimuli/m2.jpg","stimuli/m5.jpg",1,"stimuli/Electronic device & accessory.png","stimuli/Outdoor activity & sport item.png","stimuli/Hand labour tool & accessory.png","stimuli/Kitchen & utensil.png",4,"Kitchen & utensil","stimuli/objects/thermos.jpg",1,"stimuli/m2.jpg",4,1,1.05526
4,NA,NA,NA,"stimuli/m2.jpg","stimuli/m5.jpg",1,"stimuli/Electronic device & accessory.png","stimuli/Hand labour tool & accessory.png","stimuli/Outdoor activity & sport item.png","stimuli/Kitchen & utensil.png",4,"Kitchen & utensil","stimuli/objects/fryingpan02a.jpg",1,"stimuli/m2.jpg",4,1,1.132675
4,NA,NA,NA,"stimuli/m5.jpg","stimuli/m2.jpg",1,"stimuli/Electronic device & accessory.png","stimuli/Hand labour tool & accessory.png","stimuli/Kitchen & utensil.png","stimuli/Outdoor activity & sport item.png",2,"Hand labour tool & accessory","stimuli/objects/cheeseknife01.jpg",1,"stimuli/m5.jpg",2,1,0.891235
4,NA,NA,NA,"stimuli/m2.jpg","stimuli/m5.jpg",1,"stimuli/Hand labour tool & accessory.png","stimuli/Electronic device & accessory.png","stimuli/Outdoor activity & sport item.png","stimuli/Kitchen & utensil.png",4,"Kitchen & utensil","stimuli/objects/bowl02a.jpg",1,"stimuli/m2.jpg",4,1,1.33936
4,NA,NA,NA,"stimuli/m5.jpg","stimuli/m2.jpg",1,"stimuli/Kitchen & utensil.png","stimuli/Electronic device & accessory.png","stimuli/Outdoor activity & sport item.png","stimuli/Hand labour tool & accessory.png",4,"Hand labour tool & accessory","stimuli/objects/sandpaper.jpg",1,"stimuli/m5.jpg",4,1,1.48417
4,NA,NA,NA,"stimuli/m2.jpg","stimuli/m5.jpg",1,"stimuli/Outdoor activity & sport item.png","stimuli/Kitchen & utensil.png","stimuli/Hand labour tool & accessory.png","stimuli/Electronic device & accessory.png",2,"Kitchen & utensil","stimuli/objects/saladspinner.jpg",1,"stimuli/m2.jpg",2,1,1.46779
4,NA,NA,NA,"stimuli/m5.jpg","stimuli/m2.jpg",1,"stimuli/Outdoor activity & sport item.png","stimuli/Kitchen & utensil.png","stimuli/Hand labour tool & accessory.png","stimuli/Electronic device & accessory.png",3,"Hand labour tool & accessory","stimuli/objects/cuttingpliers02.jpg",1,"stimuli/m5.jpg",3,1,0.96722
4,NA,NA,NA,"stimuli/m2.jpg","stimuli/m5.jpg",2,"stimuli/Outdoor activity & sport item.png","stimuli/Electronic device & accessory.png","stimuli/Kitchen & utensil.png","stimuli/Hand labour tool & accessory.png",4,"Hand labour tool & accessory","stimuli/objects/gavel.jpg",1,"stimuli/m5.jpg",4,1,1.048795
4,NA,NA,NA,"stimuli/m5.jpg","stimuli/m2.jpg",1,"stimuli/Electronic device & accessory.png","stimuli/Kitchen & utensil.png","stimuli/Hand labour tool & accessory.png","stimuli/Outdoor activity & sport item.png",3,"Hand labour tool & accessory","stimuli/objects/bungeecord02.jpg",1,"stimuli/m5.jpg",3,1,2.14843
4,NA,NA,NA,"stimuli/m2.jpg","stimuli/m5.jpg",1,"stimuli/Hand labour tool & accessory.png","stimuli/Outdoor activity & sport item.png","stimuli/Electronic device & accessory.png","stimuli/Kitchen & utensil.png",4,"Kitchen & utensil","stimuli/objects/spicerack.jpg",1,"stimuli/m2.jpg",1,0,0.96237
4,NA,NA,NA,"stimuli/m5.jpg","stimuli/m2.jpg",2,"stimuli/Hand labour tool & accessory.png","stimuli/Kitchen & utensil.png","stimuli/Outdoor activity & sport item.png","stimuli/Electronic device & accessory.png",2,"Kitchen & utensil","stimuli/objects/potatomasher03b.jpg",1,"stimuli/m2.jpg",2,1,0.95006
4,NA,NA,NA,"stimuli/m2.jpg","stimuli/m5.jpg",2,"stimuli/Electronic device & accessory.png","stimuli/Outdoor activity & sport item.png","stimuli/Kitchen & utensil.png","stimuli/Hand labour tool & accessory.png",3,"Kitchen & utensil","stimuli/objects/oven.jpg",0,"stimuli/m5.jpg",4,0,0.76844
4,NA,NA,NA,"stimuli/m2.jpg","stimuli/m5.jpg",1,"stimuli/Hand labour tool & accessory.png","stimuli/Kitchen & utensil.png","stimuli/Outdoor activity & sport item.png","stimuli/Electronic device & accessory.png",3,"Outdoor activity & sport item","stimuli/objects/basketball01.jpg",0,"stimuli/m2.jpg",2,0,1.34909
4,NA,NA,NA,"stimuli/m2.jpg","stimuli/m5.jpg",2,"stimuli/Outdoor activity & sport item.png","stimuli/Kitchen & utensil.png","stimuli/Hand labour tool & accessory.png","stimuli/Electronic device & accessory.png",3,"Hand labour tool & accessory","stimuli/objects/cclamp.jpg",1,"stimuli/m5.jpg",1,0,1.071285
4,NA,NA,NA,"stimuli/m5.jpg","stimuli/m2.jpg",2,"stimuli/Kitchen & utensil.png","stimuli/Hand labour tool & accessory.png","stimuli/Outdoor activity & sport item.png","stimuli/Electronic device & accessory.png",1,"Kitchen & utensil","stimuli/objects/martiniglass01b.jpg",1,"stimuli/m2.jpg",3,0,1.02454
4,NA,NA,NA,"stimuli/m2.jpg","stimuli/m5.jpg",2,"stimuli/Kitchen & utensil.png","stimuli/Hand labour tool & accessory.png","stimuli/Outdoor activity & sport item.png","stimuli/Electronic device & accessory.png",3,"Outdoor activity & sport item","stimuli/objects/racquetballracket.jpg",0,"stimuli/m5.jpg",2,0,0.69173
4,NA,NA,NA,"stimuli/m5.jpg","stimuli/m2.jpg",2,"stimuli/Outdoor activity & sport item.png","stimuli/Electronic device & accessory.png","stimuli/Hand labour tool & accessory.png","stimuli/Kitchen & utensil.png",4,"Kitchen & utensil","stimuli/objects/strainer01b.jpg",1,"stimuli/m2.jpg",4,1,0.766815
4,NA,NA,NA,"stimuli/m2.jpg","stimuli/m5.jpg",2,"stimuli/Electronic device & accessory.png","stimuli/Kitchen & utensil.png","stimuli/Outdoor activity & sport item.png","stimuli/Hand labour tool & accessory.png",4,"Hand labour tool & accessory","stimuli/objects/metalbrush.jpg",1,"stimuli/m5.jpg",3,0,1.21182
4,NA,NA,NA,"stimuli/m5.jpg","stimuli/m2.jpg",1,"stimuli/Hand labour tool & accessory.png","stimuli/Kitchen & utensil.png","stimuli/Outdoor activity & sport item.png","stimuli/Electronic device & accessory.png",1,"Hand labour tool & accessory","stimuli/objects/pressurewasher.jpg",1,"stimuli/m5.jpg",1,1,0.917555
4,NA,NA,NA,"stimuli/m2.jpg","stimuli/m5.jpg",1,"stimuli/Outdoor activity & sport item.png","stimuli/Hand labour tool & accessory.png","stimuli/Electronic device & accessory.png","stimuli/Kitchen & utensil.png",4,"Kitchen & utensil","stimuli/objects/mortarandpestle.jpg",1,"stimuli/m2.jpg",4,1,0.649615
4,NA,NA,NA,"stimuli/m5.jpg","stimuli/m2.jpg",1,"stimuli/Electronic device & accessory.png","stimuli/Hand labour tool & accessory.png","stimuli/Outdoor activity & sport item.png","stimuli/Kitchen & utensil.png",1,"Electronic device & accessory","stimuli/objects/speaker04.jpg",0,"stimuli/m5.jpg",2,0,2.867155
4,NA,NA,NA,"stimuli/m2.jpg","stimuli/m5.jpg",2,"stimuli/Hand labour tool & accessory.png","stimuli/Kitchen & utensil.png","stimuli/Electronic device & accessory.png","stimuli/Outdoor activity & sport item.png",1,"Hand labour tool & accessory","stimuli/objects/squeegee01b.jpg",1,"stimuli/m5.jpg",1,1,1.103395
4,NA,NA,NA,"stimuli/m5.jpg","stimuli/m2.jpg",2,"stimuli/Hand labour tool & accessory.png","stimuli/Outdoor activity & sport item.png","stimuli/Kitchen & utensil.png","stimuli/Electronic device & accessory.png",4,"Electronic device & accessory","stimuli/objects/antenna.jpg",0,"stimuli/m2.jpg",3,0,0.9397
4,NA,NA,NA,"stimuli/m5.jpg","stimuli/m2.jpg",2,"stimuli/Electronic device & accessory.png","stimuli/Outdoor activity & sport item.png","stimuli/Hand labour tool & accessory.png","stimuli/Kitchen & utensil.png",4,"Kitchen & utensil","stimuli/objects/sippycup.jpg",1,"stimuli/m2.jpg",1,0,0.85137
4,NA,NA,NA,"stimuli/m2.jpg","stimuli/m5.jpg",2,"stimuli/Kitchen & utensil.png","stimuli/Outdoor activity & sport item.png","stimuli/Electronic device & accessory.png","stimuli/Hand labour tool & accessory.png",4,"Hand labour tool & accessory","stimuli/objects/painttray.jpg",1,"stimuli/m5.jpg",4,1,0.68865
4,NA,NA,NA,"stimuli/m2.jpg","stimuli/m5.jpg",1,"stimuli/Hand labour tool & accessory.png","stimuli/Kitchen & utensil.png","stimuli/Electronic device & accessory.png","stimuli/Outdoor activity & sport item.png",2,"Kitchen & utensil","stimuli/objects/handmixer01d.jpg",1,"stimuli/m2.jpg",2,1,0.86515
4,NA,NA,NA,"stimuli/m5.jpg","stimuli/m2.jpg",2,"stimuli/Outdoor activity & sport item.png","stimuli/Kitchen & utensil.png","stimuli/Electronic device & accessory.png","stimuli/Hand labour tool & accessory.png",4,"Hand labour tool & accessory","stimuli/objects/hoe.jpg",0,"stimuli/m2.jpg",2,0,0.72956
4,NA,NA,NA,"stimuli/m2.jpg","stimuli/m5.jpg",2,"stimuli/Hand labour tool & accessory.png","stimuli/Kitchen & utensil.png","stimuli/Outdoor activity & sport item.png","stimuli/Electronic device & accessory.png",1,"Hand labour tool & accessory","stimuli/objects/loppingshears.jpg",1,"stimuli/m5.jpg",1,1,1.06441
4,NA,NA,NA,"stimuli/m2.jpg","stimuli/m5.jpg",1,"stimuli/Kitchen & utensil.png","stimuli/Electronic device & accessory.png","stimuli/Outdoor activity & sport item.png","stimuli/Hand labour tool & accessory.png",1,"Kitchen & utensil","stimuli/objects/hourglass.jpg",1,"stimuli/m2.jpg",1,1,1.196175
4,NA,NA,NA,"stimuli/m2.jpg","stimuli/m5.jpg",2,"stimuli/Electronic device & accessory.png","stimuli/Hand labour tool & accessory.png","stimuli/Kitchen & utensil.png","stimuli/Outdoor activity & sport item.png",2,"Hand labour tool & accessory","stimuli/objects/snowshovel.jpg",1,"stimuli/m5.jpg",2,1,1.32885
4,NA,NA,NA,"stimuli/m2.jpg","stimuli/m5.jpg",2,"stimuli/Electronic device & accessory.png","stimuli/Hand labour tool & accessory.png","stimuli/Outdoor activity & sport item.png","stimuli/Kitchen & utensil.png",2,"Hand labour tool & accessory","stimuli/objects/carjack.jpg",1,"stimuli/m5.jpg",2,1,1.08558
4,NA,NA,NA,"stimuli/m2.jpg","stimuli/m5.jpg",2,"stimuli/Hand labour tool & accessory.png","stimuli/Electronic device & accessory.png","stimuli/Kitchen & utensil.png","stimuli/Outdoor activity & sport item.png",1,"Hand labour tool & accessory","stimuli/objects/wheel01.jpg",1,"stimuli/m5.jpg",1,1,1.711615
4,NA,NA,NA,"stimuli/m2.jpg","stimuli/m5.jpg",1,"stimuli/Outdoor activity & sport item.png","stimuli/Electronic device & accessory.png","stimuli/Hand labour tool & accessory.png","stimuli/Kitchen & utensil.png",4,"Kitchen & utensil","stimuli/objects/winerack.jpg",1,"stimuli/m2.jpg",4,1,1.00011
4,NA,NA,NA,"stimuli/m5.jpg","stimuli/m2.jpg",2,"stimuli/Hand labour tool & accessory.png","stimuli/Kitchen & utensil.png","stimuli/Electronic device & accessory.png","stimuli/Outdoor activity & sport item.png",2,"Kitchen & utensil","stimuli/objects/butterdish.jpg",1,"stimuli/m2.jpg",2,1,1.177705
4,NA,NA,NA,"stimuli/m2.jpg","stimuli/m5.jpg",2,"stimuli/Hand labour tool & accessory.png","stimuli/Outdoor activity & sport item.png","stimuli/Kitchen & utensil.png","stimuli/Electronic device & accessory.png",1,"Hand labour tool & accessory","stimuli/objects/needlenosepliers01.jpg",1,"stimuli/m5.jpg",1,1,1.058855
4,NA,NA,NA,"stimuli/m2.jpg","stimuli/m5.jpg",2,"stimuli/Kitchen & utensil.png","stimuli/Hand labour tool & accessory.png","stimuli/Electronic device & accessory.png","stimuli/Outdoor activity & sport item.png",2,"Hand labour tool & accessory","stimuli/objects/pickaxe02.jpg",1,"stimuli/m5.jpg",2,1,0.794465
4,NA,NA,NA,"","",NA,"","","","",NA,"","",NA,"",NA,NA,NA
