"participant","recog_resp.keys","recog_resp.rt","conf_resp.keys","conf_resp.rt","images","corr_ans","type"
1,"left",NA,NA,NA,"","",""
1,"left",NA,NA,NA,"","",""
1,"right",NA,NA,NA,"","",""
1,"left",NA,NA,NA,"","",""
1,"left",5.666,2,0.679,"stimuli/objects/mug01.jpg","left","old"
1,"left",2.457,4,1.149,"stimuli/objects/surfboard.jpg","left","old"
1,"left",1.312,4,0.734,"stimuli/objects/lock03a.jpg","left","old"
1,"left",1.959,2,1.059,"stimuli/objects/snowshoe.jpg","right","new"
1,"right",1.207,4,0.821,"stimuli/objects/nintendods.jpg","left","old"
1,"right",1.941,3,1.478,"stimuli/objects/desktopcomputer.jpg","left","old"
1,"left",1.452,3,0.888,"stimuli/objects/jar02.jpg","right","new"
1,"left",1.818,2,0.676,"stimuli/objects/screwdriver04b.jpg","right","new"
1,"right",1.662,2,3.414,"stimuli/objects/alarmclock01.jpg","left","old"
1,"right",1.801,2,3.26,"stimuli/objects/pipewrench.jpg","right","new"
1,"left",3.353,2,0.798,"stimuli/objects/securitycamera.jpg","right","new"
1,"left",4.748,1,2.811,"stimuli/objects/bicycle.jpg","right","new"
1,"right",1.259,4,0.467,"stimuli/objects/ethernetcable02.jpg","left","old"
1,"right",2.709,2,0.573,"stimuli/objects/servingspoon01.jpg","left","old"
1,"right",1.761,4,0.415,"stimuli/objects/crosscountryski.jpg","left","old"
1,"left",3.928,2,2.928,"stimuli/objects/coffeemachine.jpg","right","new"
1,"left",3.421,3,0.449,"stimuli/objects/pda.jpg","left","old"
1,"right",1.96,3,0.837,"stimuli/objects/skateboard.jpg","left","old"
1,"right",5.955,2,1.375,"stimuli/objects/floodlight.jpg","right","new"
1,"left",4.593,1,0.363,"stimuli/objects/wheelbarrow01.jpg","right","new"
1,"left",3.318,1,0.415,"stimuli/objects/tennisball01b.jpg","right","new"
1,"right",1.346,4,0.519,"stimuli/objects/flask.jpg","left","old"
1,"right",1.665,3,0.484,"stimuli/objects/ladle02a.jpg","right","new"
1,"right",1.381,4,0.657,"stimuli/objects/hose.jpg","left","old"
1,"right",3.441,1,0.676,"stimuli/objects/remotecontrol04.jpg","right","new"
1,"right",3.196,1,0.64,"stimuli/objects/waterbottle03.jpg","left","old"
1,"left",1.258,4,0.397,"stimuli/objects/icecubetray01a.jpg","left","old"
1,"right",1.469,3,0.401,"stimuli/objects/fork03c.jpg","left","old"
1,"right",1.226,2,0.308,"stimuli/objects/chisel02b.jpg","left","old"
1,"left",2.121,2,0.363,"stimuli/objects/gps.jpg","left","old"
1,"left",2.203,3,0.763,"stimuli/objects/boxingglove01.jpg","left","old"
1,"right",1.138,4,0.294,"stimuli/objects/lectern01.jpg","left","old"
1,"left",1.108,3,0.362,"stimuli/objects/outletadapter.jpg","left","old"
1,"right",1.038,3,1.322,"stimuli/objects/drillbit03a.jpg","left","old"
1,"right",2.726,2,0.905,"stimuli/objects/swissarmyknife01a.jpg","right","new"
1,"left",2.324,1,0.485,"stimuli/objects/leafblower01.jpg","left","old"
1,"right",8.553,2,0.134,"stimuli/objects/vhstape.jpg","right","new"
1,"right",2.082,2,1.409,"stimuli/objects/pastaspoon.jpg","right","new"
1,"left",1.681,3,1.239,"stimuli/objects/jack.jpg","left","old"
1,"left",5.257,1,0.345,"stimuli/objects/whisk.jpg","right","new"
1,"right",1.609,3,1.099,"stimuli/objects/teapot.jpg","right","new"
1,"right",3.48,1,0.262,"stimuli/objects/handgripper.jpg","right","new"
1,"left",1.211,4,0.667,"stimuli/objects/wineglass01.jpg","left","old"
1,"left",1.592,3,0.467,"stimuli/objects/microphone01.jpg","right","new"
1,"left",2.707,2,0.292,"stimuli/objects/backpack01a.jpg","right","new"
1,"left",3.406,2,0.35,"stimuli/objects/catchermask.jpg","left","old"
1,"right",1.802,3,1.762,"stimuli/objects/charcoalbarbecue.jpg","right","new"
1,"right",2.134,4,0.799,"stimuli/objects/toolbox02.jpg","left","old"
1,"right",2.747,2,0.31,"stimuli/objects/adjustablewrench01b.jpg","right","new"
1,"left",2.244,2,0.348,"stimuli/objects/chainsaw.jpg","right","new"
1,"right",3.965,4,0.312,"stimuli/objects/poolnet.jpg","left","old"
1,"left",1.233,4,0.415,"stimuli/objects/golfbag.jpg","left","old"
1,"left",1.596,2,0.329,"stimuli/objects/footballhelmet.jpg","right","new"
1,"right",1.854,3,2.212,"stimuli/objects/fan.jpg","left","old"
1,"right",1.661,2,0.766,"stimuli/objects/hosenozzle.jpg","left","old"
1,"left",2.799,2,0.31,"stimuli/objects/hockeygoalieglove.jpg","right","new"
1,"left",3.916,1,0.379,"stimuli/objects/measuringcup01.jpg","left","old"
1,"left",2.695,2,0.31,"stimuli/objects/punchingball.jpg","right","new"
1,"left",1.202,4,0.344,"stimuli/objects/shotglass.jpg","left","old"
1,"right",3.772,2,0.63,"stimuli/objects/bottleopener01.jpg","right","new"
1,"left",1.328,4,0.398,"stimuli/objects/eggslicer.jpg","left","old"
1,"right",0.91,4,0.295,"stimuli/objects/cleaver01.jpg","left","old"
1,"right",1.369,2,1.356,"stimuli/objects/saw02b.jpg","right","new"
1,"left",3.006,2,0.536,"stimuli/objects/grater01a.jpg","right","new"
1,"right",1.76,3,0.383,"stimuli/objects/telephone01b.jpg","left","old"
1,"left",1.785,2,0.872,"stimuli/objects/hockeystick.jpg","left","old"
1,"right",4.025,1,0.31,"stimuli/objects/drill01b.jpg","left","old"
1,"right",3.337,2,0.362,"stimuli/objects/file.jpg","right","new"
1,"right",3.495,2,0.799,"stimuli/objects/boltcutter.jpg","right","new"
1,"left",2.432,3,0.87,"stimuli/objects/microwave.jpg","right","new"
1,"left",3.616,3,0.365,"stimuli/objects/football.jpg","left","old"
1,"left",1.439,3,1.203,"stimuli/objects/bucket02.jpg","right","new"
1,"left",1.785,4,0.345,"stimuli/objects/weight01.jpg","left","old"
1,"left",2.272,4,0.38,"stimuli/objects/handblender.jpg","left","old"
1,"right",1.384,3,0.382,"stimuli/objects/telescope.jpg","right","new"
1,"right",4.209,1,0.309,"stimuli/objects/fonduefork01.jpg","right","new"
1,"left",4.84,3,0.383,"stimuli/objects/snowbrush.jpg","right","new"
1,"left",1.488,2,0.537,"stimuli/objects/iceskate.jpg","right","new"
1,"left",1.088,3,0.398,"stimuli/objects/axe01.jpg","left","old"
1,"right",3.216,2,0.99,"stimuli/objects/dishrack.jpg","right","new"
1,"left",2.345,1,0.381,"stimuli/objects/cuttingboard.jpg","right","new"
1,"right",2.308,3,0.676,"stimuli/objects/fishinghook03.jpg","right","new"
1,"left",1.421,4,0.414,"stimuli/objects/icepack.jpg","left","old"
1,"right",3.862,2,0.43,"stimuli/objects/boatmotor.jpg","right","new"
1,"right",1.698,2,0.764,"stimuli/objects/bowrake.jpg","left","old"
1,"left",1.696,2,0.379,"stimuli/objects/flashlight02b.jpg","right","new"
1,"right",2.291,2,0.362,"stimuli/objects/wire.jpg","right","new"
1,"left",1.454,3,0.416,"stimuli/objects/ellipticalmachine.jpg","left","old"
1,"right",1.157,4,0.347,"stimuli/objects/boxcutter03a.jpg","left","old"
1,"right",4.159,1,0.432,"stimuli/objects/fanheater.jpg","right","new"
1,"right",1.229,4,0.38,"stimuli/objects/sledgehammer.jpg","left","old"
1,"right",4.296,1,0.381,"stimuli/objects/coffeemaker.jpg","right","new"
1,"right",1.994,2,0.486,"stimuli/objects/jug.jpg","right","new"
1,"left",1.207,4,0.554,"stimuli/objects/gastank.jpg","left","old"
1,"right",1.731,3,0.364,"stimuli/objects/jumpercables.jpg","left","old"
1,"right",0.863,3,0.641,"stimuli/objects/dolly01.jpg","left","old"
1,"right",1.034,4,0.345,"stimuli/objects/ramekin01.jpg","left","old"
1,"right",4.753,2,0.535,"stimuli/objects/jigsaw.jpg","right","new"
1,"left",1.122,4,0.572,"stimuli/objects/radio01.jpg","left","old"
1,"left",1.067,4,0.365,"stimuli/objects/rope03.jpg","left","old"
1,"right",1.873,2,0.327,"stimuli/objects/carlighter02.jpg","right","new"
1,"left",1.016,4,0.351,"stimuli/objects/sewingmachine01a.jpg","left","old"
1,"left",1.207,3,0.676,"stimuli/objects/leafrake.jpg","right","new"
1,"left",1.809,3,0.468,"stimuli/objects/gluetube.jpg","left","old"
1,"left",3.221,1,0.294,"stimuli/objects/butterknife.jpg","left","old"
1,"left",2.185,1,0.413,"stimuli/objects/wirestripper.jpg","right","new"
1,"right",2.463,1,0.297,"stimuli/objects/travelmug.jpg","left","old"
1,"left",1.353,3,0.346,"stimuli/objects/downhillski.jpg","left","old"
1,"left",1.717,2,0.851,"stimuli/objects/nailgun.jpg","right","new"
1,"right",1.755,2,2.317,"stimuli/objects/jackhammer.jpg","right","new"
1,"right",3.825,2,0.38,"stimuli/objects/phonejack.jpg","right","new"
1,"left",1.003,4,0.534,"stimuli/objects/staplegun.jpg","left","old"
1,"left",3.006,1,0.413,"stimuli/objects/knifesharpener.jpg","right","new"
1,"right",3.234,3,1.827,"stimuli/objects/carantenna.jpg","right","new"
1,"left",2.764,4,1.098,"stimuli/objects/espressomachine.jpg","left","old"
1,"right",4.873,2,0.676,"stimuli/objects/cooler01.jpg","left","old"
1,"right",1.212,1,0.748,"stimuli/objects/beachumbrella01.jpg","right","new"
1,"left",3.759,2,0.33,"stimuli/objects/solderingwire.jpg","left","old"
1,"left",1.957,2,0.432,"stimuli/objects/pitchfork.jpg","left","old"
1,"left",2.735,1,0.414,"stimuli/objects/airconditioner.jpg","right","new"
1,"right",2.604,1,0.259,"stimuli/objects/shovel01.jpg","right","new"
1,"left",2.063,1,0.537,"stimuli/objects/toyhockeystick01.jpg","right","new"
1,"left",1.888,2,0.921,"stimuli/objects/hockeypuck.jpg","right","new"
1,"right",1.399,3,0.362,"stimuli/objects/bikehelmet.jpg","right","new"
1,"left",4.403,2,0.348,"stimuli/objects/binoculars01b.jpg","right","new"
1,"left",1.122,4,1.184,"stimuli/objects/shinpad.jpg","left","old"
1,"left",4.453,1,0.396,"stimuli/objects/funnel.jpg","right","new"
1,"right",2.237,2,0.398,"stimuli/objects/faxmachine.jpg","right","new"
1,"right",2.099,2,0.851,"stimuli/objects/alarmsystem.jpg","right","new"
1,"right",1.301,4,0.35,"stimuli/objects/kneepad01c.jpg","left","old"
1,"left",1.464,3,1.2,"stimuli/objects/bottlecap.jpg","left","old"
1,"right",3.495,2,0.414,"stimuli/objects/exercisebike.jpg","right","new"
1,"left",5.401,1,0.99,"stimuli/objects/videocamera01a.jpg","right","new"
1,"right",1.089,3,0.274,"stimuli/objects/treadmill.jpg","left","old"
1,"right",2.692,2,0.397,"stimuli/objects/peppermill02b.jpg","left","old"
1,"left",1.523,3,0.257,"stimuli/objects/printer02.jpg","left","old"
1,"left",3.722,1,1.171,"stimuli/objects/tennisracket.jpg","right","new"
1,"right",3.146,3,0.331,"stimuli/objects/photocopier.jpg","left","old"
1,"right",2.202,1,1.201,"stimuli/objects/gasburner.jpg","right","new"
1,"left",1.819,2,0.345,"stimuli/objects/tupperware03a.jpg","left","old"
1,"right",1.608,4,1.128,"stimuli/objects/filmroll.jpg","left","old"
1,"right",0.931,4,0.345,"stimuli/objects/tent.jpg","left","old"
1,"right",1.193,2,0.299,"stimuli/objects/glass02a.jpg","left","old"
1,"right",NA,NA,NA,"","",""
1,"left",6.567,1,0.869,"stimuli/objects/computerkeyboard02.jpg","right","new"
1,"left",1.923,2,0.552,"stimuli/objects/plate01b.jpg","right","new"
1,"left",1.349,2,0.589,"stimuli/objects/contactlens.jpg","right","new"
1,"left",6.342,1,0.295,"stimuli/objects/snowblower.jpg","right","new"
1,"right",1.543,3,0.519,"stimuli/objects/walkietalkie.jpg","right","new"
1,"left",2.098,2,1.027,"stimuli/objects/weedwacker.jpg","left","old"
1,"left",1.104,4,0.367,"stimuli/objects/aircompressor.jpg","left","old"
1,"right",1.487,2,0.605,"stimuli/objects/bikepump01.jpg","right","new"
1,"left",2.012,1,0.258,"stimuli/objects/avcable.jpg","right","new"
1,"left",1.295,3,0.331,"stimuli/objects/wateringcan.jpg","right","new"
1,"left",1.608,3,1.273,"stimuli/objects/dvdplayer.jpg","right","new"
1,"right",5.379,2,0.275,"stimuli/objects/toothpick02.jpg","left","old"
1,"right",2.971,1,0.328,"stimuli/objects/tablesaw.jpg","right","new"
1,"right",1.193,4,1.182,"stimuli/objects/kitchenscale01a.jpg","left","old"
1,"right",1.365,4,0.331,"stimuli/objects/paintbrush01.jpg","left","old"
1,"left",1.35,2,1.451,"stimuli/objects/measuringspoon.jpg","right","new"
1,"right",1.228,2,0.361,"stimuli/objects/cellphone.jpg","left","old"
1,"right",1.907,2,1.113,"stimuli/objects/sportbag.jpg","right","new"
1,"right",1.612,3,0.365,"stimuli/objects/towel01.jpg","right","new"
1,"left",2.951,1,0.436,"stimuli/objects/pot01.jpg","right","new"
1,"right",1.453,3,0.556,"stimuli/objects/fanblades.jpg","right","new"
1,"left",1.94,2,0.327,"stimuli/objects/soundmixer.jpg","left","old"
1,"right",2.796,2,0.589,"stimuli/objects/cookingpot.jpg","right","new"
1,"right",5.588,2,0.468,"stimuli/objects/crocodileclips.jpg","right","new"
1,"left",2.171,2,1.131,"stimuli/objects/hockeygoaliepad.jpg","right","new"
1,"left",1.65,3,0.487,"stimuli/objects/swing.jpg","right","new"
1,"right",2.274,1,0.572,"stimuli/objects/bastingbrush.jpg","right","new"
1,"right",4.385,1,0.309,"stimuli/objects/shopvac.jpg","right","new"
1,"left",1.249,3,0.329,"stimuli/objects/stroller.jpg","left","old"
1,"left",1.118,3,1.375,"stimuli/objects/chandelier.jpg","right","new"
1,"right",2.693,4,1.306,"stimuli/objects/propanetank01.jpg","left","old"
1,"left",3.672,1,0.989,"stimuli/objects/basketballhoop01.jpg","right","new"
1,"right",1.301,4,0.343,"stimuli/objects/ladder.jpg","left","old"
1,"right",1.418,2,0.747,"stimuli/objects/satellitedish01.jpg","right","new"
1,"right",1.087,4,0.346,"stimuli/objects/filmnegative.jpg","left","old"
1,"left",2.623,1,0.274,"stimuli/objects/coffeepot03a.jpg","right","new"
1,"right",1.592,2,0.401,"stimuli/objects/rollerblade.jpg","right","new"
1,"right",3.984,1,0.641,"stimuli/objects/spoon01.jpg","right","new"
1,"left",2.762,1,0.416,"stimuli/objects/tripod01.jpg","right","new"
1,"left",3.86,1,0.259,"stimuli/objects/cashregister01.jpg","right","new"
1,"left",6.844,2,0.536,"stimuli/objects/gravyboat.jpg","left","old"
1,"right",2.515,1,0.659,"stimuli/objects/canister.jpg","right","new"
1,"left",2.572,1,0.504,"stimuli/objects/payphone.jpg","right","new"
1,"left",1.257,3,0.435,"stimuli/objects/pylon01.jpg","right","new"
1,"left",4.137,2,0.329,"stimuli/objects/solderingiron.jpg","right","new"
1,"left",3.963,1,0.239,"stimuli/objects/scanner.jpg","left","old"
1,"left",1.501,3,0.571,"stimuli/objects/waterbottleholder.jpg","left","old"
1,"left",1.609,4,0.363,"stimuli/objects/podium.jpg","left","old"
1,"right",1.294,2,0.378,"stimuli/objects/soccerball.jpg","left","old"
1,"left",2.903,2,0.38,"stimuli/objects/anchor.jpg","right","new"
1,"right",1.121,4,1.653,"stimuli/objects/camera01a.jpg","left","old"
1,"left",1.227,3,0.816,"stimuli/objects/icescraper.jpg","left","old"
1,"left",3.197,2,0.712,"stimuli/objects/lifejacket.jpg","right","new"
1,"left",1.086,2,0.486,"stimuli/objects/pliers02b.jpg","right","new"
1,"right",6.378,1,0.797,"stimuli/objects/styrofoamcup.jpg","right","new"
1,"right",1.961,3,0.536,"stimuli/objects/ceilingspeaker.jpg","left","old"
1,"left",0.965,4,1.147,"stimuli/objects/kite.jpg","left","old"
1,"right",1.209,3,0.415,"stimuli/objects/cameracase01a.jpg","left","old"
1,"right",1.575,2,0.397,"stimuli/objects/ipad02.jpg","right","new"
1,"right",1.766,3,0.712,"stimuli/objects/puttyknife.jpg","right","new"
1,"right",4.718,2,0.552,"stimuli/objects/walkman.jpg","right","new"
1,"left",1.872,2,0.432,"stimuli/objects/extensioncord.jpg","left","old"
1,"right",3.619,1,0.328,"stimuli/objects/backfloat.jpg","left","old"
1,"left",2.047,3,0.367,"stimuli/objects/toasteroven.jpg","left","old"
1,"left",8.677,1,1.62,"stimuli/objects/wiicontroller.jpg","left","old"
1,"left",2.046,2,0.729,"stimuli/objects/corkscrew03a.jpg","right","new"
1,"left",4.823,2,0.66,"stimuli/objects/huntingknife.jpg","left","old"
1,"right",1.696,1,0.38,"stimuli/objects/volleyball.jpg","right","new"
1,"left",2.341,1,0.314,"stimuli/objects/jumpingjack.jpg","right","new"
1,"left",4.612,2,0.623,"stimuli/objects/spotlight.jpg","left","old"
1,"right",1.277,1,0.35,"stimuli/objects/skiboot01a.jpg","right","new"
1,"right",1.201,4,0.326,"stimuli/objects/wafflemaker.jpg","left","old"
1,"right",1.207,4,0.293,"stimuli/objects/gymnasticring.jpg","left","old"
1,"right",1.259,2,1.129,"stimuli/objects/dvdcase01.jpg","right","new"
1,"left",1.104,3,0.658,"stimuli/objects/lawnmower.jpg","left","old"
1,"right",1.556,1,0.536,"stimuli/objects/television.jpg","right","new"
1,"left",1.476,4,0.316,"stimuli/objects/snowman.jpg","left","old"
1,"left",1.084,4,0.867,"stimuli/objects/bikewheel.jpg","left","old"
1,"left",0.874,4,0.222,"stimuli/objects/beermug01a.jpg","left","old"
1,"right",1.349,2,2.628,"stimuli/objects/diaperbag.jpg","right","new"
1,"right",2.258,1,0.903,"stimuli/objects/level03a.jpg","left","old"
1,"left",0.898,4,0.419,"stimuli/objects/birdie.jpg","left","old"
1,"right",1.103,3,0.331,"stimuli/objects/expansioncard.jpg","left","old"
1,"right",0.945,3,0.764,"stimuli/objects/muffintray01.jpg","left","old"
1,"left",0.911,4,0.343,"stimuli/objects/battery02b.jpg","left","old"
1,"left",1.644,1,0.587,"stimuli/objects/metalscissors.jpg","left","old"
1,"right",2.004,1,2.389,"stimuli/objects/magneticcompass.jpg","left","old"
1,"right",1.649,1,0.432,"stimuli/objects/spatula03.jpg","right","new"
1,"right",4.959,1,0.398,"stimuli/objects/flooringstapler.jpg","right","new"
1,"left",1.996,1,0.451,"stimuli/objects/clock01a.jpg","left","old"
1,"left",2.411,2,0.331,"stimuli/objects/papershredder.jpg","left","old"
1,"right",1.869,3,0.977,"stimuli/objects/caulking.jpg","right","new"
1,"right",2.796,1,1.41,"stimuli/objects/laptop01a.jpg","right","new"
1,"left",1.069,2,0.731,"stimuli/objects/reflector.jpg","left","old"
1,"left",2.325,2,0.714,"stimuli/objects/kiddiepool.jpg","right","new"
1,"right",1.452,3,0.363,"stimuli/objects/electricoutlet.jpg","right","new"
1,"right",2.795,1,1.305,"stimuli/objects/electricmixer.jpg","right","new"
1,"left",1.733,3,0.502,"stimuli/objects/knife03.jpg","right","new"
1,"right",3.231,1,0.293,"stimuli/objects/webcam.jpg","right","new"
1,"left",1.944,4,0.308,"stimuli/objects/cork02.jpg","left","old"
1,"left",1.695,3,0.326,"stimuli/objects/toyhardhat.jpg","left","old"
1,"left",2.085,2,0.485,"stimuli/objects/parachute.jpg","right","new"
1,"left",2.064,4,0.43,"stimuli/objects/usbcable01a.jpg","left","old"
1,"left",3.667,3,0.401,"stimuli/objects/paninigrill.jpg","left","old"
1,"right",5.518,1,0.259,"stimuli/objects/lightswitch01.jpg","left","old"
1,"right",1.838,2,0.624,"stimuli/objects/atm.jpg","right","new"
1,"left",1.488,4,0.624,"stimuli/objects/headphones02b.jpg","left","old"
1,"right",3.266,1,0.298,"stimuli/objects/drinkshaker.jpg","right","new"
1,"left",1.106,4,0.438,"stimuli/objects/fridge.jpg","left","old"
1,"right",1.173,2,0.361,"stimuli/objects/tray.jpg","right","new"
1,"left",0.911,3,0.312,"stimuli/objects/rollingpin01a.jpg","left","old"
1,"right",1.886,2,0.993,"stimuli/objects/minifridge.jpg","right","new"
1,"left",1.21,2,1.095,"stimuli/objects/hammer01.jpg","right","new"
1,"left",2.237,1,0.428,"stimuli/objects/smokedetector02.jpg","right","new"
1,"left",3.243,1,0.362,"stimuli/objects/bikelock.jpg","right","new"
1,"left",0.895,3,0.342,"stimuli/objects/exercisemachine.jpg","left","old"
1,"right",1.014,3,0.938,"stimuli/objects/monitor.jpg","left","old"
1,"right",2.129,2,0.607,"stimuli/objects/heatpump.jpg","left","old"
1,"left",0.946,4,1.286,"stimuli/objects/canoepaddle02.jpg","left","old"
1,"left",1.049,3,0.36,"stimuli/objects/exercisebench.jpg","left","old"
1,"right",1.332,2,0.52,"stimuli/objects/hedgetrimmer.jpg","left","old"
1,"right",6.42,1,0.257,"stimuli/objects/stepladder.jpg","left","old"
1,"left",1.362,2,0.661,"stimuli/objects/punchingbag.jpg","right","new"
1,"right",3.268,1,0.362,"stimuli/objects/taperecorder.jpg","right","new"
1,"left",2.967,1,0.314,"stimuli/objects/fuse.jpg","right","new"
1,"right",0.981,3,0.381,"stimuli/objects/woodenspoon.jpg","left","old"
1,"left",1.173,2,0.434,"stimuli/objects/golfball.jpg","left","old"
1,"left",8.794,2,0.314,"stimuli/objects/tableknife02.jpg","right","new"
1,"right",3.021,1,1.529,"stimuli/objects/paintscraper.jpg","left","old"
1,"left",1.447,2,0.329,"stimuli/objects/foodprocessor.jpg","right","new"
1,"left",1.366,4,0.659,"stimuli/objects/aluminiumfoil.jpg","left","old"
1,"right",1.591,3,1.373,"stimuli/objects/wetfloorsign.jpg","left","old"
1,"right",2.076,1,0.313,"stimuli/objects/stubbywrench01a.jpg","left","old"
1,"right",1.392,3,0.453,"stimuli/objects/powercable.jpg","left","old"
1,"left",1.037,4,0.483,"stimuli/objects/baseballbat.jpg","left","old"
1,"left",5.169,1,0.278,"stimuli/objects/studiolight.jpg","left","old"
1,"right",1.877,1,0.573,"stimuli/objects/mitresaw.jpg","right","new"
1,"left",1.226,2,0.522,"stimuli/objects/gardenshears01a.jpg","left","old"
1,"left",1.855,1,0.658,"stimuli/objects/skigoggles01.jpg","right","new"
1,"left",0.876,3,0.33,"stimuli/objects/tape02a.jpg","left","old"
1,"left",1.505,1,0.782,"stimuli/objects/chocolatefonduedish.jpg","right","new"
1,"right",3.79,2,0.5,"stimuli/objects/hedgeshears.jpg","right","new"
1,"right",0.999,4,0.744,"stimuli/objects/toaster01.jpg","left","old"
1,"right",NA,NA,NA,"","",""
