"PartNum","hazardRate","beta","BIC","LL"
1,0.0441537383969485,0.398542817821199,445.983919006475,-217.92936447021
2,0.0560225205111782,0.451749176431676,445.244918453131,-217.559864193539
3,0.054470102347963,0.375696246938211,446.174782872421,-218.024796403183
4,0.0334345392742728,0.265476268704337,447.225502673169,-218.550156303558
5,0.1,0.371246979196018,445.90258880343,-217.888699368688
6,0.0854462743034179,0.134107884153775,447.92608680003,-218.900448366988
7,0.0610352729031556,0.664963348253188,441.422185332205,-215.648497633076
8,0.0479966952856636,0.161682435250596,447.839324430679,-218.857067182312
9,0.1,0.16996048567394,447.730307512629,-218.802558723288
10,0.0673228576914443,0.232281317384252,447.414456081153,-218.64463300755
11,0,0,448.194208179939,-219.034509056943
12,0.1,0.232503376151612,447.327789417726,-218.601299675836
13,0,0,448.194208179939,-219.034509056943
14,0.0883245494986193,0.22743467931213,447.405627915922,-218.640218924934
15,0.0269524873437343,0.176662181046115,447.7633754838,-218.819092708873
16,0,0,448.194208179939,-219.034509056943
17,0,0,448.194208179939,-219.034509056943
18,0.1,0.190302203472382,447.600971027063,-218.737890480505
19,0.00393536999389581,0.674837521024262,440.404698782268,-215.139754358107
20,0.0438539617530422,0.154493637879251,447.870432920637,-218.872621427292
